
(module DIOM5336X265N (layer F.Cu) (tedit 60992F57)
  (descr "")
  (fp_text reference REF** (at -0.325 -3.135 0) (layer F.SilkS)
    (effects (font (size 1.0 1.0) (thickness 0.015)))
  )
  (fp_text value DIOM5336X265N (at 4.755 3.135 0) (layer F.Fab)
    (effects (font (size 1.0 1.0) (thickness 0.015)))
  )
  (fp_circle (center -3.9 0.0) (end -3.8 0.0) (layer F.SilkS) (width 0.2))
  (fp_circle (center -3.9 0.0) (end -3.8 0.0) (layer F.Fab) (width 0.2))
  (fp_line (start -3.555 -2.063) (end -3.555 2.063) (layer F.CrtYd) (width 0.05))
  (fp_line (start -2.2 -1.8125) (end -2.2 1.8125) (layer F.Fab) (width 0.127))
  (fp_line (start -2.2 1.8125) (end 2.2 1.8125) (layer F.Fab) (width 0.127))
  (fp_line (start 2.2 1.8125) (end 2.2 -1.8125) (layer F.Fab) (width 0.127))
  (fp_line (start 2.2 -1.8125) (end -2.2 -1.8125) (layer F.Fab) (width 0.127))
  (fp_line (start 3.555 -2.063) (end -3.555 -2.063) (layer F.CrtYd) (width 0.05))
  (fp_line (start 2.2 -1.8125) (end -2.2 -1.8125) (layer F.SilkS) (width 0.127))
  (fp_line (start -2.2 1.8125) (end 2.2 1.8125) (layer F.SilkS) (width 0.127))
  (fp_line (start -2.2 -1.8125) (end -2.2 -1.38) (layer F.SilkS) (width 0.127))
  (fp_line (start -2.2 1.38) (end -2.2 1.8125) (layer F.SilkS) (width 0.127))
  (fp_line (start 2.2 -1.8125) (end 2.2 -1.38) (layer F.SilkS) (width 0.127))
  (fp_line (start 2.2 1.38) (end 2.2 1.8125) (layer F.SilkS) (width 0.127))
  (fp_line (start 3.555 2.063) (end 3.555 -2.063) (layer F.CrtYd) (width 0.05))
  (fp_line (start -3.555 2.063) (end 3.555 2.063) (layer F.CrtYd) (width 0.05))
  (pad A smd rect (at 2.16 0.0) (size 2.29 2.12) (layers F.Cu F.Mask F.Paste))
  (pad C smd rect (at -2.16 0.0) (size 2.29 2.12) (layers F.Cu F.Mask F.Paste))
)