
(module VREG_TPS63070RNMR (layer F.Cu) (tedit 609BB974)
  (descr "")
  (fp_text reference REF** (at 0.64 -2.608 0) (layer F.SilkS)
    (effects (font (size 0.8 0.8) (thickness 0.015)))
  )
  (fp_text value VREG_TPS63070RNMR (at 6.736 2.608 0) (layer F.Fab)
    (effects (font (size 0.8 0.8) (thickness 0.015)))
  )
  (fp_poly
    (pts
      (xy 0.1 -0.625)
      (xy 1.45 -0.625)
      (xy 1.45 -0.375)
      (xy 0.1 -0.375)
    ) (layer F.Mask) (width 0.01)
  )
  (fp_poly
    (pts
      (xy -0.25 -0.125)
      (xy 1.45 -0.125)
      (xy 1.45 0.125)
      (xy -0.25 0.125)
    ) (layer F.Mask) (width 0.01)
  )
  (fp_poly
    (pts
      (xy 0.1 0.375)
      (xy 1.45 0.375)
      (xy 1.45 0.625)
      (xy 0.1 0.625)
    ) (layer F.Mask) (width 0.01)
  )
  (fp_line (start -1.25 -1.5) (end 1.25 -1.5) (layer F.Fab) (width 0.127))
  (fp_line (start 1.25 -1.5) (end 1.25 1.5) (layer F.Fab) (width 0.127))
  (fp_line (start 1.25 1.5) (end -1.25 1.5) (layer F.Fab) (width 0.127))
  (fp_line (start -1.25 1.5) (end -1.25 -1.5) (layer F.Fab) (width 0.127))
  (fp_line (start -1.17 -1.5) (end -1.25 -1.5) (layer F.SilkS) (width 0.127))
  (fp_line (start -1.25 -1.5) (end -1.25 -1.195) (layer F.SilkS) (width 0.127))
  (fp_line (start 1.17 -1.5) (end 1.25 -1.5) (layer F.SilkS) (width 0.127))
  (fp_line (start 1.25 -1.5) (end 1.25 -0.995) (layer F.SilkS) (width 0.127))
  (fp_line (start 1.25 0.995) (end 1.25 1.5) (layer F.SilkS) (width 0.127))
  (fp_line (start 1.25 1.5) (end 1.17 1.5) (layer F.SilkS) (width 0.127))
  (fp_line (start -1.17 1.5) (end -1.25 1.5) (layer F.SilkS) (width 0.127))
  (fp_line (start -1.25 1.5) (end -1.25 1.195) (layer F.SilkS) (width 0.127))
  (fp_line (start -1.7 -2.0) (end 1.75 -2.0) (layer F.CrtYd) (width 0.05))
  (fp_line (start 1.75 -2.0) (end 1.75 2.0) (layer F.CrtYd) (width 0.05))
  (fp_line (start 1.75 2.0) (end -1.7 2.0) (layer F.CrtYd) (width 0.05))
  (fp_line (start -1.7 2.0) (end -1.7 -2.0) (layer F.CrtYd) (width 0.05))
  (fp_circle (center -2.0 -1.15) (end -1.9 -1.15) (layer F.SilkS) (width 0.2))
  (fp_poly
    (pts
      (xy -1.5 -0.925)
      (xy -0.8 -0.925)
      (xy -0.8 -0.575)
      (xy -1.5 -0.575)
    ) (layer F.Mask) (width 0.01)
  )
  (fp_poly
    (pts
      (xy -1.5 -0.425)
      (xy -0.8 -0.425)
      (xy -0.8 -0.075)
      (xy -1.5 -0.075)
    ) (layer F.Mask) (width 0.01)
  )
  (fp_poly
    (pts
      (xy -1.5 0.075)
      (xy -0.8 0.075)
      (xy -0.8 0.425)
      (xy -1.5 0.425)
    ) (layer F.Mask) (width 0.01)
  )
  (fp_poly
    (pts
      (xy -1.5 0.575)
      (xy -0.8 0.575)
      (xy -0.8 0.925)
      (xy -1.5 0.925)
    ) (layer F.Mask) (width 0.01)
  )
  (fp_poly
    (pts
      (xy -0.9 1.05)
      (xy -0.55 1.05)
      (xy -0.55 1.75)
      (xy -0.9 1.75)
    ) (layer F.Mask) (width 0.01)
  )
  (fp_poly
    (pts
      (xy -0.4 1.05)
      (xy -0.05 1.05)
      (xy -0.05 1.75)
      (xy -0.4 1.75)
    ) (layer F.Mask) (width 0.01)
  )
  (fp_poly
    (pts
      (xy -0.9 -1.75)
      (xy -0.55 -1.75)
      (xy -0.55 -1.05)
      (xy -0.9 -1.05)
    ) (layer F.Mask) (width 0.01)
  )
  (fp_poly
    (pts
      (xy -0.4 -1.75)
      (xy -0.05 -1.75)
      (xy -0.05 -1.05)
      (xy -0.4 -1.05)
    ) (layer F.Mask) (width 0.01)
  )
  (fp_poly
    (pts
      (xy 0.15 1.1)
      (xy 0.9 1.1)
      (xy 0.9 1.7)
      (xy 0.65 1.7)
      (xy 0.65 1.35)
      (xy 0.4 1.35)
      (xy 0.4 1.7)
      (xy 0.15 1.7)
    ) (layer F.Mask) (width 0.01)
  )
  (fp_poly
    (pts
      (xy 0.9 -1.1)
      (xy 0.15 -1.1)
      (xy 0.15 -1.7)
      (xy 0.4 -1.7)
      (xy 0.4 -1.35)
      (xy 0.65 -1.35)
      (xy 0.65 -1.7)
      (xy 0.9 -1.7)
    ) (layer F.Mask) (width 0.01)
  )
  (fp_poly
    (pts
      (xy 0.15 1.1)
      (xy 0.9 1.1)
      (xy 0.9 1.7)
      (xy 0.65 1.7)
      (xy 0.65 1.35)
      (xy 0.4 1.35)
      (xy 0.4 1.7)
      (xy 0.15 1.7)
    ) (layer F.Paste) (width 0.01)
  )
  (fp_poly
    (pts
      (xy 0.9 -1.1)
      (xy 0.15 -1.1)
      (xy 0.15 -1.7)
      (xy 0.4 -1.7)
      (xy 0.4 -1.35)
      (xy 0.65 -1.35)
      (xy 0.65 -1.7)
      (xy 0.9 -1.7)
    ) (layer F.Paste) (width 0.01)
  )
  (fp_poly
    (pts
      (xy 0.7 -0.125)
      (xy 1.42 -0.125)
      (xy 1.42 0.125)
      (xy 0.7 0.125)
    ) (layer F.Paste) (width 0.01)
  )
  (fp_poly
    (pts
      (xy -0.22 -0.125)
      (xy 0.5 -0.125)
      (xy 0.5 0.125)
      (xy -0.22 0.125)
    ) (layer F.Paste) (width 0.01)
  )
  (fp_poly
    (pts
      (xy 0.1005 -0.625)
      (xy 0.6755 -0.625)
      (xy 0.6755 -0.375)
      (xy 0.1005 -0.375)
    ) (layer F.Paste) (width 0.01)
  )
  (fp_poly
    (pts
      (xy 0.1005 0.375)
      (xy 0.6755 0.375)
      (xy 0.6755 0.625)
      (xy 0.1005 0.625)
    ) (layer F.Paste) (width 0.01)
  )
  (fp_poly
    (pts
      (xy 0.8755 -0.625)
      (xy 1.4505 -0.625)
      (xy 1.4505 -0.375)
      (xy 0.8755 -0.375)
    ) (layer F.Paste) (width 0.01)
  )
  (fp_poly
    (pts
      (xy 0.8755 0.375)
      (xy 1.4505 0.375)
      (xy 1.4505 0.625)
      (xy 0.8755 0.625)
    ) (layer F.Paste) (width 0.01)
  )
  (fp_circle (center -2.0 -1.15) (end -1.9 -1.15) (layer F.Fab) (width 0.2))
  (pad 1 smd rect (at -1.15 -0.75) (size 0.6 0.25) (layers F.Cu F.Paste))
  (pad 2 smd rect (at -1.15 -0.25) (size 0.6 0.25) (layers F.Cu F.Paste))
  (pad 3 smd rect (at -1.15 0.25) (size 0.6 0.25) (layers F.Cu F.Paste))
  (pad 4 smd rect (at -1.15 0.75) (size 0.6 0.25) (layers F.Cu F.Paste))
  (pad 15 smd rect (at -0.725 -1.4) (size 0.25 0.6) (layers F.Cu F.Paste))
  (pad 14 smd rect (at -0.225 -1.4) (size 0.25 0.6) (layers F.Cu F.Paste))
  (pad 5 smd rect (at -0.725 1.4) (size 0.25 0.6) (layers F.Cu F.Paste))
  (pad 6 smd rect (at -0.225 1.4) (size 0.25 0.6) (layers F.Cu F.Paste))
  (pad 12_13 smd rect (at 0.525 -1.4) (size 0.85 0.7) (layers F.Cu))
  (pad 7_8 smd rect (at 0.525 1.4) (size 0.85 0.7) (layers F.Cu))
  (pad 11 smd rect (at 0.775 -0.5) (size 1.45 0.35) (layers F.Cu))
  (pad 9 smd rect (at 0.775 0.5) (size 1.45 0.35) (layers F.Cu))
  (pad 10 smd rect (at 0.6 0.0) (size 1.8 0.35) (layers F.Cu))
)