EESchema Schematic File Version 4
EELAYER 30 0
EELAYER END
$Descr A3 16535 11693
encoding utf-8
Sheet 1 1
Title ""
Date ""
Rev ""
Comp ""
Comment1 ""
Comment2 ""
Comment3 ""
Comment4 ""
$EndDescr
$Comp
L RF_Module:ESP32-WROOM-32D U1
U 1 1 6098F2DA
P 13350 2600
F 0 "U1" H 13350 4181 50  0000 C CNN
F 1 "ESP32-WROOM-32D" H 13350 4090 50  0000 C CNN
F 2 "RF_Module:ESP32-WROOM-32" H 13350 1100 50  0001 C CNN
F 3 "https://www.espressif.com/sites/default/files/documentation/esp32-wroom-32d_esp32-wroom-32u_datasheet_en.pdf" H 13050 2650 50  0001 C CNN
	1    13350 2600
	1    0    0    -1  
$EndComp
$Comp
L Device:C_Small C32
U 1 1 609959D7
P 13950 900
F 0 "C32" H 14042 946 50  0000 L CNN
F 1 "22uF" H 14042 855 50  0000 L CNN
F 2 "Capacitor_SMD:C_0805_2012Metric" H 13950 900 50  0001 C CNN
F 3 "~" H 13950 900 50  0001 C CNN
	1    13950 900 
	1    0    0    -1  
$EndComp
$Comp
L S2B-PH-K-S_LF__SN_:S2B-PH-K-S(LF)(SN) J2
U 1 1 609987DE
P 9550 4550
F 0 "J2" H 9780 4546 50  0000 L CNN
F 1 "S2B-PH-K-S(LF)(SN)" H 9780 4455 50  0000 L CNN
F 2 "otter:JST_S2B-PH-K-S(LF)(SN)" H 9550 4550 50  0001 L BNN
F 3 "" H 9550 4550 50  0001 L BNN
F 4 "S2B-PH-K-S_LF__SN_" H 9550 4550 50  0001 L BNN "MP"
F 5 "None" H 9550 4550 50  0001 L BNN "PRICE"
F 6 "4.8mm" H 9550 4550 50  0001 L BNN "MAXIMUM_PACKAGE_HEIGHT"
F 7 "JST Sales" H 9550 4550 50  0001 L BNN "MF"
F 8 "Unavailable" H 9550 4550 50  0001 L BNN "AVAILABILITY"
F 9 "Connector Header Through Hole, Right Angle 2 position" H 9550 4550 50  0001 L BNN "DESCRIPTION"
F 10 "None" H 9550 4550 50  0001 L BNN "PACKAGE"
	1    9550 4550
	1    0    0    -1  
$EndComp
$Comp
L power:+3V3 #PWR055
U 1 1 609992DA
P 13350 700
F 0 "#PWR055" H 13350 550 50  0001 C CNN
F 1 "+3V3" H 13365 873 50  0000 C CNN
F 2 "" H 13350 700 50  0001 C CNN
F 3 "" H 13350 700 50  0001 C CNN
	1    13350 700 
	1    0    0    -1  
$EndComp
$Comp
L Device:C_Small C36
U 1 1 6099D490
P 14400 900
F 0 "C36" H 14492 946 50  0000 L CNN
F 1 "100nF" H 14492 855 50  0000 L CNN
F 2 "Capacitor_SMD:C_0805_2012Metric" H 14400 900 50  0001 C CNN
F 3 "~" H 14400 900 50  0001 C CNN
	1    14400 900 
	1    0    0    -1  
$EndComp
Wire Wire Line
	13350 700  13350 750 
Wire Wire Line
	13950 800  13950 750 
Wire Wire Line
	13950 750  13350 750 
Connection ~ 13350 750 
Wire Wire Line
	13350 750  13350 1200
Wire Wire Line
	13950 750  14400 750 
Wire Wire Line
	14400 750  14400 800 
Connection ~ 13950 750 
Wire Wire Line
	13950 1000 13950 1050
Wire Wire Line
	14400 1050 14400 1000
$Comp
L Device:C_Small C14
U 1 1 609A9316
P 13800 7900
F 0 "C14" H 13892 7946 50  0000 L CNN
F 1 "100nF" H 13892 7855 50  0000 L CNN
F 2 "Capacitor_SMD:C_0805_2012Metric" H 13800 7900 50  0001 C CNN
F 3 "~" H 13800 7900 50  0001 C CNN
	1    13800 7900
	1    0    0    -1  
$EndComp
Wire Wire Line
	13800 8050 13800 8000
$Comp
L Device:C_Small C16
U 1 1 609A972E
P 14200 7900
F 0 "C16" H 14292 7946 50  0000 L CNN
F 1 "100nF" H 14292 7855 50  0000 L CNN
F 2 "Capacitor_SMD:C_0805_2012Metric" H 14200 7900 50  0001 C CNN
F 3 "~" H 14200 7900 50  0001 C CNN
	1    14200 7900
	1    0    0    -1  
$EndComp
Wire Wire Line
	14200 8050 14200 8000
$Comp
L Device:C_Small C19
U 1 1 609A9AA0
P 14600 7900
F 0 "C19" H 14692 7946 50  0000 L CNN
F 1 "10uF" H 14692 7855 50  0000 L CNN
F 2 "Capacitor_SMD:C_0805_2012Metric" H 14600 7900 50  0001 C CNN
F 3 "~" H 14600 7900 50  0001 C CNN
	1    14600 7900
	1    0    0    -1  
$EndComp
Wire Wire Line
	14600 8050 14600 8000
Wire Wire Line
	13550 7750 13650 7750
Wire Wire Line
	13550 7850 13650 7850
Wire Wire Line
	13650 7850 13650 7750
Wire Wire Line
	13800 8050 14200 8050
Wire Wire Line
	14200 8050 14600 8050
Connection ~ 14200 8050
Wire Wire Line
	13800 7800 13800 7750
Wire Wire Line
	13800 7750 14200 7750
Wire Wire Line
	14200 7800 14200 7750
Connection ~ 14200 7750
Wire Wire Line
	14200 7750 14600 7750
Wire Wire Line
	14600 7800 14600 7750
$Comp
L power:+3V3 #PWR041
U 1 1 609B3C74
P 14600 7650
F 0 "#PWR041" H 14600 7500 50  0001 C CNN
F 1 "+3V3" H 14615 7823 50  0000 C CNN
F 2 "" H 14600 7650 50  0001 C CNN
F 3 "" H 14600 7650 50  0001 C CNN
	1    14600 7650
	1    0    0    -1  
$EndComp
Wire Wire Line
	14600 7650 14600 7750
Connection ~ 14600 7750
Wire Wire Line
	12100 8050 12150 8050
Text GLabel 12100 8450 0    50   Input ~ 0
GPS_RX
Text GLabel 12100 8550 0    50   Input ~ 0
GPS_TX
Wire Wire Line
	12100 8450 12150 8450
Wire Wire Line
	12100 8550 12150 8550
Wire Wire Line
	13650 7750 13800 7750
Connection ~ 13650 7750
Connection ~ 13800 7750
$Comp
L Device:C_Small C7
U 1 1 609CC815
P 5150 4750
F 0 "C7" H 5242 4796 50  0000 L CNN
F 1 "4.7uF" H 5242 4705 50  0000 L CNN
F 2 "Capacitor_SMD:C_0805_2012Metric" H 5150 4750 50  0001 C CNN
F 3 "~" H 5150 4750 50  0001 C CNN
	1    5150 4750
	1    0    0    -1  
$EndComp
Wire Wire Line
	5150 4650 5150 4600
$Comp
L MCP7382:MCP73831-2-OT U5
U 1 1 609CE613
P 6000 4700
F 0 "U5" H 6000 5075 50  0000 C CNN
F 1 "MCP73831-2-OT" H 6000 4984 50  0000 C CNN
F 2 "Package_TO_SOT_SMD:SOT-23-5" H 6050 4450 50  0001 L CIN
F 3 "" H 5850 4650 50  0001 C CNN
	1    6000 4700
	1    0    0    -1  
$EndComp
Wire Wire Line
	5150 4600 5600 4600
$Comp
L Device:C_Small C11
U 1 1 609D1EA6
P 6950 4750
F 0 "C11" H 7042 4796 50  0000 L CNN
F 1 "4.7uF" H 7042 4705 50  0000 L CNN
F 2 "Capacitor_SMD:C_0805_2012Metric" H 6950 4750 50  0001 C CNN
F 3 "~" H 6950 4750 50  0001 C CNN
	1    6950 4750
	1    0    0    -1  
$EndComp
Wire Wire Line
	6950 4550 6950 4650
Wire Wire Line
	6400 4550 6950 4550
$Comp
L Device:R_Small_US R13
U 1 1 609DAD6F
P 6450 5000
F 0 "R13" H 6518 5046 50  0000 L CNN
F 1 "2K" H 6518 4955 50  0000 L CNN
F 2 "Resistor_SMD:R_0805_2012Metric" H 6450 5000 50  0001 C CNN
F 3 "~" H 6450 5000 50  0001 C CNN
	1    6450 5000
	1    0    0    -1  
$EndComp
Wire Wire Line
	6400 4850 6450 4850
Wire Wire Line
	6450 4850 6450 4900
$Comp
L Device:LED D5
U 1 1 609DE102
P 4700 5050
F 0 "D5" V 4700 4950 50  0000 R CNN
F 1 "LED YELLOW" V 4800 5000 50  0000 R CNN
F 2 "LED_SMD:LED_0805_2012Metric_Castellated" H 4700 5050 50  0001 C CNN
F 3 "~" H 4700 5050 50  0001 C CNN
	1    4700 5050
	0    -1   -1   0   
$EndComp
$Comp
L Device:R_Small_US R7
U 1 1 609E2D67
P 4700 4750
F 0 "R7" H 4768 4796 50  0000 L CNN
F 1 "1K" H 4768 4705 50  0000 L CNN
F 2 "Resistor_SMD:R_0805_2012Metric" H 4700 4750 50  0001 C CNN
F 3 "~" H 4700 4750 50  0001 C CNN
	1    4700 4750
	1    0    0    -1  
$EndComp
Wire Wire Line
	4700 4850 4700 4900
Wire Wire Line
	4700 4650 4700 4600
Wire Wire Line
	4700 4600 5150 4600
Connection ~ 5150 4600
Wire Wire Line
	4700 5200 4700 5500
Wire Wire Line
	4700 5500 5200 5500
Wire Wire Line
	6700 5500 6700 4700
Wire Wire Line
	6700 4700 6400 4700
$Comp
L Device:LED D6
U 1 1 609EAAB9
P 5400 5350
F 0 "D6" H 5350 5450 50  0000 R CNN
F 1 "LED GREEN" H 5750 5250 50  0000 R CNN
F 2 "LED_SMD:LED_0805_2012Metric_Castellated" H 5400 5350 50  0001 C CNN
F 3 "~" H 5400 5350 50  0001 C CNN
	1    5400 5350
	-1   0    0    1   
$EndComp
$Comp
L Device:R_Small_US R10
U 1 1 609EBDDD
P 5750 5350
F 0 "R10" H 5818 5396 50  0000 L CNN
F 1 "1K" H 5818 5305 50  0000 L CNN
F 2 "Resistor_SMD:R_0805_2012Metric" H 5750 5350 50  0001 C CNN
F 3 "~" H 5750 5350 50  0001 C CNN
	1    5750 5350
	0    -1   -1   0   
$EndComp
Wire Wire Line
	5550 5350 5650 5350
Wire Wire Line
	5250 5350 5200 5350
Wire Wire Line
	5200 5350 5200 5500
Connection ~ 5200 5500
Wire Wire Line
	5200 5500 6700 5500
Connection ~ 6950 4550
$Comp
L Device:R_Small_US R17
U 1 1 609F90FE
P 8450 4750
F 0 "R17" H 8382 4704 50  0000 R CNN
F 1 "560K" H 8382 4795 50  0000 R CNN
F 2 "Resistor_SMD:R_0805_2012Metric" H 8450 4750 50  0001 C CNN
F 3 "~" H 8450 4750 50  0001 C CNN
	1    8450 4750
	-1   0    0    1   
$EndComp
$Comp
L Device:R_Small_US R18
U 1 1 609FBC60
P 8450 5150
F 0 "R18" H 8382 5104 50  0000 R CNN
F 1 "100K" H 8382 5195 50  0000 R CNN
F 2 "Resistor_SMD:R_0805_2012Metric" H 8450 5150 50  0001 C CNN
F 3 "~" H 8450 5150 50  0001 C CNN
	1    8450 5150
	-1   0    0    1   
$EndComp
Wire Wire Line
	8450 4650 8450 4550
Connection ~ 8450 4550
Text GLabel 8550 4950 2    50   Input ~ 0
BATT_READ
Text GLabel 7900 4350 2    50   Input ~ 0
BATT
Wire Wire Line
	7750 4550 7750 4350
Wire Wire Line
	7750 4350 7900 4350
Connection ~ 7750 4550
Wire Wire Line
	7750 4550 8450 4550
$Comp
L Sensor_Pressure:BMP280 U3
U 1 1 60AA31EA
P 2000 10000
F 0 "U3" H 2230 10096 50  0000 L CNN
F 1 "BMP280" H 2230 10005 50  0000 L CNN
F 2 "Package_LGA:Bosch_LGA-8_2x2.5mm_P0.65mm_ClockwisePinNumbering" H 2000 9300 50  0001 C CNN
F 3 "https://ae-bst.resource.bosch.com/media/_tech/media/datasheets/BST-BMP280-DS001.pdf" H 2000 10000 50  0001 C CNN
	1    2000 10000
	1    0    0    -1  
$EndComp
$Comp
L Device:C_Small C2
U 1 1 60AA6456
P 2550 9750
F 0 "C2" H 2642 9796 50  0000 L CNN
F 1 "100nF" H 2642 9705 50  0000 L CNN
F 2 "Capacitor_SMD:C_0805_2012Metric" H 2550 9750 50  0001 C CNN
F 3 "~" H 2550 9750 50  0001 C CNN
	1    2550 9750
	1    0    0    -1  
$EndComp
Wire Wire Line
	2000 9600 2000 9550
Wire Wire Line
	2000 9550 2100 9550
Wire Wire Line
	2550 9550 2550 9650
Wire Wire Line
	2100 9600 2100 9550
Connection ~ 2100 9550
Wire Wire Line
	2100 9550 2550 9550
Wire Wire Line
	2000 10300 2000 10350
Wire Wire Line
	2100 10350 2100 10300
$Comp
L power:+3V3 #PWR027
U 1 1 609B574B
P 12100 7600
F 0 "#PWR027" H 12100 7450 50  0001 C CNN
F 1 "+3V3" H 12115 7773 50  0000 C CNN
F 2 "" H 12100 7600 50  0001 C CNN
F 3 "" H 12100 7600 50  0001 C CNN
	1    12100 7600
	1    0    0    -1  
$EndComp
Wire Wire Line
	12100 7600 12100 8050
$Comp
L power:+3V3 #PWR08
U 1 1 60ACF94A
P 1000 9950
F 0 "#PWR08" H 1000 9800 50  0001 C CNN
F 1 "+3V3" H 1015 10123 50  0000 C CNN
F 2 "" H 1000 9950 50  0001 C CNN
F 3 "" H 1000 9950 50  0001 C CNN
	1    1000 9950
	1    0    0    -1  
$EndComp
Wire Wire Line
	1000 9950 1000 10000
Wire Wire Line
	1000 10000 1600 10000
Wire Wire Line
	1600 10100 1000 10100
Wire Wire Line
	1000 10100 1000 10000
Connection ~ 1000 10000
Text GLabel 1500 9800 0    50   Input ~ 0
SCL
Text GLabel 1500 9900 0    50   Input ~ 0
SDA
Wire Wire Line
	1500 9800 1600 9800
Wire Wire Line
	1500 9900 1600 9900
$Comp
L Sensor_Motion:LSM303DLHC U4
U 1 1 60AE6D27
P 4600 10050
F 0 "U4" H 4250 10900 50  0000 C CNN
F 1 "LSM303DLHC" H 4150 10750 50  0000 C CNN
F 2 "Package_LGA:LGA-14_3x5mm_P0.8mm_LayoutBorder1x6y" H 4750 9450 50  0001 L CNN
F 3 "http://www.st.com/web/en/resource/technical/document/datasheet/DM00027543.pdf" H 4750 10800 50  0001 C CNN
	1    4600 10050
	1    0    0    -1  
$EndComp
$Comp
L power:+3V3 #PWR025
U 1 1 60AED11A
P 4700 9200
F 0 "#PWR025" H 4700 9050 50  0001 C CNN
F 1 "+3V3" H 4715 9373 50  0000 C CNN
F 2 "" H 4700 9200 50  0001 C CNN
F 3 "" H 4700 9200 50  0001 C CNN
	1    4700 9200
	1    0    0    -1  
$EndComp
Wire Wire Line
	4500 10750 4500 10800
Wire Wire Line
	4500 10800 4600 10800
Wire Wire Line
	4600 10750 4600 10800
Connection ~ 4600 10800
Wire Wire Line
	4600 10800 4700 10800
Wire Wire Line
	4700 10800 4700 10750
$Comp
L Device:C_Small C9
U 1 1 60B09AC8
P 5250 10550
F 0 "C9" H 5342 10596 50  0000 L CNN
F 1 "4.7uF" H 5342 10505 50  0000 L CNN
F 2 "Capacitor_SMD:C_0805_2012Metric" H 5250 10550 50  0001 C CNN
F 3 "~" H 5250 10550 50  0001 C CNN
	1    5250 10550
	1    0    0    -1  
$EndComp
Wire Wire Line
	5100 10350 5250 10350
Wire Wire Line
	5250 10350 5250 10450
Wire Wire Line
	5250 10650 5250 10800
Wire Wire Line
	5250 10800 4700 10800
Connection ~ 4700 10800
$Comp
L Device:C_Small C8
U 1 1 60B18C56
P 5250 10000
F 0 "C8" H 5342 10046 50  0000 L CNN
F 1 "220nF" H 5342 9955 50  0000 L CNN
F 2 "Capacitor_SMD:C_0805_2012Metric" H 5250 10000 50  0001 C CNN
F 3 "~" H 5250 10000 50  0001 C CNN
	1    5250 10000
	1    0    0    -1  
$EndComp
Wire Wire Line
	5100 9750 5250 9750
Wire Wire Line
	5250 9750 5250 9900
Wire Wire Line
	5100 10250 5250 10250
Wire Wire Line
	5250 10250 5250 10100
$Comp
L Device:C_Small C10
U 1 1 60B28CEF
P 5450 9500
F 0 "C10" H 5542 9546 50  0000 L CNN
F 1 "100nF" H 5542 9455 50  0000 L CNN
F 2 "Capacitor_SMD:C_0805_2012Metric" H 5450 9500 50  0001 C CNN
F 3 "~" H 5450 9500 50  0001 C CNN
	1    5450 9500
	1    0    0    -1  
$EndComp
$Comp
L Device:C_Small C12
U 1 1 60B2E20A
P 5900 9500
F 0 "C12" H 5992 9546 50  0000 L CNN
F 1 "10uF" H 5992 9455 50  0000 L CNN
F 2 "Capacitor_SMD:C_0805_2012Metric" H 5900 9500 50  0001 C CNN
F 3 "~" H 5900 9500 50  0001 C CNN
	1    5900 9500
	1    0    0    -1  
$EndComp
Wire Wire Line
	5450 9250 5450 9400
Wire Wire Line
	5450 9250 5900 9250
Wire Wire Line
	5900 9250 5900 9400
Connection ~ 5450 9250
Wire Wire Line
	5450 9600 5450 9650
Wire Wire Line
	5900 9650 5900 9600
Wire Wire Line
	4700 9200 4700 9250
Wire Wire Line
	4700 9250 5450 9250
Connection ~ 4700 9250
Wire Wire Line
	4700 9250 4700 9350
Text GLabel 4000 9750 0    50   Input ~ 0
SCL
Text GLabel 4000 9850 0    50   Input ~ 0
SDA
Wire Wire Line
	4000 9750 4100 9750
Wire Wire Line
	4000 9850 4100 9850
NoConn ~ 4100 10050
NoConn ~ 4100 10250
NoConn ~ 4100 10350
$Comp
L dk_Transistors-Bipolar-BJT-Single:MMSS8050-H-TP Q2
U 1 1 60BA9FF4
P 2650 8350
F 0 "Q2" H 2838 8297 60  0000 L CNN
F 1 "S8050" H 2838 8403 60  0000 L CNN
F 2 "digikey-footprints:SOT-23-3" H 2850 8550 60  0001 L CNN
F 3 "https://www.mccsemi.com/pdf/Products/MMSS8050(SOT-23).pdf" H 2850 8650 60  0001 L CNN
F 4 "MMSS8050-H-TPMSCT-ND" H 2850 8750 60  0001 L CNN "Digi-Key_PN"
F 5 "MMSS8050-H-TP" H 2850 8850 60  0001 L CNN "MPN"
F 6 "Discrete Semiconductor Products" H 2850 8950 60  0001 L CNN "Category"
F 7 "Transistors - Bipolar (BJT) - Single" H 2850 9050 60  0001 L CNN "Family"
F 8 "https://www.mccsemi.com/pdf/Products/MMSS8050(SOT-23).pdf" H 2850 9150 60  0001 L CNN "DK_Datasheet_Link"
F 9 "/product-detail/en/micro-commercial-co/MMSS8050-H-TP/MMSS8050-H-TPMSCT-ND/2825945" H 2850 9250 60  0001 L CNN "DK_Detail_Page"
F 10 "TRANS NPN 25V 1.5A SOT23" H 2850 9350 60  0001 L CNN "Description"
F 11 "Micro Commercial Co" H 2850 9450 60  0001 L CNN "Manufacturer"
F 12 "Active" H 2850 9550 60  0001 L CNN "Status"
	1    2650 8350
	1    0    0    1   
$EndComp
$Comp
L dk_Transistors-Bipolar-BJT-Single:MMSS8050-H-TP Q1
U 1 1 60BC59D3
P 2650 7500
F 0 "Q1" H 2838 7553 60  0000 L CNN
F 1 "S8050" H 2838 7447 60  0000 L CNN
F 2 "digikey-footprints:SOT-23-3" H 2850 7700 60  0001 L CNN
F 3 "https://www.mccsemi.com/pdf/Products/MMSS8050(SOT-23).pdf" H 2850 7800 60  0001 L CNN
F 4 "MMSS8050-H-TPMSCT-ND" H 2850 7900 60  0001 L CNN "Digi-Key_PN"
F 5 "MMSS8050-H-TP" H 2850 8000 60  0001 L CNN "MPN"
F 6 "Discrete Semiconductor Products" H 2850 8100 60  0001 L CNN "Category"
F 7 "Transistors - Bipolar (BJT) - Single" H 2850 8200 60  0001 L CNN "Family"
F 8 "https://www.mccsemi.com/pdf/Products/MMSS8050(SOT-23).pdf" H 2850 8300 60  0001 L CNN "DK_Datasheet_Link"
F 9 "/product-detail/en/micro-commercial-co/MMSS8050-H-TP/MMSS8050-H-TPMSCT-ND/2825945" H 2850 8400 60  0001 L CNN "DK_Detail_Page"
F 10 "TRANS NPN 25V 1.5A SOT23" H 2850 8500 60  0001 L CNN "Description"
F 11 "Micro Commercial Co" H 2850 8600 60  0001 L CNN "Manufacturer"
F 12 "Active" H 2850 8700 60  0001 L CNN "Status"
	1    2650 7500
	1    0    0    -1  
$EndComp
$Comp
L Device:R_Small_US R4
U 1 1 60BE5A58
P 2150 7500
F 0 "R4" V 2350 7450 50  0000 L CNN
F 1 "10K" V 2250 7300 50  0000 L CNN
F 2 "Resistor_SMD:R_0805_2012Metric" H 2150 7500 50  0001 C CNN
F 3 "~" H 2150 7500 50  0001 C CNN
	1    2150 7500
	0    -1   -1   0   
$EndComp
$Comp
L Device:R_Small_US R5
U 1 1 60BEC111
P 2150 8350
F 0 "R5" V 2350 8350 50  0000 L CNN
F 1 "10K" V 2250 8150 50  0000 L CNN
F 2 "Resistor_SMD:R_0805_2012Metric" H 2150 8350 50  0001 C CNN
F 3 "~" H 2150 8350 50  0001 C CNN
	1    2150 8350
	0    -1   -1   0   
$EndComp
Wire Wire Line
	2250 7500 2450 7500
Wire Wire Line
	2250 8350 2450 8350
Wire Wire Line
	2750 8150 2750 8000
Wire Wire Line
	2750 8000 1850 8000
Wire Wire Line
	1850 8000 1850 7500
Wire Wire Line
	1850 7500 2050 7500
Wire Wire Line
	2750 7700 2750 7850
Wire Wire Line
	2750 7850 1750 7850
Wire Wire Line
	1750 7850 1750 8350
Wire Wire Line
	1750 8350 2050 8350
Text GLabel 2850 7200 2    50   Input ~ 0
EN
Wire Wire Line
	2750 7300 2750 7200
Wire Wire Line
	2750 7200 2850 7200
Text GLabel 2850 8650 2    50   Input ~ 0
IO0
Wire Wire Line
	2750 8550 2750 8650
Wire Wire Line
	2750 8650 2850 8650
$Comp
L Interface_USB:CP2102N-A01-GQFN28 U2
U 1 1 60C202DD
P 2350 4650
F 0 "U2" H 2050 3350 50  0000 C CNN
F 1 "CP2102N-A01-GQFN28" H 2850 3350 50  0000 C CNN
F 2 "Package_DFN_QFN:QFN-28-1EP_5x5mm_P0.5mm_EP3.35x3.35mm" H 2800 3450 50  0001 L CNN
F 3 "https://www.silabs.com/documents/public/data-sheets/cp2102n-datasheet.pdf" H 2400 3900 50  0001 C CNN
	1    2350 4650
	1    0    0    -1  
$EndComp
$Comp
L Device:C_Small C1
U 1 1 60C2366A
P 1050 3450
F 0 "C1" H 1142 3496 50  0000 L CNN
F 1 "100nF" H 1150 3600 50  0000 L CNN
F 2 "Capacitor_SMD:C_0805_2012Metric" H 1050 3450 50  0001 C CNN
F 3 "~" H 1050 3450 50  0001 C CNN
	1    1050 3450
	1    0    0    -1  
$EndComp
Wire Wire Line
	2250 3250 2250 3350
Wire Wire Line
	2250 3250 2350 3250
Wire Wire Line
	2350 3250 2350 3350
Wire Wire Line
	1050 3350 1050 3250
$Comp
L power:+3V3 #PWR011
U 1 1 60C461FB
P 2350 3150
F 0 "#PWR011" H 2350 3000 50  0001 C CNN
F 1 "+3V3" H 2365 3323 50  0000 C CNN
F 2 "" H 2350 3150 50  0001 C CNN
F 3 "" H 2350 3150 50  0001 C CNN
	1    2350 3150
	1    0    0    -1  
$EndComp
Wire Wire Line
	2350 3150 2350 3250
Connection ~ 2350 3250
$Comp
L Device:R_Small_US R3
U 1 1 60C73249
P 1650 3750
F 0 "R3" V 1750 3800 50  0000 L CNN
F 1 "2K" V 1750 3650 50  0000 L CNN
F 2 "Resistor_SMD:R_0805_2012Metric" H 1650 3750 50  0001 C CNN
F 3 "~" H 1650 3750 50  0001 C CNN
	1    1650 3750
	0    -1   -1   0   
$EndComp
Wire Wire Line
	1750 3750 1850 3750
$Comp
L power:+3V3 #PWR05
U 1 1 60CA8468
P 1300 3700
F 0 "#PWR05" H 1300 3550 50  0001 C CNN
F 1 "+3V3" H 1315 3873 50  0000 C CNN
F 2 "" H 1300 3700 50  0001 C CNN
F 3 "" H 1300 3700 50  0001 C CNN
	1    1300 3700
	1    0    0    -1  
$EndComp
Wire Wire Line
	1300 3700 1300 3750
Wire Wire Line
	1300 3750 1550 3750
Wire Wire Line
	1050 3250 2250 3250
Connection ~ 2250 3250
Text GLabel 1700 4050 0    50   Input ~ 0
D+
Text GLabel 1700 4150 0    50   Input ~ 0
D-
Wire Wire Line
	1700 4050 1850 4050
Wire Wire Line
	1700 4150 1850 4150
Text GLabel 3000 3650 2    50   Input ~ 0
RTS
Text GLabel 3000 4050 2    50   Input ~ 0
DTR
Wire Wire Line
	3000 3650 2850 3650
Wire Wire Line
	3000 4050 2850 4050
Text GLabel 3000 3750 2    50   Input ~ 0
RXD
Text GLabel 3000 3850 2    50   Input ~ 0
TXD
Wire Wire Line
	3000 3750 2850 3750
Wire Wire Line
	3000 3850 2850 3850
Text GLabel 1650 7500 0    50   Input ~ 0
DTR
Text GLabel 1650 8350 0    50   Input ~ 0
RTS
Wire Wire Line
	1650 8350 1750 8350
Connection ~ 1750 8350
Wire Wire Line
	1650 7500 1850 7500
Connection ~ 1850 7500
$Comp
L XFL4020-102MEC:XFL4020-102MEC L1
U 1 1 60E19ECE
P 6250 2400
F 0 "L1" H 6250 2500 50  0000 C CNN
F 1 "XFL4020 1.5 uH" H 6250 2350 50  0000 C CNN
F 2 "otter:XFL4020-102MEC" H 6250 2400 50  0001 L BNN
F 3 "" H 6250 2400 50  0001 L BNN
F 4 "Power inductor, shielded, 20% tol, SMT, RoHS, halogen free" H 6250 2400 50  0001 L BNN "DESCRIPTION"
F 5 "2.1mm" H 6250 2400 50  0001 L BNN "MAXIMUM_PACKAGE_HEIGHT"
F 6 "Coilcraft" H 6250 2400 50  0001 L BNN "MANUFACTURER"
F 7 "11/02/18" H 6250 2400 50  0001 L BNN "PARTREV"
F 8 "Manufacturer Recommendations" H 6250 2400 50  0001 L BNN "STANDARD"
	1    6250 2400
	0    -1   -1   0   
$EndComp
$Comp
L Device:R_Small_US R8
U 1 1 60E37DC6
P 6100 1050
F 0 "R8" V 6300 1100 50  0000 L CNN
F 1 "150K" V 6200 1000 50  0000 L CNN
F 2 "Resistor_SMD:R_0805_2012Metric" H 6100 1050 50  0001 C CNN
F 3 "~" H 6100 1050 50  0001 C CNN
	1    6100 1050
	0    -1   -1   0   
$EndComp
$Comp
L Device:R_Small_US R9
U 1 1 60E43576
P 6650 1050
F 0 "R9" V 6850 1100 50  0000 L CNN
F 1 "470K" V 6750 850 50  0000 L CNN
F 2 "Resistor_SMD:R_0805_2012Metric" H 6650 1050 50  0001 C CNN
F 3 "~" H 6650 1050 50  0001 C CNN
	1    6650 1050
	0    -1   -1   0   
$EndComp
Wire Wire Line
	8700 1050 6750 1050
Wire Wire Line
	8700 1050 8700 1400
$Comp
L Device:R_Small_US R15
U 1 1 60EB678D
P 8500 1400
F 0 "R15" V 8700 1250 50  0000 L CNN
F 1 "100K" V 8600 1200 50  0000 L CNN
F 2 "Resistor_SMD:R_0805_2012Metric" H 8500 1400 50  0001 C CNN
F 3 "~" H 8500 1400 50  0001 C CNN
	1    8500 1400
	0    -1   -1   0   
$EndComp
Wire Wire Line
	8600 1400 8700 1400
Connection ~ 8700 1400
Wire Wire Line
	8700 1400 8700 1600
$Comp
L Device:C_Small C13
U 1 1 60F060DE
P 8500 1900
F 0 "C13" H 8592 1946 50  0000 L CNN
F 1 "100nF" H 8592 1855 50  0000 L CNN
F 2 "Capacitor_SMD:C_0805_2012Metric" H 8500 1900 50  0001 C CNN
F 3 "~" H 8500 1900 50  0001 C CNN
	1    8500 1900
	1    0    0    -1  
$EndComp
Wire Wire Line
	8500 1500 8500 1800
$Comp
L Device:R_Small_US R6
U 1 1 60F5BDE6
P 5600 1300
F 0 "R6" V 5650 1350 50  0000 L CNN
F 1 "10K" V 5650 1150 50  0000 L CNN
F 2 "Resistor_SMD:R_0805_2012Metric" H 5600 1300 50  0001 C CNN
F 3 "~" H 5600 1300 50  0001 C CNN
	1    5600 1300
	0    -1   -1   0   
$EndComp
$Comp
L Device:C_Small C3
U 1 1 60F89662
P 5400 2050
F 0 "C3" H 5492 2096 50  0000 L CNN
F 1 "22uF" H 5492 2005 50  0000 L CNN
F 2 "Capacitor_SMD:C_0805_2012Metric" H 5400 2050 50  0001 C CNN
F 3 "~" H 5400 2050 50  0001 C CNN
	1    5400 2050
	1    0    0    -1  
$EndComp
$Comp
L Device:C_Small C6
U 1 1 60F982C4
P 5750 2050
F 0 "C6" H 5842 2096 50  0000 L CNN
F 1 "10uF" H 5842 2005 50  0000 L CNN
F 2 "Capacitor_SMD:C_0805_2012Metric" H 5750 2050 50  0001 C CNN
F 3 "~" H 5750 2050 50  0001 C CNN
	1    5750 2050
	1    0    0    -1  
$EndComp
Wire Wire Line
	5400 2150 5400 2200
Wire Wire Line
	5750 2200 5750 2150
$Comp
L Device:C_Small C17
U 1 1 61016085
P 9350 1850
F 0 "C17" H 9442 1896 50  0000 L CNN
F 1 "22uF" H 9442 1805 50  0000 L CNN
F 2 "Capacitor_SMD:C_0805_2012Metric" H 9350 1850 50  0001 C CNN
F 3 "~" H 9350 1850 50  0001 C CNN
	1    9350 1850
	1    0    0    -1  
$EndComp
$Comp
L Device:C_Small C18
U 1 1 61026257
P 9700 1850
F 0 "C18" H 9792 1896 50  0000 L CNN
F 1 "22uF" H 9792 1805 50  0000 L CNN
F 2 "Capacitor_SMD:C_0805_2012Metric" H 9700 1850 50  0001 C CNN
F 3 "~" H 9700 1850 50  0001 C CNN
	1    9700 1850
	1    0    0    -1  
$EndComp
$Comp
L Device:C_Small C20
U 1 1 6103650A
P 10050 1850
F 0 "C20" H 10142 1896 50  0000 L CNN
F 1 "22uF" H 10142 1805 50  0000 L CNN
F 2 "Capacitor_SMD:C_0805_2012Metric" H 10050 1850 50  0001 C CNN
F 3 "~" H 10050 1850 50  0001 C CNN
	1    10050 1850
	1    0    0    -1  
$EndComp
$Comp
L Device:C_Small C15
U 1 1 61046A25
P 9000 1850
F 0 "C15" H 9092 1896 50  0000 L CNN
F 1 "10uF" H 9092 1805 50  0000 L CNN
F 2 "Capacitor_SMD:C_0805_2012Metric" H 9000 1850 50  0001 C CNN
F 3 "~" H 9000 1850 50  0001 C CNN
	1    9000 1850
	1    0    0    -1  
$EndComp
Wire Wire Line
	9000 1750 9000 1600
Wire Wire Line
	9000 1600 8700 1600
Wire Wire Line
	9000 1600 9350 1600
Wire Wire Line
	10050 1600 10050 1750
Connection ~ 9000 1600
Wire Wire Line
	9700 1600 9700 1750
Connection ~ 9700 1600
Wire Wire Line
	9700 1600 10050 1600
Wire Wire Line
	9350 1750 9350 1600
Connection ~ 9350 1600
Wire Wire Line
	9350 1600 9700 1600
Wire Wire Line
	9000 1950 9000 2050
Wire Wire Line
	9000 2050 9350 2050
Wire Wire Line
	10050 2050 10050 1950
Wire Wire Line
	9700 1950 9700 2050
Connection ~ 9700 2050
Wire Wire Line
	9700 2050 10050 2050
Wire Wire Line
	9350 1950 9350 2050
Connection ~ 9350 2050
Wire Wire Line
	9350 2050 9550 2050
Connection ~ 9550 2050
Wire Wire Line
	9550 2050 9700 2050
$Comp
L power:+3V3 #PWR043
U 1 1 6118F731
P 10400 1400
F 0 "#PWR043" H 10400 1250 50  0001 C CNN
F 1 "+3V3" H 10415 1573 50  0000 C CNN
F 2 "" H 10400 1400 50  0001 C CNN
F 3 "" H 10400 1400 50  0001 C CNN
	1    10400 1400
	1    0    0    -1  
$EndComp
$Comp
L Device:R_Small_US R19
U 1 1 611B446A
P 10400 1750
F 0 "R19" H 10468 1796 50  0000 L CNN
F 1 "1K" H 10468 1705 50  0000 L CNN
F 2 "Resistor_SMD:R_0805_2012Metric" H 10400 1750 50  0001 C CNN
F 3 "~" H 10400 1750 50  0001 C CNN
	1    10400 1750
	1    0    0    -1  
$EndComp
$Comp
L Device:LED D7
U 1 1 611C6626
P 10400 2100
F 0 "D7" V 10400 2000 50  0000 R CNN
F 1 "LED RED" V 10500 2050 50  0000 R CNN
F 2 "LED_SMD:LED_0805_2012Metric_Castellated" H 10400 2100 50  0001 C CNN
F 3 "~" H 10400 2100 50  0001 C CNN
	1    10400 2100
	0    -1   -1   0   
$EndComp
Wire Wire Line
	10400 1400 10400 1600
Wire Wire Line
	10050 1600 10400 1600
Connection ~ 10050 1600
Connection ~ 10400 1600
Wire Wire Line
	10400 1600 10400 1650
Wire Wire Line
	10400 1950 10400 1850
Wire Wire Line
	10400 2250 10400 2300
Wire Wire Line
	10400 2300 9550 2300
Wire Wire Line
	9550 2300 9550 2050
$Comp
L SparkFun-Switches:SWITCH-SPDT-PTH-11.6X4.0MM S1
U 1 1 61234F6A
P 5100 1700
F 0 "S1" H 5150 1970 45  0000 C CNN
F 1 "switch" H 5150 1886 45  0000 C CNN
F 2 "K3-1260D:K3-1260D" H 5100 1950 20  0001 C CNN
F 3 "" H 5100 1700 50  0001 C CNN
F 4 "SWCH-08261" H 5150 1897 60  0001 C CNN "Field4"
	1    5100 1700
	1    0    0    -1  
$EndComp
$Comp
L power:+5VA #PWR037
U 1 1 6125EA36
P 7550 5150
F 0 "#PWR037" H 7550 5000 50  0001 C CNN
F 1 "+5VA" H 7565 5323 50  0000 C CNN
F 2 "" H 7550 5150 50  0001 C CNN
F 3 "" H 7550 5150 50  0001 C CNN
	1    7550 5150
	-1   0    0    1   
$EndComp
$Comp
L CMI-9653S-SMT:CMI-9653S-SMT LS1
U 1 1 612C23FB
P 9950 9200
F 0 "LS1" V 10192 9200 50  0000 C CNN
F 1 "CMI-9653S-SMT" V 10101 9200 50  0000 C CNN
F 2 "otter:CUI_CMI-9653S-SMT" H 9950 9200 50  0001 L BNN
F 3 "" H 9950 9200 50  0001 L BNN
F 4 "CUI Inc." H 9950 9200 50  0001 L BNN "MF"
F 5 "None" H 9950 9200 50  0001 L BNN "PACKAGE"
F 6 "9.6 mm, 3 Vdc, 80 dB, 2.7 kHz, Surface Mount _SMT_, Driving Circuit, Magnetic Audio Indicator Buzzer" H 9950 9200 50  0001 L BNN "DESCRIPTION"
F 7 "CMI-9653S-SMT" H 9950 9200 50  0001 L BNN "MP"
F 8 "None" H 9950 9200 50  0001 L BNN "PRICE"
F 9 "Unavailable" H 9950 9200 50  0001 L BNN "AVAILABILITY"
F 10 "https://www.cui.com/product/audio/buzzers/audio-indicators/cmi-9653s-smt?utm_source=snapeda.com&utm_medium=referral&utm_campaign=snapedaBOM" H 9950 9200 50  0001 L BNN "CUI_PURCHASE_URL"
	1    9950 9200
	0    -1   -1   0   
$EndComp
$Comp
L Device:R_Small_US R20
U 1 1 612C405F
P 9450 9200
F 0 "R20" V 9655 9200 50  0000 C CNN
F 1 "100" V 9564 9200 50  0000 C CNN
F 2 "Resistor_SMD:R_0805_2012Metric" H 9450 9200 50  0001 C CNN
F 3 "~" H 9450 9200 50  0001 C CNN
	1    9450 9200
	0    -1   -1   0   
$EndComp
Wire Wire Line
	9550 9200 9750 9200
Text GLabel 9250 9200 0    50   Input ~ 0
BUZZER
Wire Wire Line
	9250 9200 9350 9200
Text GLabel 14050 3200 2    50   Input ~ 0
BUZZER
Text GLabel 14050 1700 2    50   Input ~ 0
TXD
Wire Wire Line
	13950 1700 14050 1700
Text GLabel 14050 1500 2    50   Input ~ 0
RXD
Wire Wire Line
	13950 1500 14050 1500
Text GLabel 12600 1400 0    50   Input ~ 0
EN
Wire Wire Line
	12600 1400 12750 1400
Text GLabel 14050 1400 2    50   Input ~ 0
IO0
Wire Wire Line
	13950 1400 14050 1400
Text GLabel 14050 2400 2    50   Input ~ 0
GPS_TX
Text GLabel 14050 3600 2    50   Input ~ 0
GPS_RX
Text GLabel 14050 2000 2    50   Input ~ 0
LoRa_MISO
Text GLabel 14050 2100 2    50   Input ~ 0
LoRa_MOSI
Text GLabel 14050 2200 2    50   Input ~ 0
LoRa_SCK
Text GLabel 14050 2300 2    50   Input ~ 0
LoRa_CS
Wire Wire Line
	13950 2400 14050 2400
Wire Wire Line
	13950 2300 14050 2300
Wire Wire Line
	13950 2200 14050 2200
Wire Wire Line
	13950 2100 14050 2100
Wire Wire Line
	13950 2000 14050 2000
Wire Wire Line
	8450 4850 8450 4950
Wire Wire Line
	8450 4950 8550 4950
Connection ~ 8450 4950
Wire Wire Line
	8450 4950 8450 5050
Wire Wire Line
	8450 4550 9150 4550
$Comp
L Device:R_Small_US R22
U 1 1 62A7AB96
P 12000 2650
F 0 "R22" H 11932 2604 50  0000 R CNN
F 1 "10K" H 11932 2695 50  0000 R CNN
F 2 "Resistor_SMD:R_0805_2012Metric" H 12000 2650 50  0001 C CNN
F 3 "~" H 12000 2650 50  0001 C CNN
	1    12000 2650
	-1   0    0    1   
$EndComp
$Comp
L Device:C_Small C24
U 1 1 62AA47BC
P 12000 3200
F 0 "C24" H 12092 3246 50  0000 L CNN
F 1 "100nF" H 12092 3155 50  0000 L CNN
F 2 "Capacitor_SMD:C_0805_2012Metric" H 12000 3200 50  0001 C CNN
F 3 "~" H 12000 3200 50  0001 C CNN
	1    12000 3200
	1    0    0    -1  
$EndComp
$Comp
L power:+3V3 #PWR053
U 1 1 62ACDE00
P 12000 2250
F 0 "#PWR053" H 12000 2100 50  0001 C CNN
F 1 "+3V3" H 12015 2423 50  0000 C CNN
F 2 "" H 12000 2250 50  0001 C CNN
F 3 "" H 12000 2250 50  0001 C CNN
	1    12000 2250
	1    0    0    -1  
$EndComp
Wire Wire Line
	12000 2250 12000 2550
Wire Wire Line
	12000 2750 12000 2950
Text GLabel 12100 2950 2    50   Input ~ 0
EN
Wire Wire Line
	12100 2950 12000 2950
Connection ~ 12000 2950
Wire Wire Line
	12000 2950 12000 3100
$Comp
L dk_USB-DVI-HDMI-Connectors:10118194-0001LF J1
U 1 1 62C239B9
P 1050 1450
F 0 "J1" H 1114 2195 60  0000 C CNN
F 1 "10118194-0001LF" H 1114 2089 60  0000 C CNN
F 2 "digikey-footprints:USB_Micro_B_Female_10118194-0001LF" H 1250 1650 60  0001 L CNN
F 3 "http://www.amphenol-icc.com/media/wysiwyg/files/drawing/10118194.pdf" H 1250 1750 60  0001 L CNN
F 4 "609-4618-1-ND" H 1250 1850 60  0001 L CNN "Digi-Key_PN"
F 5 "10118194-0001LF" H 1250 1950 60  0001 L CNN "MPN"
F 6 "Connectors, Interconnects" H 1250 2050 60  0001 L CNN "Category"
F 7 "USB, DVI, HDMI Connectors" H 1250 2150 60  0001 L CNN "Family"
F 8 "http://www.amphenol-icc.com/media/wysiwyg/files/drawing/10118194.pdf" H 1250 2250 60  0001 L CNN "DK_Datasheet_Link"
F 9 "/product-detail/en/amphenol-icc-fci/10118194-0001LF/609-4618-1-ND/2785382" H 1250 2350 60  0001 L CNN "DK_Detail_Page"
F 10 "CONN RCPT USB2.0 MICRO B SMD R/A" H 1250 2450 60  0001 L CNN "Description"
F 11 "Amphenol ICC (FCI)" H 1250 2550 60  0001 L CNN "Manufacturer"
F 12 "Active" H 1250 2650 60  0001 L CNN "Status"
	1    1050 1450
	1    0    0    -1  
$EndComp
Text GLabel 2450 1450 2    50   Input ~ 0
D+
Text GLabel 2450 1350 2    50   Input ~ 0
D-
Wire Wire Line
	1350 1650 1600 1650
$Comp
L SS24:SS24 D2
U 1 1 62D82C2E
P 2050 1250
F 0 "D2" H 2050 1467 50  0000 C CNN
F 1 "SS24" H 2050 1376 50  0000 C CNN
F 2 "otter:DIOM5336X265N" H 2050 1250 50  0001 L BNN
F 3 "" H 2050 1250 50  0001 L BNN
F 4 "ON Semiconductor" H 2050 1250 50  0001 L BNN "MANUFACTURER"
F 5 "IPC 7351B" H 2050 1250 50  0001 L BNN "STANDARD"
F 6 "1.1.2" H 2050 1250 50  0001 L BNN "PARTREV"
F 7 "2.65 mm" H 2050 1250 50  0001 L BNN "MAXIMUM_PACKAGE_HEIGHT"
	1    2050 1250
	1    0    0    -1  
$EndComp
Wire Wire Line
	1350 1250 1600 1250
$Comp
L power:+5VA #PWR010
U 1 1 62DB0D83
P 2300 1150
F 0 "#PWR010" H 2300 1000 50  0001 C CNN
F 1 "+5VA" H 2315 1323 50  0000 C CNN
F 2 "" H 2300 1150 50  0001 C CNN
F 3 "" H 2300 1150 50  0001 C CNN
	1    2300 1150
	1    0    0    -1  
$EndComp
Wire Wire Line
	2300 1250 2300 1150
$Comp
L power:+5V #PWR06
U 1 1 62E0AD47
P 1600 1150
F 0 "#PWR06" H 1600 1000 50  0001 C CNN
F 1 "+5V" H 1615 1323 50  0000 C CNN
F 2 "" H 1600 1150 50  0001 C CNN
F 3 "" H 1600 1150 50  0001 C CNN
	1    1600 1150
	1    0    0    -1  
$EndComp
Wire Wire Line
	1600 1150 1600 1250
Connection ~ 1600 1250
$Comp
L Diode:SD05_SOD323 D1
U 1 1 62E6722A
P 1800 1800
F 0 "D1" V 1800 1879 50  0000 L CNN
F 1 "SD05_SOD323" V 1845 1879 50  0001 L CNN
F 2 "Diode_SMD:D_SOD-323" H 1800 1600 50  0001 C CNN
F 3 "https://www.littelfuse.com/~/media/electronics/datasheets/tvs_diode_arrays/littelfuse_tvs_diode_array_sd_c_datasheet.pdf.pdf" H 1800 1800 50  0001 C CNN
	1    1800 1800
	0    1    1    0   
$EndComp
$Comp
L Diode:SD05_SOD323 D3
U 1 1 62E69F90
P 2050 1800
F 0 "D3" V 2050 1879 50  0000 L CNN
F 1 "SD05_SOD323" V 2095 1879 50  0001 L CNN
F 2 "Diode_SMD:D_SOD-323" H 2050 1600 50  0001 C CNN
F 3 "https://www.littelfuse.com/~/media/electronics/datasheets/tvs_diode_arrays/littelfuse_tvs_diode_array_sd_c_datasheet.pdf.pdf" H 2050 1800 50  0001 C CNN
	1    2050 1800
	0    1    1    0   
$EndComp
$Comp
L Diode:SD05_SOD323 D4
U 1 1 62E970CC
P 2300 1800
F 0 "D4" V 2254 1879 50  0000 L CNN
F 1 "SD05_SOD323" V 2345 1879 50  0000 L CNN
F 2 "Diode_SMD:D_SOD-323" H 2300 1600 50  0001 C CNN
F 3 "https://www.littelfuse.com/~/media/electronics/datasheets/tvs_diode_arrays/littelfuse_tvs_diode_array_sd_c_datasheet.pdf.pdf" H 2300 1800 50  0001 C CNN
	1    2300 1800
	0    1    1    0   
$EndComp
Wire Wire Line
	1350 1450 2050 1450
Wire Wire Line
	2050 1650 2050 1450
Connection ~ 2050 1450
Wire Wire Line
	2250 1250 2300 1250
Wire Wire Line
	1600 1250 1800 1250
Wire Wire Line
	1800 1650 1800 1250
Connection ~ 1800 1250
Wire Wire Line
	1800 1250 1850 1250
Wire Wire Line
	1800 1950 1800 2000
Wire Wire Line
	1800 2000 2050 2000
Wire Wire Line
	2300 2000 2300 1950
Wire Wire Line
	2050 1950 2050 2000
Connection ~ 2050 2000
Wire Wire Line
	2050 2000 2300 2000
$Comp
L Device:C_Small C4
U 1 1 6313707E
P 4600 7700
F 0 "C4" V 4500 7850 50  0000 L CNN
F 1 "100nF" V 4500 7550 50  0000 L CNN
F 2 "Capacitor_SMD:C_0805_2012Metric" H 4600 7700 50  0001 C CNN
F 3 "~" H 4600 7700 50  0001 C CNN
	1    4600 7700
	0    -1   -1   0   
$EndComp
Wire Wire Line
	4700 7700 4850 7700
Wire Wire Line
	4850 7700 4850 7550
Wire Wire Line
	4850 7550 4800 7550
$Comp
L SparkFun-Connectors:CONN_14 J4
U 1 1 63477733
P 7250 8300
F 0 "J4" H 6972 8908 45  0000 R CNN
F 1 "LCD" H 6972 8992 45  0000 R CNN
F 2 "Connector_PinHeader_2.54mm:PinHeader_1x14_P2.54mm_Vertical" H 7250 9800 20  0001 C CNN
F 3 "" H 7250 8300 50  0001 C CNN
F 4 "XXX-00000" H 6973 9034 60  0001 R CNN "Field4"
	1    7250 8300
	1    0    0    1   
$EndComp
Text GLabel 4950 7550 2    50   Input ~ 0
EN
Text GLabel 4950 8150 2    50   Input ~ 0
IO0
Wire Wire Line
	4850 7550 4950 7550
Connection ~ 4850 7550
$Comp
L power:+3V3 #PWR045
U 1 1 63589780
P 7600 8150
F 0 "#PWR045" H 7600 8000 50  0001 C CNN
F 1 "+3V3" H 7615 8323 50  0000 C CNN
F 2 "" H 7600 8150 50  0001 C CNN
F 3 "" H 7600 8150 50  0001 C CNN
	1    7600 8150
	1    0    0    -1  
$EndComp
Wire Wire Line
	7350 8300 7600 8300
Wire Wire Line
	7600 8300 7600 8150
Text GLabel 7500 8500 2    50   Input ~ 0
LCD_CS
Text GLabel 7500 8700 2    50   Input ~ 0
DC
Text GLabel 7500 8800 2    50   Input ~ 0
MOSI
Text GLabel 7500 8900 2    50   Input ~ 0
SCK
Text GLabel 7500 8600 2    50   Input ~ 0
RESET
$Comp
L power:+3V3 #PWR046
U 1 1 636DAB0C
P 7950 8950
F 0 "#PWR046" H 7950 8800 50  0001 C CNN
F 1 "+3V3" H 7965 9123 50  0000 C CNN
F 2 "" H 7950 8950 50  0001 C CNN
F 3 "" H 7950 8950 50  0001 C CNN
	1    7950 8950
	1    0    0    -1  
$EndComp
Wire Wire Line
	7350 9000 7950 9000
Wire Wire Line
	7950 9000 7950 8950
Text GLabel 7500 9200 2    50   Input ~ 0
SCK
Text GLabel 7500 9300 2    50   Input ~ 0
T_CS
Text GLabel 7500 9400 2    50   Input ~ 0
MOSI
Text GLabel 7500 9500 2    50   Input ~ 0
MISO
Wire Wire Line
	7350 9200 7500 9200
Wire Wire Line
	7350 9300 7500 9300
Wire Wire Line
	7350 9400 7500 9400
Wire Wire Line
	7350 9500 7500 9500
Wire Wire Line
	7350 8900 7500 8900
Wire Wire Line
	7350 8800 7500 8800
Wire Wire Line
	7350 8700 7500 8700
Wire Wire Line
	7350 8600 7500 8600
Wire Wire Line
	7350 8500 7500 8500
NoConn ~ 7350 9100
NoConn ~ 7350 9600
Text GLabel 14950 2900 2    50   Input ~ 0
SCL
Text GLabel 14950 2800 2    50   Input ~ 0
SDA
Wire Wire Line
	13950 3200 14050 3200
Wire Wire Line
	13950 3600 14050 3600
Text GLabel 14050 1600 2    50   Input ~ 0
DC
Wire Wire Line
	13950 1600 14050 1600
Text GLabel 14050 1900 2    50   Input ~ 0
SD_CS
Wire Wire Line
	13950 1900 14050 1900
Text GLabel 14050 2600 2    50   Input ~ 0
SCK
Text GLabel 14050 2500 2    50   Input ~ 0
LoRa_DIO1
Wire Wire Line
	13950 2500 14050 2500
Wire Wire Line
	13950 2600 14050 2600
Text GLabel 14050 2700 2    50   Input ~ 0
MISO
Text GLabel 14050 1800 2    50   Input ~ 0
RESET
Wire Wire Line
	13950 1800 14050 1800
Text GLabel 14050 3000 2    50   Input ~ 0
MOSI
Wire Wire Line
	13950 2700 14050 2700
Wire Wire Line
	13950 3000 14050 3000
Text GLabel 14050 3100 2    50   Input ~ 0
T_CS
Wire Wire Line
	13950 3100 14050 3100
Text GLabel 14050 3300 2    50   Input ~ 0
LoRa_NRST
Wire Wire Line
	13950 3300 14050 3300
Text GLabel 14050 3400 2    50   Input ~ 0
LCD_CS
Wire Wire Line
	13950 3400 14050 3400
Text GLabel 12600 1700 0    50   Input ~ 0
LoRa_BUSY
Text GLabel 14050 3700 2    50   Input ~ 0
BATT_READ
Wire Wire Line
	13950 3700 14050 3700
Wire Wire Line
	13950 2800 14850 2800
Wire Wire Line
	13950 2900 14550 2900
$Comp
L Device:R_Small_US R24
U 1 1 6464B609
P 14550 2550
F 0 "R24" H 14482 2504 50  0000 R CNN
F 1 "10K" H 14482 2595 50  0000 R CNN
F 2 "Resistor_SMD:R_0805_2012Metric" H 14550 2550 50  0001 C CNN
F 3 "~" H 14550 2550 50  0001 C CNN
	1    14550 2550
	-1   0    0    1   
$EndComp
$Comp
L Device:R_Small_US R25
U 1 1 646899B5
P 14850 2550
F 0 "R25" H 14782 2504 50  0000 R CNN
F 1 "10K" H 14782 2595 50  0000 R CNN
F 2 "Resistor_SMD:R_0805_2012Metric" H 14850 2550 50  0001 C CNN
F 3 "~" H 14850 2550 50  0001 C CNN
	1    14850 2550
	-1   0    0    1   
$EndComp
Wire Wire Line
	14550 2650 14550 2900
Connection ~ 14550 2900
Wire Wire Line
	14550 2900 14950 2900
Wire Wire Line
	14850 2650 14850 2800
Connection ~ 14850 2800
Wire Wire Line
	14850 2800 14950 2800
Wire Wire Line
	14550 2450 14550 2350
Wire Wire Line
	14550 2350 14700 2350
Wire Wire Line
	14850 2350 14850 2450
$Comp
L power:+3V3 #PWR065
U 1 1 64782ED1
P 14700 2250
F 0 "#PWR065" H 14700 2100 50  0001 C CNN
F 1 "+3V3" H 14715 2423 50  0000 C CNN
F 2 "" H 14700 2250 50  0001 C CNN
F 3 "" H 14700 2250 50  0001 C CNN
	1    14700 2250
	1    0    0    -1  
$EndComp
Wire Wire Line
	14700 2250 14700 2350
Connection ~ 14700 2350
Wire Wire Line
	14700 2350 14850 2350
Wire Wire Line
	5400 1950 5400 1900
Wire Wire Line
	5400 1900 5500 1900
Wire Wire Line
	5750 1950 5750 1900
Connection ~ 5400 1900
Wire Wire Line
	8500 2000 8500 2200
Wire Wire Line
	6200 1050 6350 1050
$Comp
L TPS63070RNMR:TPS63070RNMR U6
U 1 1 609FDA02
P 7550 1800
F 0 "U6" H 7550 2570 50  0000 C CNN
F 1 "TPS63070RNMR" H 7550 2479 50  0000 C CNN
F 2 "otter:VREG_TPS63070RNMR" H 7550 1800 50  0001 L BNN
F 3 "" H 7550 1800 50  0001 L BNN
	1    7550 1800
	1    0    0    -1  
$EndComp
Wire Wire Line
	6250 1900 6850 1900
Wire Wire Line
	6250 2900 6450 2900
Wire Wire Line
	6450 2900 6450 2000
Wire Wire Line
	6450 2000 6850 2000
Wire Wire Line
	5750 1900 6050 1900
Wire Wire Line
	6050 1900 6050 1600
Wire Wire Line
	6050 1600 6850 1600
Connection ~ 5750 1900
Wire Wire Line
	5500 1300 5500 1900
Connection ~ 5500 1900
Wire Wire Line
	5500 1900 5750 1900
Wire Wire Line
	8250 1500 8500 1500
Wire Wire Line
	8250 1600 8700 1600
Connection ~ 8700 1600
Wire Wire Line
	8250 1300 8300 1300
Wire Wire Line
	8300 1300 8300 1100
Wire Wire Line
	8300 1100 8450 1100
Wire Wire Line
	6850 1400 6350 1400
Wire Wire Line
	6350 1400 6350 1050
Connection ~ 6350 1050
Wire Wire Line
	6350 1050 6550 1050
Wire Wire Line
	8400 1400 8250 1400
Wire Wire Line
	8250 2200 8500 2200
Connection ~ 8500 2200
Wire Wire Line
	8250 2300 8500 2300
Wire Wire Line
	8500 2200 8500 2300
Wire Wire Line
	5000 1700 4900 1700
Wire Wire Line
	5300 1800 5300 1900
Wire Wire Line
	5300 1900 5400 1900
$Comp
L power:+5V #PWR0102
U 1 1 60EBDEE0
P 4700 4450
F 0 "#PWR0102" H 4700 4300 50  0001 C CNN
F 1 "+5V" H 4715 4623 50  0000 C CNN
F 2 "" H 4700 4450 50  0001 C CNN
F 3 "" H 4700 4450 50  0001 C CNN
	1    4700 4450
	1    0    0    -1  
$EndComp
Wire Wire Line
	4700 4450 4700 4600
Connection ~ 4700 4600
$Comp
L power:+3V3 #PWR0103
U 1 1 60F4752A
P 2550 9450
F 0 "#PWR0103" H 2550 9300 50  0001 C CNN
F 1 "+3V3" H 2565 9623 50  0000 C CNN
F 2 "" H 2550 9450 50  0001 C CNN
F 3 "" H 2550 9450 50  0001 C CNN
	1    2550 9450
	1    0    0    -1  
$EndComp
Wire Wire Line
	2550 9450 2550 9550
Connection ~ 2550 9550
Wire Wire Line
	4900 1550 4900 1700
$Comp
L power:+5VA #PWR014
U 1 1 61272AC7
P 4900 1550
F 0 "#PWR014" H 4900 1400 50  0001 C CNN
F 1 "+5VA" H 4915 1723 50  0000 C CNN
F 2 "" H 4900 1550 50  0001 C CNN
F 3 "" H 4900 1550 50  0001 C CNN
	1    4900 1550
	1    0    0    -1  
$EndComp
$Comp
L SparkFun-PowerSymbols:GND #GND0101
U 1 1 60B858DF
P 14200 8250
F 0 "#GND0101" H 14250 8200 45  0001 L BNN
F 1 "GND" H 14200 8080 45  0000 C CNN
F 2 "" H 14200 8150 60  0001 C CNN
F 3 "" H 14200 8150 60  0001 C CNN
	1    14200 8250
	1    0    0    -1  
$EndComp
Wire Wire Line
	14200 8050 14200 8250
$Comp
L SparkFun-PowerSymbols:GND #GND0102
U 1 1 60BCD572
P 13850 8850
F 0 "#GND0102" H 13900 8800 45  0001 L BNN
F 1 "GND" H 13850 8680 45  0000 C CNN
F 2 "" H 13850 8750 60  0001 C CNN
F 3 "" H 13850 8750 60  0001 C CNN
	1    13850 8850
	1    0    0    -1  
$EndComp
$Comp
L SparkFun-PowerSymbols:GND #GND0103
U 1 1 60C1183E
P 2350 6150
F 0 "#GND0103" H 2400 6100 45  0001 L BNN
F 1 "GND" H 2350 5980 45  0000 C CNN
F 2 "" H 2350 6050 60  0001 C CNN
F 3 "" H 2350 6050 60  0001 C CNN
	1    2350 6150
	1    0    0    -1  
$EndComp
$Comp
L SparkFun-PowerSymbols:GND #GND0105
U 1 1 60C9A6AB
P 1050 3700
F 0 "#GND0105" H 1100 3650 45  0001 L BNN
F 1 "GND" H 1050 3530 45  0000 C CNN
F 2 "" H 1050 3600 60  0001 C CNN
F 3 "" H 1050 3600 60  0001 C CNN
	1    1050 3700
	1    0    0    -1  
$EndComp
$Comp
L SparkFun-PowerSymbols:GND #GND0106
U 1 1 60CDF7BB
P 2050 2200
F 0 "#GND0106" H 2100 2150 45  0001 L BNN
F 1 "GND" H 2050 2030 45  0000 C CNN
F 2 "" H 2050 2100 60  0001 C CNN
F 3 "" H 2050 2100 60  0001 C CNN
	1    2050 2200
	1    0    0    -1  
$EndComp
$Comp
L SparkFun-PowerSymbols:GND #GND0107
U 1 1 60D24C41
P 950 2200
F 0 "#GND0107" H 1000 2150 45  0001 L BNN
F 1 "GND" H 950 2030 45  0000 C CNN
F 2 "" H 950 2100 60  0001 C CNN
F 3 "" H 950 2100 60  0001 C CNN
	1    950  2200
	1    0    0    -1  
$EndComp
$Comp
L SparkFun-PowerSymbols:GND #GND0108
U 1 1 60D6C6EA
P 5550 2250
F 0 "#GND0108" H 5600 2200 45  0001 L BNN
F 1 "GND" H 5550 2080 45  0000 C CNN
F 2 "" H 5550 2150 60  0001 C CNN
F 3 "" H 5550 2150 60  0001 C CNN
	1    5550 2250
	1    0    0    -1  
$EndComp
$Comp
L SparkFun-PowerSymbols:GND #GND0109
U 1 1 60DB38E9
P 5900 1050
F 0 "#GND0109" H 5950 1000 45  0001 L BNN
F 1 "GND" H 5900 880 45  0000 C CNN
F 2 "" H 5900 950 60  0001 C CNN
F 3 "" H 5900 950 60  0001 C CNN
	1    5900 1050
	1    0    0    -1  
$EndComp
$Comp
L SparkFun-PowerSymbols:GND #GND0110
U 1 1 60DFAC82
P 6550 1700
F 0 "#GND0110" H 6600 1650 45  0001 L BNN
F 1 "GND" H 6550 1530 45  0000 C CNN
F 2 "" H 6550 1600 60  0001 C CNN
F 3 "" H 6550 1600 60  0001 C CNN
	1    6550 1700
	1    0    0    -1  
$EndComp
$Comp
L SparkFun-PowerSymbols:GND #GND0111
U 1 1 60E4195E
P 8450 1150
F 0 "#GND0111" H 8500 1100 45  0001 L BNN
F 1 "GND" H 8450 980 45  0000 C CNN
F 2 "" H 8450 1050 60  0001 C CNN
F 3 "" H 8450 1050 60  0001 C CNN
	1    8450 1150
	1    0    0    -1  
$EndComp
$Comp
L SparkFun-PowerSymbols:GND #GND0112
U 1 1 60E88734
P 8500 2400
F 0 "#GND0112" H 8550 2350 45  0001 L BNN
F 1 "GND" H 8500 2230 45  0000 C CNN
F 2 "" H 8500 2300 60  0001 C CNN
F 3 "" H 8500 2300 60  0001 C CNN
	1    8500 2400
	1    0    0    -1  
$EndComp
$Comp
L SparkFun-PowerSymbols:GND #GND0113
U 1 1 60ECF80B
P 9550 2400
F 0 "#GND0113" H 9600 2350 45  0001 L BNN
F 1 "GND" H 9550 2230 45  0000 C CNN
F 2 "" H 9550 2300 60  0001 C CNN
F 3 "" H 9550 2300 60  0001 C CNN
	1    9550 2400
	1    0    0    -1  
$EndComp
$Comp
L SparkFun-PowerSymbols:GND #GND0114
U 1 1 60F17D40
P 8000 8300
F 0 "#GND0114" H 8050 8250 45  0001 L BNN
F 1 "GND" H 8000 8130 45  0000 C CNN
F 2 "" H 8000 8200 60  0001 C CNN
F 3 "" H 8000 8200 60  0001 C CNN
	1    8000 8300
	1    0    0    -1  
$EndComp
$Comp
L SparkFun-PowerSymbols:GND #GND0115
U 1 1 60F606D6
P 8450 5350
F 0 "#GND0115" H 8500 5300 45  0001 L BNN
F 1 "GND" H 8450 5180 45  0000 C CNN
F 2 "" H 8450 5250 60  0001 C CNN
F 3 "" H 8450 5250 60  0001 C CNN
	1    8450 5350
	1    0    0    -1  
$EndComp
$Comp
L SparkFun-PowerSymbols:GND #GND0116
U 1 1 60FA938F
P 9150 4900
F 0 "#GND0116" H 9200 4850 45  0001 L BNN
F 1 "GND" H 9150 4730 45  0000 C CNN
F 2 "" H 9150 4800 60  0001 C CNN
F 3 "" H 9150 4800 60  0001 C CNN
	1    9150 4900
	1    0    0    -1  
$EndComp
$Comp
L SparkFun-PowerSymbols:GND #GND0120
U 1 1 610CF153
P 4250 7800
F 0 "#GND0120" H 4300 7750 45  0001 L BNN
F 1 "GND" H 4250 7630 45  0000 C CNN
F 2 "" H 4250 7700 60  0001 C CNN
F 3 "" H 4250 7700 60  0001 C CNN
	1    4250 7800
	1    0    0    -1  
$EndComp
$Comp
L SparkFun-PowerSymbols:GND #GND0121
U 1 1 61118368
P 4250 8300
F 0 "#GND0121" H 4300 8250 45  0001 L BNN
F 1 "GND" H 4250 8130 45  0000 C CNN
F 2 "" H 4250 8200 60  0001 C CNN
F 3 "" H 4250 8200 60  0001 C CNN
	1    4250 8300
	1    0    0    -1  
$EndComp
$Comp
L SparkFun-PowerSymbols:GND #GND0122
U 1 1 61161D3C
P 2550 9950
F 0 "#GND0122" H 2600 9900 45  0001 L BNN
F 1 "GND" H 2550 9780 45  0000 C CNN
F 2 "" H 2550 9850 60  0001 C CNN
F 3 "" H 2550 9850 60  0001 C CNN
	1    2550 9950
	1    0    0    -1  
$EndComp
$Comp
L SparkFun-PowerSymbols:GND #GND0123
U 1 1 611ACBE3
P 2050 10400
F 0 "#GND0123" H 2100 10350 45  0001 L BNN
F 1 "GND" H 2050 10230 45  0000 C CNN
F 2 "" H 2050 10300 60  0001 C CNN
F 3 "" H 2050 10300 60  0001 C CNN
	1    2050 10400
	1    0    0    -1  
$EndComp
$Comp
L SparkFun-PowerSymbols:GND #GND0124
U 1 1 611F82D8
P 4600 10900
F 0 "#GND0124" H 4650 10850 45  0001 L BNN
F 1 "GND" H 4600 10730 45  0000 C CNN
F 2 "" H 4600 10800 60  0001 C CNN
F 3 "" H 4600 10800 60  0001 C CNN
	1    4600 10900
	1    0    0    -1  
$EndComp
$Comp
L SparkFun-PowerSymbols:GND #GND0125
U 1 1 61242B32
P 5700 9750
F 0 "#GND0125" H 5750 9700 45  0001 L BNN
F 1 "GND" H 5700 9580 45  0000 C CNN
F 2 "" H 5700 9650 60  0001 C CNN
F 3 "" H 5700 9650 60  0001 C CNN
	1    5700 9750
	1    0    0    -1  
$EndComp
$Comp
L SparkFun-PowerSymbols:GND #GND0135
U 1 1 615892C1
P 12000 3500
F 0 "#GND0135" H 12050 3450 45  0001 L BNN
F 1 "GND" H 12000 3330 45  0000 C CNN
F 2 "" H 12000 3400 60  0001 C CNN
F 3 "" H 12000 3400 60  0001 C CNN
	1    12000 3500
	1    0    0    -1  
$EndComp
$Comp
L SparkFun-PowerSymbols:GND #GND0136
U 1 1 615D78C3
P 14400 1100
F 0 "#GND0136" H 14450 1050 45  0001 L BNN
F 1 "GND" H 14400 930 45  0000 C CNN
F 2 "" H 14400 1000 60  0001 C CNN
F 3 "" H 14400 1000 60  0001 C CNN
	1    14400 1100
	1    0    0    -1  
$EndComp
$Comp
L SparkFun-PowerSymbols:GND #GND0137
U 1 1 6162606F
P 13350 4150
F 0 "#GND0137" H 13400 4100 45  0001 L BNN
F 1 "GND" H 13350 3980 45  0000 C CNN
F 2 "" H 13350 4050 60  0001 C CNN
F 3 "" H 13350 4050 60  0001 C CNN
	1    13350 4150
	1    0    0    -1  
$EndComp
$Comp
L SparkFun-PowerSymbols:GND #GND0138
U 1 1 61674C4E
P 10600 9300
F 0 "#GND0138" H 10650 9250 45  0001 L BNN
F 1 "GND" H 10600 9130 45  0000 C CNN
F 2 "" H 10600 9200 60  0001 C CNN
F 3 "" H 10600 9200 60  0001 C CNN
	1    10600 9300
	1    0    0    -1  
$EndComp
Wire Wire Line
	7850 8400 7850 8250
Wire Wire Line
	7850 8250 8000 8250
Wire Wire Line
	8000 8250 8000 8300
Wire Wire Line
	7350 8400 7850 8400
Wire Wire Line
	12000 3300 12000 3500
Wire Wire Line
	13350 4000 13350 4150
Wire Wire Line
	14400 1100 14400 1050
$Comp
L SparkFun-PowerSymbols:GND #GND0140
U 1 1 61E005F2
P 6000 5350
F 0 "#GND0140" H 6050 5300 45  0001 L BNN
F 1 "GND" V 6000 5222 45  0000 R CNN
F 2 "" H 6000 5250 60  0001 C CNN
F 3 "" H 6000 5250 60  0001 C CNN
	1    6000 5350
	0    -1   -1   0   
$EndComp
Wire Wire Line
	6000 5350 5850 5350
$Comp
L SparkFun-PowerSymbols:GND #GND0141
U 1 1 61FBC272
P 5150 4950
F 0 "#GND0141" H 5200 4900 45  0001 L BNN
F 1 "GND" H 5150 4780 45  0000 C CNN
F 2 "" H 5150 4850 60  0001 C CNN
F 3 "" H 5150 4850 60  0001 C CNN
	1    5150 4950
	1    0    0    -1  
$EndComp
$Comp
L SparkFun-PowerSymbols:GND #GND0142
U 1 1 6204E38E
P 5500 4900
F 0 "#GND0142" H 5550 4850 45  0001 L BNN
F 1 "GND" H 5500 4730 45  0000 C CNN
F 2 "" H 5500 4800 60  0001 C CNN
F 3 "" H 5500 4800 60  0001 C CNN
	1    5500 4900
	1    0    0    -1  
$EndComp
$Comp
L SparkFun-PowerSymbols:GND #GND0143
U 1 1 620973A8
P 6450 5150
F 0 "#GND0143" H 6500 5100 45  0001 L BNN
F 1 "GND" H 6450 4980 45  0000 C CNN
F 2 "" H 6450 5050 60  0001 C CNN
F 3 "" H 6450 5050 60  0001 C CNN
	1    6450 5150
	1    0    0    -1  
$EndComp
Wire Wire Line
	6450 5150 6450 5100
Wire Wire Line
	5500 4900 5500 4800
Wire Wire Line
	5500 4800 5600 4800
Wire Wire Line
	5150 4950 5150 4850
Wire Wire Line
	8450 5350 8450 5250
Wire Wire Line
	9150 4900 9150 4650
Wire Wire Line
	5700 9750 5700 9650
Wire Wire Line
	5450 9650 5700 9650
Wire Wire Line
	5700 9650 5900 9650
Connection ~ 5700 9650
Wire Wire Line
	4600 10900 4600 10800
Wire Wire Line
	2550 9950 2550 9850
Wire Wire Line
	2000 10350 2050 10350
Wire Wire Line
	2050 10400 2050 10350
Connection ~ 2050 10350
Wire Wire Line
	2050 10350 2100 10350
Wire Wire Line
	2350 6150 2350 5950
Wire Wire Line
	1050 3700 1050 3550
Wire Wire Line
	950  2200 950  2050
Wire Wire Line
	5400 2200 5550 2200
Wire Wire Line
	5550 2250 5550 2200
Connection ~ 5550 2200
Wire Wire Line
	5550 2200 5750 2200
Wire Wire Line
	5900 1050 6000 1050
Wire Wire Line
	8450 1150 8450 1100
Wire Wire Line
	9550 2400 9550 2300
Connection ~ 9550 2300
Wire Wire Line
	8500 2400 8500 2300
Connection ~ 8500 2300
Wire Wire Line
	10600 9300 10600 9200
Wire Wire Line
	10600 9200 10150 9200
Wire Wire Line
	13850 8850 13850 8750
Wire Wire Line
	13550 8750 13850 8750
$Comp
L SparkFun-PowerSymbols:GND #GND0144
U 1 1 60B77261
P 6950 4900
F 0 "#GND0144" H 7000 4850 45  0001 L BNN
F 1 "GND" H 6950 4730 45  0000 C CNN
F 2 "" H 6950 4800 60  0001 C CNN
F 3 "" H 6950 4800 60  0001 C CNN
	1    6950 4900
	1    0    0    -1  
$EndComp
Wire Wire Line
	6950 4900 6950 4850
Wire Wire Line
	2050 1450 2450 1450
Wire Wire Line
	2300 1350 2450 1350
Wire Wire Line
	1350 1350 2300 1350
Connection ~ 2300 1350
Wire Wire Line
	2300 1650 2300 1350
Wire Wire Line
	4500 9350 4500 9250
Wire Wire Line
	4500 9250 4700 9250
$Comp
L SW_147873-1:147873-1 BOOT1
U 1 1 631057CC
P 4600 8150
F 0 "BOOT1" H 4600 8352 50  0000 C CNN
F 1 "IO0" H 4600 8261 50  0001 C CNN
F 2 "TL3330AF:TL3330AF" H 4600 8150 50  0001 L BNN
F 3 "" H 4600 8150 50  0001 L BNN
F 4 "147873-1" H 4600 8150 50  0001 L BNN "Comment"
	1    4600 8150
	1    0    0    -1  
$EndComp
Wire Wire Line
	6950 4550 7550 4550
Wire Wire Line
	4800 8150 4950 8150
$Comp
L SparkFun-PowerSymbols:GND #GND0117
U 1 1 618B14B3
P 1600 2200
F 0 "#GND0117" H 1650 2150 45  0001 L BNN
F 1 "GND" H 1600 2030 45  0000 C CNN
F 2 "" H 1600 2100 60  0001 C CNN
F 3 "" H 1600 2100 60  0001 C CNN
	1    1600 2200
	1    0    0    -1  
$EndComp
Wire Wire Line
	1600 1650 1600 2200
Wire Wire Line
	2050 2000 2050 2200
$Comp
L SS24:SS24 D8
U 1 1 618F24BF
P 7550 4850
F 0 "D8" H 7550 5067 50  0000 C CNN
F 1 "SS24" H 7550 4976 50  0000 C CNN
F 2 "otter:DIOM5336X265N" H 7550 4850 50  0001 L BNN
F 3 "" H 7550 4850 50  0001 L BNN
F 4 "ON Semiconductor" H 7550 4850 50  0001 L BNN "MANUFACTURER"
F 5 "IPC 7351B" H 7550 4850 50  0001 L BNN "STANDARD"
F 6 "1.1.2" H 7550 4850 50  0001 L BNN "PARTREV"
F 7 "2.65 mm" H 7550 4850 50  0001 L BNN "MAXIMUM_PACKAGE_HEIGHT"
	1    7550 4850
	0    1    1    0   
$EndComp
Wire Wire Line
	7550 4650 7550 4550
Connection ~ 7550 4550
Wire Wire Line
	7550 4550 7750 4550
Wire Wire Line
	7550 5150 7550 5050
Wire Wire Line
	4250 8150 4400 8150
$Comp
L E22-900M22S:E22-900M22S U8
U 1 1 619D1A97
P 12950 5750
F 0 "U8" H 12950 5750 50  0001 L BNN
F 1 "E22-900M22S" H 12950 5750 50  0001 L BNN
F 2 "otter:E22-900M22S" H 12950 5750 50  0001 L BNN
F 3 "" H 12950 5750 50  0001 L BNN
	1    12950 5750
	1    0    0    -1  
$EndComp
$Comp
L SMA-J-P-H-ST-EM1:SMA-J-P-H-ST-EM1 J5
U 1 1 619D378B
P 14950 5250
F 0 "J5" H 14790 5336 50  0000 R CNN
F 1 "SMA-J-P-H-ST-EM1" H 14790 5245 50  0000 R CNN
F 2 "otter:SMA-J-P-H-ST-EM1" H 14950 5250 50  0001 L BNN
F 3 "" H 14950 5250 50  0001 L BNN
F 4 "3.675mm" H 14950 5250 50  0001 L BNN "MAXIMUM_PACKAGE_HEIGHT"
F 5 "Samtec" H 14950 5250 50  0001 L BNN "MANUFACTURER"
F 6 "G" H 14950 5250 50  0001 L BNN "PARTREV"
F 7 "Manufacturer Recommendations" H 14950 5250 50  0001 L BNN "STANDARD"
	1    14950 5250
	-1   0    0    -1  
$EndComp
$Comp
L SparkFun-PowerSymbols:GND #GND0104
U 1 1 61A1769B
P 14750 5400
F 0 "#GND0104" H 14800 5350 45  0001 L BNN
F 1 "GND" H 14750 5230 45  0000 C CNN
F 2 "" H 14750 5300 60  0001 C CNN
F 3 "" H 14750 5300 60  0001 C CNN
	1    14750 5400
	1    0    0    -1  
$EndComp
Wire Wire Line
	14750 5400 14750 5250
Wire Wire Line
	14750 5250 14850 5250
Text GLabel 13850 5650 2    50   Input ~ 0
LoRa_MISO
Wire Wire Line
	13750 5650 13850 5650
Wire Wire Line
	13750 5150 14850 5150
Text GLabel 13850 5550 2    50   Input ~ 0
LoRa_MOSI
Text GLabel 13850 5450 2    50   Input ~ 0
LoRa_SCK
Text GLabel 13850 5350 2    50   Input ~ 0
LoRa_CS
Text GLabel 13850 5750 2    50   Input ~ 0
LoRa_NRST
Text GLabel 13850 5850 2    50   Input ~ 0
LoRa_BUSY
Text GLabel 13850 5950 2    50   Input ~ 0
LoRa_DIO1
Text GLabel 11800 5650 0    50   Input ~ 0
LoRa_TXEN
NoConn ~ 11950 5550
NoConn ~ 11950 5750
$Comp
L SparkFun-PowerSymbols:GND #GND0118
U 1 1 61AD465A
P 11700 6100
F 0 "#GND0118" H 11750 6050 45  0001 L BNN
F 1 "GND" H 11700 5930 45  0000 C CNN
F 2 "" H 11700 6000 60  0001 C CNN
F 3 "" H 11700 6000 60  0001 C CNN
	1    11700 6100
	1    0    0    -1  
$EndComp
Wire Wire Line
	11700 6100 11700 5950
Wire Wire Line
	11700 5950 11950 5950
$Comp
L power:+3V3 #PWR0101
U 1 1 61AF4208
P 11100 5650
F 0 "#PWR0101" H 11100 5500 50  0001 C CNN
F 1 "+3V3" H 11115 5823 50  0000 C CNN
F 2 "" H 11100 5650 50  0001 C CNN
F 3 "" H 11100 5650 50  0001 C CNN
	1    11100 5650
	1    0    0    -1  
$EndComp
Wire Wire Line
	11950 5850 11100 5850
Wire Wire Line
	11100 5650 11100 5850
Wire Wire Line
	11800 5650 11950 5650
Wire Wire Line
	13750 5350 13850 5350
Wire Wire Line
	13750 5450 13850 5450
Wire Wire Line
	13750 5550 13850 5550
Wire Wire Line
	13750 5750 13850 5750
Wire Wire Line
	13750 5850 13850 5850
Wire Wire Line
	13750 5950 13850 5950
Wire Wire Line
	5700 1300 6850 1300
$Comp
L Device:C_Small C5
U 1 1 61E66DFC
P 750 3450
F 0 "C5" H 842 3496 50  0000 L CNN
F 1 "4.7uF" H 850 3600 50  0000 L CNN
F 2 "Capacitor_SMD:C_0805_2012Metric" H 750 3450 50  0001 C CNN
F 3 "~" H 750 3450 50  0001 C CNN
	1    750  3450
	1    0    0    -1  
$EndComp
Wire Wire Line
	750  3350 750  3250
Wire Wire Line
	750  3250 1050 3250
Connection ~ 1050 3250
$Comp
L SparkFun-PowerSymbols:GND #GND0119
U 1 1 61EA7205
P 750 3700
F 0 "#GND0119" H 800 3650 45  0001 L BNN
F 1 "GND" H 750 3530 45  0000 C CNN
F 2 "" H 750 3600 60  0001 C CNN
F 3 "" H 750 3600 60  0001 C CNN
	1    750  3700
	1    0    0    -1  
$EndComp
Wire Wire Line
	750  3550 750  3700
Wire Wire Line
	4250 7550 4250 7700
Connection ~ 4250 7700
Wire Wire Line
	4250 7700 4250 7800
$Comp
L SW_147873-1:147873-1 EN1
U 1 1 631048AD
P 4600 7550
F 0 "EN1" H 4600 7752 50  0000 C CNN
F 1 "147873-1" H 4600 7661 50  0001 C CNN
F 2 "TL3330AF:TL3330AF" H 4600 7550 50  0001 L BNN
F 3 "" H 4600 7550 50  0001 L BNN
F 4 "147873-1" H 4600 7550 50  0001 L BNN "Comment"
	1    4600 7550
	1    0    0    -1  
$EndComp
Wire Wire Line
	4250 7700 4500 7700
Wire Wire Line
	4250 7550 4400 7550
Wire Wire Line
	4250 8300 4250 8150
$Comp
L L80-M39:L80-M39 U7
U 1 1 609A1335
P 12850 8250
F 0 "U7" H 12850 9017 50  0000 C CNN
F 1 "L80-M39" H 12850 8926 50  0000 C CNN
F 2 "otter:XCVR_L80-M39" H 12850 8250 50  0001 L BNN
F 3 "" H 12850 8250 50  0001 L BNN
F 4 "Unavailable" H 12850 8250 50  0001 L BNN "AVAILABILITY"
F 5 "Radial Can  Quectel" H 12850 8250 50  0001 L BNN "PACKAGE"
F 6 "L80" H 12850 8250 50  0001 L BNN "MP"
F 7 "Quectel" H 12850 8250 50  0001 L BNN "MF"
F 8 "L80 is an ultra compact GPS POT _Patch on Top_ module with an embedded 15.0mm × 15.0mm × 4.0mm patch antenna." H 12850 8250 50  0001 L BNN "DESCRIPTION"
F 9 "None" H 12850 8250 50  0001 L BNN "PRICE"
	1    12850 8250
	1    0    0    -1  
$EndComp
Wire Wire Line
	6550 1700 6550 1500
Connection ~ 6550 1700
Wire Wire Line
	6550 1500 6850 1500
Wire Wire Line
	6550 1700 6850 1700
Wire Wire Line
	7300 10350 7500 10350
Wire Wire Line
	7300 10250 7500 10250
Wire Wire Line
	7300 10150 7500 10150
Wire Wire Line
	7300 10050 7500 10050
Text GLabel 7500 10350 2    50   Input ~ 0
SD_CS
Text GLabel 7500 10150 2    50   Input ~ 0
MISO
Text GLabel 7500 10250 2    50   Input ~ 0
MOSI
Text GLabel 7500 10050 2    50   Input ~ 0
SCK
$Comp
L SparkFun-Connectors:CONN_04 J3
U 1 1 63479D5E
P 7200 10050
F 0 "J3" H 6972 10158 45  0000 R CNN
F 1 "SD CARD" H 6972 10242 45  0000 R CNN
F 2 "Connector_PinHeader_2.54mm:PinHeader_1x04_P2.54mm_Vertical" H 7200 10550 20  0001 C CNN
F 3 "" H 7200 10050 50  0001 C CNN
F 4 "CONN-09696" H 6973 10284 60  0001 R CNN "Field4"
	1    7200 10050
	1    0    0    1   
$EndComp
$Comp
L power:+3V3 #PWR0104
U 1 1 6178E28D
P 7900 6150
F 0 "#PWR0104" H 7900 6000 50  0001 C CNN
F 1 "+3V3" H 7915 6323 50  0000 C CNN
F 2 "" H 7900 6150 50  0001 C CNN
F 3 "" H 7900 6150 50  0001 C CNN
	1    7900 6150
	1    0    0    -1  
$EndComp
Wire Wire Line
	7600 6450 7900 6450
Wire Wire Line
	7900 6150 7900 6450
$Comp
L ST-TF-003A:ST-TF-003A P1
U 1 1 617428A6
P 7400 7050
F 0 "P1" H 7493 7917 50  0000 C CNN
F 1 "ST-TF-003A" H 7493 7826 50  0000 C CNN
F 2 "otter:SUNTECH_ST-TF-003A" H 7400 7050 50  0001 L BNN
F 3 "" H 7400 7050 50  0001 L BNN
F 4 "Suntech" H 7400 7050 50  0001 L BNN "MANUFACTURER"
	1    7400 7050
	-1   0    0    -1  
$EndComp
Text GLabel 7800 7350 2    50   Input ~ 0
SD_CS
Text GLabel 7800 7050 2    50   Input ~ 0
MISO
Text GLabel 7800 6950 2    50   Input ~ 0
MOSI
Text GLabel 7800 6750 2    50   Input ~ 0
SCK
Wire Wire Line
	7600 6950 7800 6950
Wire Wire Line
	7600 7050 7800 7050
Wire Wire Line
	7600 7350 7800 7350
Wire Wire Line
	7600 6750 7800 6750
$Comp
L SparkFun-PowerSymbols:GND #GND0126
U 1 1 619D8132
P 7950 7750
F 0 "#GND0126" H 8000 7700 45  0001 L BNN
F 1 "GND" H 7950 7580 45  0000 C CNN
F 2 "" H 7950 7650 60  0001 C CNN
F 3 "" H 7950 7650 60  0001 C CNN
	1    7950 7750
	1    0    0    -1  
$EndComp
Wire Wire Line
	7600 7550 7950 7550
Wire Wire Line
	7950 7550 7950 7650
Wire Wire Line
	7600 7650 7950 7650
Connection ~ 7950 7650
Wire Wire Line
	7950 7650 7950 7750
Text GLabel 7800 6650 2    50   Input ~ 0
SD_INSERT
Wire Wire Line
	7600 6650 7800 6650
Text GLabel 12600 1600 0    50   Input ~ 0
SD_INSERT
Wire Wire Line
	12600 1600 12750 1600
Text GLabel 14050 3500 2    50   Input ~ 0
LoRa_TXEN
Wire Wire Line
	13950 3500 14050 3500
Wire Wire Line
	12600 1700 12750 1700
Connection ~ 14400 1050
Wire Wire Line
	13950 1050 14400 1050
$EndSCHEMATC
