
(module CUI_CMI-9653S-SMT (layer F.Cu) (tedit 60990E6E)
  (descr "")
  (fp_text reference REF** (at -1.91416 -7.04918 0) (layer F.SilkS)
    (effects (font (size 1.00354330709 1.00354330709) (thickness 0.015)))
  )
  (fp_text value CUI_CMI-9653S-SMT (at 5.742545 6.908575 0) (layer F.Fab)
    (effects (font (size 1.0041023622 1.0041023622) (thickness 0.015)))
  )
  (fp_text user + (at 3.06808 -6.69547) (layer F.SilkS)
    (effects (font (size 1.00425984252 1.00425984252) (thickness 0.015)))
  )
  (fp_line (start 4.8 4.8) (end -2.4 4.8) (layer F.Fab) (width 0.127))
  (fp_line (start -4.8 2.4) (end -4.8 -4.8) (layer F.Fab) (width 0.127))
  (fp_line (start -4.8 -4.8) (end 4.8 -4.8) (layer F.Fab) (width 0.127))
  (fp_line (start 4.8 -4.8) (end 4.8 4.8) (layer F.SilkS) (width 0.127))
  (fp_line (start -4.8 2.4) (end -4.8 -4.8) (layer F.SilkS) (width 0.127))
  (fp_line (start -2.4 4.8) (end -1.6 4.8) (layer F.SilkS) (width 0.127))
  (fp_line (start 4.8 -4.8) (end 1.6 -4.8) (layer F.SilkS) (width 0.127))
  (fp_line (start -4.8 -4.8) (end -1.6 -4.8) (layer F.SilkS) (width 0.127))
  (fp_line (start -5.05 -5.05) (end -5.05 2.65) (layer F.CrtYd) (width 0.05))
  (fp_line (start 4.8 -4.8) (end 4.8 4.8) (layer F.Fab) (width 0.127))
  (fp_line (start 1.6 4.8) (end 4.8 4.8) (layer F.SilkS) (width 0.127))
  (fp_line (start -1.5 5.75) (end 1.5 5.75) (layer F.CrtYd) (width 0.05))
  (fp_line (start -1.5 5.75) (end -1.5 5.05) (layer F.CrtYd) (width 0.05))
  (fp_line (start 1.5 5.75) (end 1.5 5.05) (layer F.CrtYd) (width 0.05))
  (fp_line (start 1.5 5.05) (end 5.05 5.05) (layer F.CrtYd) (width 0.05))
  (fp_line (start 5.05 5.05) (end 5.05 -5.05) (layer F.CrtYd) (width 0.05))
  (fp_line (start 5.05 -5.05) (end 1.5 -5.05) (layer F.CrtYd) (width 0.05))
  (fp_line (start 1.5 -5.05) (end 1.5 -5.75) (layer F.CrtYd) (width 0.05))
  (fp_line (start -1.5 -5.05) (end -5.05 -5.05) (layer F.CrtYd) (width 0.05))
  (fp_line (start -1.5 -5.05) (end -1.5 -5.75) (layer F.CrtYd) (width 0.05))
  (fp_line (start 1.5 -5.75) (end -1.5 -5.75) (layer F.CrtYd) (width 0.05))
  (fp_text user - (at 2.56008 5.25816) (layer F.SilkS)
    (effects (font (size 1.00418897638 1.00418897638) (thickness 0.015)))
  )
  (fp_line (start -4.8 2.4) (end -2.4 4.8) (layer F.Fab) (width 0.127))
  (fp_line (start -4.8 2.4) (end -2.4 4.8) (layer F.SilkS) (width 0.127))
  (fp_line (start -5.05 2.65) (end -2.65 5.05) (layer F.CrtYd) (width 0.05))
  (fp_line (start -2.65 5.05) (end -1.5 5.05) (layer F.CrtYd) (width 0.05))
  (pad N smd rect (at 0.0 4.0) (size 2.5 3.0) (layers F.Cu F.Mask F.Paste))
  (pad P smd rect (at 0.0 -4.0) (size 2.5 3.0) (layers F.Cu F.Mask F.Paste))
)