(module XFL4020-102MEC (layer F.Cu) (tedit 6093F7D9)
  (fp_text reference REF** (at 0.635 -3.175) (layer F.SilkS)
    (effects (font (size 1 1) (thickness 0.015)))
  )
  (fp_text value IND_XFL4020-102MEC (at 8.89 3.175) (layer F.Fab)
    (effects (font (size 1 1) (thickness 0.015)))
  )
  (fp_line (start -2.25 2.25) (end -2.25 -2.25) (layer F.CrtYd) (width 0.05))
  (fp_line (start 2.25 2.25) (end -2.25 2.25) (layer F.CrtYd) (width 0.05))
  (fp_line (start 2.25 -2.25) (end 2.25 2.25) (layer F.CrtYd) (width 0.05))
  (fp_line (start -2.25 -2.25) (end 2.25 -2.25) (layer F.CrtYd) (width 0.05))
  (fp_circle (center -2.7 0) (end -2.6 0) (layer F.Fab) (width 0.2))
  (fp_circle (center -2.7 0) (end -2.6 0) (layer F.SilkS) (width 0.2))
  (fp_line (start 2 -2) (end 2 2) (layer F.SilkS) (width 0.127))
  (fp_line (start 2 2) (end -2 2) (layer F.SilkS) (width 0.127))
  (fp_line (start -2 2) (end -2 -2) (layer F.SilkS) (width 0.127))
  (fp_line (start -2 -2) (end 2 -2) (layer F.SilkS) (width 0.127))
  (fp_line (start -2 2) (end -2 -2) (layer F.Fab) (width 0.127))
  (fp_line (start 2 2) (end -2 2) (layer F.Fab) (width 0.127))
  (fp_line (start 2 -2) (end 2 2) (layer F.Fab) (width 0.127))
  (fp_line (start -2 -2) (end 2 -2) (layer F.Fab) (width 0.127))
  (pad 1 smd rect (at -1.185 0) (size 0.98 3.4) (layers F.Cu F.Paste F.Mask))
  (pad 2 smd rect (at 1.185 0) (size 0.98 3.4) (layers F.Cu F.Paste F.Mask))
  (model ${KIPRJMOD}/XFL4020-102MEC.step
    (at (xyz 0 0 0))
    (scale (xyz 1 1 1))
    (rotate (xyz -90 0 0))
  )
)
