
(module JST_S2B-PH-K-S_LF__SN_ (layer F.Cu) (tedit 6098EBAD)
  (descr "")
  (fp_text reference REF** (at -1.776 -2.6398 0) (layer F.SilkS)
    (effects (font (size 0.48 0.48) (thickness 0.015)))
  )
  (fp_text value JST_S2B-PH-K-S_LF__SN_ (at 3.4056 6.8952 0) (layer F.Fab)
    (effects (font (size 0.48 0.48) (thickness 0.015)))
  )
  (fp_line (start -2.95 6.25) (end -2.95 -1.35) (layer F.Fab) (width 0.127))
  (fp_line (start -2.95 -1.35) (end 2.95 -1.35) (layer F.Fab) (width 0.127))
  (fp_line (start 2.95 -1.35) (end 2.95 6.25) (layer F.Fab) (width 0.127))
  (fp_line (start 2.95 6.25) (end -2.95 6.25) (layer F.Fab) (width 0.127))
  (fp_line (start -2.95 -1.35) (end 2.95 -1.35) (layer F.SilkS) (width 0.127))
  (fp_line (start 2.95 -1.35) (end 2.95 6.25) (layer F.SilkS) (width 0.127))
  (fp_line (start -2.95 6.25) (end -2.95 -1.35) (layer F.SilkS) (width 0.127))
  (fp_circle (center -1.0 -1.9) (end -0.9 -1.9) (layer F.SilkS) (width 0.2))
  (fp_circle (center -1.0 -1.9) (end -0.9 -1.9) (layer F.Fab) (width 0.2))
  (fp_line (start -3.2 6.5) (end -3.2 -1.6) (layer F.CrtYd) (width 0.05))
  (fp_line (start -3.2 -1.6) (end 3.2 -1.6) (layer F.CrtYd) (width 0.05))
  (fp_line (start 3.2 -1.6) (end 3.2 6.5) (layer F.CrtYd) (width 0.05))
  (fp_line (start 3.2 6.5) (end -3.2 6.5) (layer F.CrtYd) (width 0.05))
  (fp_line (start 2.95 6.25) (end -2.95 6.25) (layer F.SilkS) (width 0.127))
  (pad 2 thru_hole circle (at 1.0 0.0) (size 1.308 1.308) (drill 0.8) (layers *.Cu *.Mask))
  (pad 1 thru_hole rect (at -1.0 0.0) (size 1.308 1.308) (drill 0.8) (layers *.Cu *.Mask))
)