EESchema Schematic File Version 4
EELAYER 30 0
EELAYER END
$Descr A3 16535 11693
encoding utf-8
Sheet 1 1
Title ""
Date ""
Rev ""
Comp ""
Comment1 ""
Comment2 ""
Comment3 ""
Comment4 ""
$EndDescr
$Comp
L RF_Module:ESP32-WROOM-32D U1
U 1 1 6098F2DA
P 13350 2600
F 0 "U1" H 13350 4181 50  0000 C CNN
F 1 "ESP32-WROOM-32D" H 13350 4090 50  0000 C CNN
F 2 "RF_Module:ESP32-WROOM-32" H 13350 1100 50  0001 C CNN
F 3 "https://www.espressif.com/sites/default/files/documentation/esp32-wroom-32d_esp32-wroom-32u_datasheet_en.pdf" H 13050 2650 50  0001 C CNN
	1    13350 2600
	1    0    0    -1  
$EndComp
$Comp
L Device:C_Small C32
U 1 1 609959D7
P 13950 900
F 0 "C32" H 14042 946 50  0000 L CNN
F 1 "22uF" H 14042 855 50  0000 L CNN
F 2 "Capacitor_SMD:C_0805_2012Metric" H 13950 900 50  0001 C CNN
F 3 "~" H 13950 900 50  0001 C CNN
	1    13950 900 
	1    0    0    -1  
$EndComp
$Comp
L S2B-PH-K-S_LF__SN_:S2B-PH-K-S(LF)(SN) J2
U 1 1 609987DE
P 9550 5450
F 0 "J2" H 9780 5446 50  0000 L CNN
F 1 "S2B-PH-K-S(LF)(SN)" H 9780 5355 50  0000 L CNN
F 2 "others:JST_S2B-PH-K-S(LF)(SN)" H 9550 5450 50  0001 L BNN
F 3 "" H 9550 5450 50  0001 L BNN
F 4 "S2B-PH-K-S_LF__SN_" H 9550 5450 50  0001 L BNN "MP"
F 5 "None" H 9550 5450 50  0001 L BNN "PRICE"
F 6 "4.8mm" H 9550 5450 50  0001 L BNN "MAXIMUM_PACKAGE_HEIGHT"
F 7 "JST Sales" H 9550 5450 50  0001 L BNN "MF"
F 8 "Unavailable" H 9550 5450 50  0001 L BNN "AVAILABILITY"
F 9 "Connector Header Through Hole, Right Angle 2 position" H 9550 5450 50  0001 L BNN "DESCRIPTION"
F 10 "None" H 9550 5450 50  0001 L BNN "PACKAGE"
	1    9550 5450
	1    0    0    -1  
$EndComp
$Comp
L power:+3V3 #PWR055
U 1 1 609992DA
P 13350 700
F 0 "#PWR055" H 13350 550 50  0001 C CNN
F 1 "+3V3" H 13365 873 50  0000 C CNN
F 2 "" H 13350 700 50  0001 C CNN
F 3 "" H 13350 700 50  0001 C CNN
	1    13350 700 
	1    0    0    -1  
$EndComp
$Comp
L Device:C_Small C36
U 1 1 6099D490
P 14400 900
F 0 "C36" H 14492 946 50  0000 L CNN
F 1 "100nF" H 14492 855 50  0000 L CNN
F 2 "Capacitor_SMD:C_0805_2012Metric" H 14400 900 50  0001 C CNN
F 3 "~" H 14400 900 50  0001 C CNN
	1    14400 900 
	1    0    0    -1  
$EndComp
Wire Wire Line
	13350 700  13350 750 
Wire Wire Line
	13950 800  13950 750 
Wire Wire Line
	13950 750  13350 750 
Connection ~ 13350 750 
Wire Wire Line
	13350 750  13350 1200
Wire Wire Line
	13950 750  14400 750 
Wire Wire Line
	14400 750  14400 800 
Connection ~ 13950 750 
Wire Wire Line
	13950 1000 13950 1050
Wire Wire Line
	14400 1050 14400 1000
$Comp
L Device:C_Small C14
U 1 1 609A9316
P 6800 3600
F 0 "C14" H 6892 3646 50  0000 L CNN
F 1 "100nF" H 6892 3555 50  0000 L CNN
F 2 "Capacitor_SMD:C_0805_2012Metric" H 6800 3600 50  0001 C CNN
F 3 "~" H 6800 3600 50  0001 C CNN
	1    6800 3600
	1    0    0    -1  
$EndComp
Wire Wire Line
	6800 3750 6800 3700
$Comp
L Device:C_Small C16
U 1 1 609A972E
P 7200 3600
F 0 "C16" H 7292 3646 50  0000 L CNN
F 1 "100nF" H 7292 3555 50  0000 L CNN
F 2 "Capacitor_SMD:C_0805_2012Metric" H 7200 3600 50  0001 C CNN
F 3 "~" H 7200 3600 50  0001 C CNN
	1    7200 3600
	1    0    0    -1  
$EndComp
Wire Wire Line
	7200 3750 7200 3700
$Comp
L Device:C_Small C19
U 1 1 609A9AA0
P 7600 3600
F 0 "C19" H 7692 3646 50  0000 L CNN
F 1 "10uF" H 7692 3555 50  0000 L CNN
F 2 "Capacitor_SMD:C_0805_2012Metric" H 7600 3600 50  0001 C CNN
F 3 "~" H 7600 3600 50  0001 C CNN
	1    7600 3600
	1    0    0    -1  
$EndComp
Wire Wire Line
	7600 3750 7600 3700
Wire Wire Line
	6550 3450 6650 3450
Wire Wire Line
	6550 3550 6650 3550
Wire Wire Line
	6650 3550 6650 3450
Wire Wire Line
	6800 3750 7200 3750
Wire Wire Line
	7200 3750 7600 3750
Connection ~ 7200 3750
Wire Wire Line
	6800 3500 6800 3450
Wire Wire Line
	6800 3450 7200 3450
Wire Wire Line
	7200 3500 7200 3450
Connection ~ 7200 3450
Wire Wire Line
	7200 3450 7600 3450
Wire Wire Line
	7600 3500 7600 3450
$Comp
L power:+3V3 #PWR041
U 1 1 609B3C74
P 7600 3350
F 0 "#PWR041" H 7600 3200 50  0001 C CNN
F 1 "+3V3" H 7615 3523 50  0000 C CNN
F 2 "" H 7600 3350 50  0001 C CNN
F 3 "" H 7600 3350 50  0001 C CNN
	1    7600 3350
	1    0    0    -1  
$EndComp
Wire Wire Line
	7600 3350 7600 3450
Connection ~ 7600 3450
Wire Wire Line
	5100 3750 5150 3750
Text GLabel 5100 4150 0    50   Input ~ 0
GPS_RX
Text GLabel 5100 4250 0    50   Input ~ 0
GPS_TX
Wire Wire Line
	5100 4150 5150 4150
Wire Wire Line
	5100 4250 5150 4250
Wire Wire Line
	6650 3450 6800 3450
Connection ~ 6650 3450
Connection ~ 6800 3450
$Comp
L Device:C_Small C7
U 1 1 609CC815
P 5150 5650
F 0 "C7" H 5242 5696 50  0000 L CNN
F 1 "4.7uF" H 5242 5605 50  0000 L CNN
F 2 "Capacitor_SMD:C_0805_2012Metric" H 5150 5650 50  0001 C CNN
F 3 "~" H 5150 5650 50  0001 C CNN
	1    5150 5650
	1    0    0    -1  
$EndComp
Wire Wire Line
	5150 5550 5150 5500
$Comp
L MCP7382:MCP73831-2-OT U5
U 1 1 609CE613
P 6000 5600
F 0 "U5" H 6000 5975 50  0000 C CNN
F 1 "MCP73831-2-OT" H 6000 5884 50  0000 C CNN
F 2 "Package_TO_SOT_SMD:SOT-23-5" H 6050 5350 50  0001 L CIN
F 3 "" H 5850 5550 50  0001 C CNN
	1    6000 5600
	1    0    0    -1  
$EndComp
Wire Wire Line
	5150 5500 5600 5500
$Comp
L Device:C_Small C11
U 1 1 609D1EA6
P 6950 5650
F 0 "C11" H 7042 5696 50  0000 L CNN
F 1 "4.7uF" H 7042 5605 50  0000 L CNN
F 2 "Capacitor_SMD:C_0805_2012Metric" H 6950 5650 50  0001 C CNN
F 3 "~" H 6950 5650 50  0001 C CNN
	1    6950 5650
	1    0    0    -1  
$EndComp
Wire Wire Line
	6950 5450 6950 5550
Wire Wire Line
	6400 5450 6950 5450
$Comp
L Device:R_Small_US R13
U 1 1 609DAD6F
P 6450 5900
F 0 "R13" H 6518 5946 50  0000 L CNN
F 1 "2K" H 6518 5855 50  0000 L CNN
F 2 "Resistor_SMD:R_0805_2012Metric" H 6450 5900 50  0001 C CNN
F 3 "~" H 6450 5900 50  0001 C CNN
	1    6450 5900
	1    0    0    -1  
$EndComp
Wire Wire Line
	6400 5750 6450 5750
Wire Wire Line
	6450 5750 6450 5800
$Comp
L Device:LED D5
U 1 1 609DE102
P 4700 5950
F 0 "D5" V 4700 5850 50  0000 R CNN
F 1 "LED YELLOW" V 4800 5900 50  0000 R CNN
F 2 "LED_SMD:LED_0805_2012Metric_Castellated" H 4700 5950 50  0001 C CNN
F 3 "~" H 4700 5950 50  0001 C CNN
	1    4700 5950
	0    -1   -1   0   
$EndComp
$Comp
L Device:R_Small_US R7
U 1 1 609E2D67
P 4700 5650
F 0 "R7" H 4768 5696 50  0000 L CNN
F 1 "1K" H 4768 5605 50  0000 L CNN
F 2 "Resistor_SMD:R_0805_2012Metric" H 4700 5650 50  0001 C CNN
F 3 "~" H 4700 5650 50  0001 C CNN
	1    4700 5650
	1    0    0    -1  
$EndComp
Wire Wire Line
	4700 5750 4700 5800
Wire Wire Line
	4700 5550 4700 5500
Wire Wire Line
	4700 5500 5150 5500
Connection ~ 5150 5500
Wire Wire Line
	4700 6100 4700 6400
Wire Wire Line
	4700 6400 5200 6400
Wire Wire Line
	6700 6400 6700 5600
Wire Wire Line
	6700 5600 6400 5600
$Comp
L Device:LED D6
U 1 1 609EAAB9
P 5400 6250
F 0 "D6" H 5350 6350 50  0000 R CNN
F 1 "LED GREEN" H 5750 6150 50  0000 R CNN
F 2 "LED_SMD:LED_0805_2012Metric_Castellated" H 5400 6250 50  0001 C CNN
F 3 "~" H 5400 6250 50  0001 C CNN
	1    5400 6250
	-1   0    0    1   
$EndComp
$Comp
L Device:R_Small_US R10
U 1 1 609EBDDD
P 5750 6250
F 0 "R10" H 5818 6296 50  0000 L CNN
F 1 "1K" H 5818 6205 50  0000 L CNN
F 2 "Resistor_SMD:R_0805_2012Metric" H 5750 6250 50  0001 C CNN
F 3 "~" H 5750 6250 50  0001 C CNN
	1    5750 6250
	0    -1   -1   0   
$EndComp
Wire Wire Line
	5550 6250 5650 6250
Wire Wire Line
	5250 6250 5200 6250
Wire Wire Line
	5200 6250 5200 6400
Connection ~ 5200 6400
Wire Wire Line
	5200 6400 6700 6400
Wire Wire Line
	6950 5450 7250 5450
Connection ~ 6950 5450
$Comp
L Device:R_Small_US R17
U 1 1 609F90FE
P 8450 5650
F 0 "R17" H 8382 5604 50  0000 R CNN
F 1 "560K" H 8382 5695 50  0000 R CNN
F 2 "Resistor_SMD:R_0805_2012Metric" H 8450 5650 50  0001 C CNN
F 3 "~" H 8450 5650 50  0001 C CNN
	1    8450 5650
	-1   0    0    1   
$EndComp
$Comp
L Device:R_Small_US R18
U 1 1 609FBC60
P 8450 6050
F 0 "R18" H 8382 6004 50  0000 R CNN
F 1 "100K" H 8382 6095 50  0000 R CNN
F 2 "Resistor_SMD:R_0805_2012Metric" H 8450 6050 50  0001 C CNN
F 3 "~" H 8450 6050 50  0001 C CNN
	1    8450 6050
	-1   0    0    1   
$EndComp
Wire Wire Line
	8450 5550 8450 5450
Connection ~ 8450 5450
Text GLabel 8550 5850 2    50   Input ~ 0
BATT_READ
$Comp
L Transistor_FET:FDN340P Q4
U 1 1 60A09ACA
P 7350 6200
F 0 "Q4" H 7555 6246 50  0000 L CNN
F 1 "FDN340P" H 7555 6155 50  0000 L CNN
F 2 "Package_TO_SOT_SMD:SOT-23" H 7550 6125 50  0001 L CIN
F 3 "https://www.onsemi.com/pub/Collateral/FDN340P-D.PDF" H 7350 6200 50  0001 L CNN
	1    7350 6200
	-1   0    0    -1  
$EndComp
$Comp
L Transistor_FET:FDN340P Q6
U 1 1 60A0CBC7
P 7850 6200
F 0 "Q6" H 8055 6246 50  0000 L CNN
F 1 "FDN340P" H 8055 6155 50  0000 L CNN
F 2 "Package_TO_SOT_SMD:SOT-23" H 8050 6125 50  0001 L CIN
F 3 "https://www.onsemi.com/pub/Collateral/FDN340P-D.PDF" H 7850 6200 50  0001 L CNN
	1    7850 6200
	1    0    0    -1  
$EndComp
Wire Wire Line
	7550 6200 7600 6200
Wire Wire Line
	7250 5450 7250 6000
Connection ~ 7250 5450
Wire Wire Line
	7250 5450 7750 5450
Wire Wire Line
	7250 6400 7250 6500
Wire Wire Line
	7250 6500 7600 6500
Wire Wire Line
	7950 6500 7950 6400
Wire Wire Line
	7600 6250 7600 6200
Connection ~ 7600 6200
Wire Wire Line
	7600 6200 7650 6200
Wire Wire Line
	7600 6450 7600 6500
Connection ~ 7600 6500
Wire Wire Line
	7600 6500 7950 6500
$Comp
L Device:R_Small_US R16
U 1 1 60A1EB91
P 7600 6350
F 0 "R16" H 7668 6396 50  0000 L CNN
F 1 "470K" H 7668 6305 50  0000 L CNN
F 2 "Resistor_SMD:R_0805_2012Metric" H 7600 6350 50  0001 C CNN
F 3 "~" H 7600 6350 50  0001 C CNN
	1    7600 6350
	1    0    0    -1  
$EndComp
$Comp
L dk_Transistors-Bipolar-BJT-Single:MMSS8050-H-TP Q3
U 1 1 60A2CDA9
P 6700 6900
F 0 "Q3" H 6888 6953 60  0000 L CNN
F 1 "S8050" H 6888 6847 60  0000 L CNN
F 2 "digikey-footprints:SOT-23-3" H 6900 7100 60  0001 L CNN
F 3 "https://www.mccsemi.com/pdf/Products/MMSS8050(SOT-23).pdf" H 6900 7200 60  0001 L CNN
F 4 "MMSS8050-H-TPMSCT-ND" H 6900 7300 60  0001 L CNN "Digi-Key_PN"
F 5 "MMSS8050-H-TP" H 6900 7400 60  0001 L CNN "MPN"
F 6 "Discrete Semiconductor Products" H 6900 7500 60  0001 L CNN "Category"
F 7 "Transistors - Bipolar (BJT) - Single" H 6900 7600 60  0001 L CNN "Family"
F 8 "https://www.mccsemi.com/pdf/Products/MMSS8050(SOT-23).pdf" H 6900 7700 60  0001 L CNN "DK_Datasheet_Link"
F 9 "/product-detail/en/micro-commercial-co/MMSS8050-H-TP/MMSS8050-H-TPMSCT-ND/2825945" H 6900 7800 60  0001 L CNN "DK_Detail_Page"
F 10 "TRANS NPN 25V 1.5A SOT23" H 6900 7900 60  0001 L CNN "Description"
F 11 "Micro Commercial Co" H 6900 8000 60  0001 L CNN "Manufacturer"
F 12 "Active" H 6900 8100 60  0001 L CNN "Status"
	1    6700 6900
	1    0    0    -1  
$EndComp
Text GLabel 7600 5900 1    50   Input ~ 0
GATE
Wire Wire Line
	7600 5900 7600 6200
Text GLabel 7900 6650 2    50   Input ~ 0
GATE
$Comp
L Device:R_Small_US R11
U 1 1 60A3D143
P 6300 6900
F 0 "R11" H 6368 6946 50  0000 L CNN
F 1 "1K" H 6368 6855 50  0000 L CNN
F 2 "Resistor_SMD:R_0805_2012Metric" H 6300 6900 50  0001 C CNN
F 3 "~" H 6300 6900 50  0001 C CNN
	1    6300 6900
	0    -1   -1   0   
$EndComp
$Comp
L Device:R_Small_US R12
U 1 1 60A45C69
P 6450 7100
F 0 "R12" H 6382 7054 50  0000 R CNN
F 1 "10K" H 6382 7145 50  0000 R CNN
F 2 "Resistor_SMD:R_0805_2012Metric" H 6450 7100 50  0001 C CNN
F 3 "~" H 6450 7100 50  0001 C CNN
	1    6450 7100
	-1   0    0    1   
$EndComp
Wire Wire Line
	6400 6900 6450 6900
Wire Wire Line
	6450 7000 6450 6900
Connection ~ 6450 6900
Wire Wire Line
	6450 6900 6500 6900
$Comp
L dk_Transistors-Bipolar-BJT-Single:MMSS8050-H-TP Q5
U 1 1 60A61F0F
P 7700 6900
F 0 "Q5" H 7888 6953 60  0000 L CNN
F 1 "S8050" H 7888 6847 60  0000 L CNN
F 2 "digikey-footprints:SOT-23-3" H 7900 7100 60  0001 L CNN
F 3 "https://www.mccsemi.com/pdf/Products/MMSS8050(SOT-23).pdf" H 7900 7200 60  0001 L CNN
F 4 "MMSS8050-H-TPMSCT-ND" H 7900 7300 60  0001 L CNN "Digi-Key_PN"
F 5 "MMSS8050-H-TP" H 7900 7400 60  0001 L CNN "MPN"
F 6 "Discrete Semiconductor Products" H 7900 7500 60  0001 L CNN "Category"
F 7 "Transistors - Bipolar (BJT) - Single" H 7900 7600 60  0001 L CNN "Family"
F 8 "https://www.mccsemi.com/pdf/Products/MMSS8050(SOT-23).pdf" H 7900 7700 60  0001 L CNN "DK_Datasheet_Link"
F 9 "/product-detail/en/micro-commercial-co/MMSS8050-H-TP/MMSS8050-H-TPMSCT-ND/2825945" H 7900 7800 60  0001 L CNN "DK_Detail_Page"
F 10 "TRANS NPN 25V 1.5A SOT23" H 7900 7900 60  0001 L CNN "Description"
F 11 "Micro Commercial Co" H 7900 8000 60  0001 L CNN "Manufacturer"
F 12 "Active" H 7900 8100 60  0001 L CNN "Status"
	1    7700 6900
	1    0    0    -1  
$EndComp
Wire Wire Line
	6800 6650 7300 6650
Wire Wire Line
	7300 6650 7300 6900
Wire Wire Line
	6800 6650 6800 6700
Wire Wire Line
	7800 6700 7800 6650
Wire Wire Line
	7800 6650 7900 6650
$Comp
L Device:R_Small_US R14
U 1 1 60A7607A
P 7300 7100
F 0 "R14" H 7368 7146 50  0000 L CNN
F 1 "1K" H 7368 7055 50  0000 L CNN
F 2 "Resistor_SMD:R_0805_2012Metric" H 7300 7100 50  0001 C CNN
F 3 "~" H 7300 7100 50  0001 C CNN
	1    7300 7100
	-1   0    0    1   
$EndComp
Wire Wire Line
	7300 7000 7300 6900
Connection ~ 7300 6900
Wire Wire Line
	7300 6900 7500 6900
Text GLabel 7900 5250 2    50   Input ~ 0
BATT
Wire Wire Line
	7750 5450 7750 5250
Wire Wire Line
	7750 5250 7900 5250
Connection ~ 7750 5450
Wire Wire Line
	7750 5450 8450 5450
Text GLabel 7400 7250 2    50   Input ~ 0
BATT
Wire Wire Line
	7300 7200 7300 7250
Wire Wire Line
	7300 7250 7400 7250
$Comp
L Sensor_Pressure:BMP280 U3
U 1 1 60AA31EA
P 2400 10000
F 0 "U3" H 2630 10096 50  0000 L CNN
F 1 "BMP280" H 2630 10005 50  0000 L CNN
F 2 "Package_LGA:Bosch_LGA-8_2x2.5mm_P0.65mm_ClockwisePinNumbering" H 2400 9300 50  0001 C CNN
F 3 "https://ae-bst.resource.bosch.com/media/_tech/media/datasheets/BST-BMP280-DS001.pdf" H 2400 10000 50  0001 C CNN
	1    2400 10000
	1    0    0    -1  
$EndComp
$Comp
L Device:C_Small C2
U 1 1 60AA6456
P 2950 9750
F 0 "C2" H 3042 9796 50  0000 L CNN
F 1 "100nF" H 3042 9705 50  0000 L CNN
F 2 "Capacitor_SMD:C_0805_2012Metric" H 2950 9750 50  0001 C CNN
F 3 "~" H 2950 9750 50  0001 C CNN
	1    2950 9750
	1    0    0    -1  
$EndComp
Wire Wire Line
	2400 9600 2400 9550
Wire Wire Line
	2400 9550 2500 9550
Wire Wire Line
	2950 9550 2950 9650
Wire Wire Line
	2500 9600 2500 9550
Connection ~ 2500 9550
Wire Wire Line
	2500 9550 2950 9550
Wire Wire Line
	2400 10300 2400 10350
Wire Wire Line
	2500 10350 2500 10300
$Comp
L power:+3V3 #PWR027
U 1 1 609B574B
P 5100 3300
F 0 "#PWR027" H 5100 3150 50  0001 C CNN
F 1 "+3V3" H 5115 3473 50  0000 C CNN
F 2 "" H 5100 3300 50  0001 C CNN
F 3 "" H 5100 3300 50  0001 C CNN
	1    5100 3300
	1    0    0    -1  
$EndComp
$Comp
L L80-M39:L80-M39 U7
U 1 1 609A1335
P 5850 3950
F 0 "U7" H 5850 4717 50  0000 C CNN
F 1 "L80-M39" H 5850 4626 50  0000 C CNN
F 2 "others:XCVR_L80-M39" H 5850 3950 50  0001 L BNN
F 3 "" H 5850 3950 50  0001 L BNN
F 4 "Unavailable" H 5850 3950 50  0001 L BNN "AVAILABILITY"
F 5 "Radial Can  Quectel" H 5850 3950 50  0001 L BNN "PACKAGE"
F 6 "L80" H 5850 3950 50  0001 L BNN "MP"
F 7 "Quectel" H 5850 3950 50  0001 L BNN "MF"
F 8 "L80 is an ultra compact GPS POT _Patch on Top_ module with an embedded 15.0mm × 15.0mm × 4.0mm patch antenna." H 5850 3950 50  0001 L BNN "DESCRIPTION"
F 9 "None" H 5850 3950 50  0001 L BNN "PRICE"
	1    5850 3950
	1    0    0    -1  
$EndComp
Wire Wire Line
	5100 3300 5100 3750
$Comp
L power:+3V3 #PWR08
U 1 1 60ACF94A
P 1400 9950
F 0 "#PWR08" H 1400 9800 50  0001 C CNN
F 1 "+3V3" H 1415 10123 50  0000 C CNN
F 2 "" H 1400 9950 50  0001 C CNN
F 3 "" H 1400 9950 50  0001 C CNN
	1    1400 9950
	1    0    0    -1  
$EndComp
Wire Wire Line
	1400 9950 1400 10000
Wire Wire Line
	1400 10000 2000 10000
Wire Wire Line
	2000 10100 1400 10100
Wire Wire Line
	1400 10100 1400 10000
Connection ~ 1400 10000
Text GLabel 1900 9800 0    50   Input ~ 0
SCL
Text GLabel 1900 9900 0    50   Input ~ 0
SDA
Wire Wire Line
	1900 9800 2000 9800
Wire Wire Line
	1900 9900 2000 9900
$Comp
L Sensor_Motion:LSM303DLHC U4
U 1 1 60AE6D27
P 5000 10050
F 0 "U4" H 4650 10900 50  0000 C CNN
F 1 "LSM303DLHC" H 4550 10750 50  0000 C CNN
F 2 "Package_LGA:LGA-14_3x5mm_P0.8mm_LayoutBorder1x6y" H 5150 9450 50  0001 L CNN
F 3 "http://www.st.com/web/en/resource/technical/document/datasheet/DM00027543.pdf" H 5150 10800 50  0001 C CNN
	1    5000 10050
	1    0    0    -1  
$EndComp
$Comp
L power:+3V3 #PWR025
U 1 1 60AED11A
P 5100 9200
F 0 "#PWR025" H 5100 9050 50  0001 C CNN
F 1 "+3V3" H 5115 9373 50  0000 C CNN
F 2 "" H 5100 9200 50  0001 C CNN
F 3 "" H 5100 9200 50  0001 C CNN
	1    5100 9200
	1    0    0    -1  
$EndComp
Wire Wire Line
	4900 10750 4900 10800
Wire Wire Line
	4900 10800 5000 10800
Wire Wire Line
	5000 10750 5000 10800
Connection ~ 5000 10800
Wire Wire Line
	5000 10800 5100 10800
Wire Wire Line
	5100 10800 5100 10750
$Comp
L Device:C_Small C9
U 1 1 60B09AC8
P 5650 10550
F 0 "C9" H 5742 10596 50  0000 L CNN
F 1 "4.7uF" H 5742 10505 50  0000 L CNN
F 2 "Capacitor_SMD:C_0805_2012Metric" H 5650 10550 50  0001 C CNN
F 3 "~" H 5650 10550 50  0001 C CNN
	1    5650 10550
	1    0    0    -1  
$EndComp
Wire Wire Line
	5500 10350 5650 10350
Wire Wire Line
	5650 10350 5650 10450
Wire Wire Line
	5650 10650 5650 10800
Wire Wire Line
	5650 10800 5100 10800
Connection ~ 5100 10800
$Comp
L Device:C_Small C8
U 1 1 60B18C56
P 5650 10000
F 0 "C8" H 5742 10046 50  0000 L CNN
F 1 "220nF" H 5742 9955 50  0000 L CNN
F 2 "Capacitor_SMD:C_0805_2012Metric" H 5650 10000 50  0001 C CNN
F 3 "~" H 5650 10000 50  0001 C CNN
	1    5650 10000
	1    0    0    -1  
$EndComp
Wire Wire Line
	5500 9750 5650 9750
Wire Wire Line
	5650 9750 5650 9900
Wire Wire Line
	5500 10250 5650 10250
Wire Wire Line
	5650 10250 5650 10100
$Comp
L Device:C_Small C10
U 1 1 60B28CEF
P 5850 9500
F 0 "C10" H 5942 9546 50  0000 L CNN
F 1 "100nF" H 5942 9455 50  0000 L CNN
F 2 "Capacitor_SMD:C_0805_2012Metric" H 5850 9500 50  0001 C CNN
F 3 "~" H 5850 9500 50  0001 C CNN
	1    5850 9500
	1    0    0    -1  
$EndComp
$Comp
L Device:C_Small C12
U 1 1 60B2E20A
P 6300 9500
F 0 "C12" H 6392 9546 50  0000 L CNN
F 1 "10uF" H 6392 9455 50  0000 L CNN
F 2 "Capacitor_SMD:C_0805_2012Metric" H 6300 9500 50  0001 C CNN
F 3 "~" H 6300 9500 50  0001 C CNN
	1    6300 9500
	1    0    0    -1  
$EndComp
Wire Wire Line
	5850 9250 5850 9400
Wire Wire Line
	5850 9250 6300 9250
Wire Wire Line
	6300 9250 6300 9400
Connection ~ 5850 9250
Wire Wire Line
	5850 9600 5850 9650
Wire Wire Line
	6300 9650 6300 9600
Wire Wire Line
	5100 9200 5100 9250
Wire Wire Line
	5100 9250 5850 9250
Connection ~ 5100 9250
Wire Wire Line
	5100 9250 5100 9350
Text GLabel 4400 9750 0    50   Input ~ 0
SCL
Text GLabel 4400 9850 0    50   Input ~ 0
SDA
Wire Wire Line
	4400 9750 4500 9750
Wire Wire Line
	4400 9850 4500 9850
NoConn ~ 4500 10050
NoConn ~ 4500 10250
NoConn ~ 4500 10350
$Comp
L dk_Transistors-Bipolar-BJT-Single:MMSS8050-H-TP Q2
U 1 1 60BA9FF4
P 2100 8400
F 0 "Q2" H 2288 8347 60  0000 L CNN
F 1 "S8050" H 2288 8453 60  0000 L CNN
F 2 "digikey-footprints:SOT-23-3" H 2300 8600 60  0001 L CNN
F 3 "https://www.mccsemi.com/pdf/Products/MMSS8050(SOT-23).pdf" H 2300 8700 60  0001 L CNN
F 4 "MMSS8050-H-TPMSCT-ND" H 2300 8800 60  0001 L CNN "Digi-Key_PN"
F 5 "MMSS8050-H-TP" H 2300 8900 60  0001 L CNN "MPN"
F 6 "Discrete Semiconductor Products" H 2300 9000 60  0001 L CNN "Category"
F 7 "Transistors - Bipolar (BJT) - Single" H 2300 9100 60  0001 L CNN "Family"
F 8 "https://www.mccsemi.com/pdf/Products/MMSS8050(SOT-23).pdf" H 2300 9200 60  0001 L CNN "DK_Datasheet_Link"
F 9 "/product-detail/en/micro-commercial-co/MMSS8050-H-TP/MMSS8050-H-TPMSCT-ND/2825945" H 2300 9300 60  0001 L CNN "DK_Detail_Page"
F 10 "TRANS NPN 25V 1.5A SOT23" H 2300 9400 60  0001 L CNN "Description"
F 11 "Micro Commercial Co" H 2300 9500 60  0001 L CNN "Manufacturer"
F 12 "Active" H 2300 9600 60  0001 L CNN "Status"
	1    2100 8400
	1    0    0    1   
$EndComp
$Comp
L dk_Transistors-Bipolar-BJT-Single:MMSS8050-H-TP Q1
U 1 1 60BC59D3
P 2100 7550
F 0 "Q1" H 2288 7603 60  0000 L CNN
F 1 "S8050" H 2288 7497 60  0000 L CNN
F 2 "digikey-footprints:SOT-23-3" H 2300 7750 60  0001 L CNN
F 3 "https://www.mccsemi.com/pdf/Products/MMSS8050(SOT-23).pdf" H 2300 7850 60  0001 L CNN
F 4 "MMSS8050-H-TPMSCT-ND" H 2300 7950 60  0001 L CNN "Digi-Key_PN"
F 5 "MMSS8050-H-TP" H 2300 8050 60  0001 L CNN "MPN"
F 6 "Discrete Semiconductor Products" H 2300 8150 60  0001 L CNN "Category"
F 7 "Transistors - Bipolar (BJT) - Single" H 2300 8250 60  0001 L CNN "Family"
F 8 "https://www.mccsemi.com/pdf/Products/MMSS8050(SOT-23).pdf" H 2300 8350 60  0001 L CNN "DK_Datasheet_Link"
F 9 "/product-detail/en/micro-commercial-co/MMSS8050-H-TP/MMSS8050-H-TPMSCT-ND/2825945" H 2300 8450 60  0001 L CNN "DK_Detail_Page"
F 10 "TRANS NPN 25V 1.5A SOT23" H 2300 8550 60  0001 L CNN "Description"
F 11 "Micro Commercial Co" H 2300 8650 60  0001 L CNN "Manufacturer"
F 12 "Active" H 2300 8750 60  0001 L CNN "Status"
	1    2100 7550
	1    0    0    -1  
$EndComp
$Comp
L Device:R_Small_US R4
U 1 1 60BE5A58
P 1600 7550
F 0 "R4" V 1800 7500 50  0000 L CNN
F 1 "10K" V 1700 7350 50  0000 L CNN
F 2 "Resistor_SMD:R_0805_2012Metric" H 1600 7550 50  0001 C CNN
F 3 "~" H 1600 7550 50  0001 C CNN
	1    1600 7550
	0    -1   -1   0   
$EndComp
$Comp
L Device:R_Small_US R5
U 1 1 60BEC111
P 1600 8400
F 0 "R5" V 1800 8400 50  0000 L CNN
F 1 "10K" V 1700 8200 50  0000 L CNN
F 2 "Resistor_SMD:R_0805_2012Metric" H 1600 8400 50  0001 C CNN
F 3 "~" H 1600 8400 50  0001 C CNN
	1    1600 8400
	0    -1   -1   0   
$EndComp
Wire Wire Line
	1700 7550 1900 7550
Wire Wire Line
	1700 8400 1900 8400
Wire Wire Line
	2200 8200 2200 8050
Wire Wire Line
	2200 8050 1300 8050
Wire Wire Line
	1300 8050 1300 7550
Wire Wire Line
	1300 7550 1500 7550
Wire Wire Line
	2200 7750 2200 7900
Wire Wire Line
	2200 7900 1200 7900
Wire Wire Line
	1200 7900 1200 8400
Wire Wire Line
	1200 8400 1500 8400
Text GLabel 2300 7250 2    50   Input ~ 0
EN
Wire Wire Line
	2200 7350 2200 7250
Wire Wire Line
	2200 7250 2300 7250
Text GLabel 2300 8700 2    50   Input ~ 0
IO0
Wire Wire Line
	2200 8600 2200 8700
Wire Wire Line
	2200 8700 2300 8700
$Comp
L Interface_USB:CP2102N-A01-GQFN28 U2
U 1 1 60C202DD
P 2350 4650
F 0 "U2" H 2050 3350 50  0000 C CNN
F 1 "CP2102N-A01-GQFN28" H 2850 3350 50  0000 C CNN
F 2 "Package_DFN_QFN:QFN-28-1EP_5x5mm_P0.5mm_EP3.35x3.35mm" H 2800 3450 50  0001 L CNN
F 3 "https://www.silabs.com/documents/public/data-sheets/cp2102n-datasheet.pdf" H 2400 3900 50  0001 C CNN
	1    2350 4650
	1    0    0    -1  
$EndComp
$Comp
L Device:C_Small C1
U 1 1 60C2366A
P 1050 3450
F 0 "C1" H 1142 3496 50  0000 L CNN
F 1 "100nF" H 1150 3600 50  0000 L CNN
F 2 "Capacitor_SMD:C_0805_2012Metric" H 1050 3450 50  0001 C CNN
F 3 "~" H 1050 3450 50  0001 C CNN
	1    1050 3450
	1    0    0    -1  
$EndComp
Wire Wire Line
	2250 3250 2250 3350
Wire Wire Line
	2250 3250 2350 3250
Wire Wire Line
	2350 3250 2350 3350
Wire Wire Line
	1050 3350 1050 3250
$Comp
L power:+3V3 #PWR011
U 1 1 60C461FB
P 2350 3150
F 0 "#PWR011" H 2350 3000 50  0001 C CNN
F 1 "+3V3" H 2365 3323 50  0000 C CNN
F 2 "" H 2350 3150 50  0001 C CNN
F 3 "" H 2350 3150 50  0001 C CNN
	1    2350 3150
	1    0    0    -1  
$EndComp
Wire Wire Line
	2350 3150 2350 3250
Connection ~ 2350 3250
$Comp
L Device:R_Small_US R3
U 1 1 60C73249
P 1650 3750
F 0 "R3" V 1750 3800 50  0000 L CNN
F 1 "2K" V 1750 3650 50  0000 L CNN
F 2 "Resistor_SMD:R_0805_2012Metric" H 1650 3750 50  0001 C CNN
F 3 "~" H 1650 3750 50  0001 C CNN
	1    1650 3750
	0    -1   -1   0   
$EndComp
Wire Wire Line
	1750 3750 1850 3750
$Comp
L power:+3V3 #PWR05
U 1 1 60CA8468
P 1300 3700
F 0 "#PWR05" H 1300 3550 50  0001 C CNN
F 1 "+3V3" H 1315 3873 50  0000 C CNN
F 2 "" H 1300 3700 50  0001 C CNN
F 3 "" H 1300 3700 50  0001 C CNN
	1    1300 3700
	1    0    0    -1  
$EndComp
Wire Wire Line
	1300 3700 1300 3750
Wire Wire Line
	1300 3750 1550 3750
$Comp
L Device:R_Small_US R1
U 1 1 60CCCFF5
P 800 3750
F 0 "R1" V 1000 3750 50  0000 L CNN
F 1 "22.1K" V 900 3550 50  0000 L CNN
F 2 "Resistor_SMD:R_0805_2012Metric" H 800 3750 50  0001 C CNN
F 3 "~" H 800 3750 50  0001 C CNN
	1    800  3750
	-1   0    0    1   
$EndComp
Wire Wire Line
	1050 3250 2250 3250
Connection ~ 2250 3250
Wire Wire Line
	800  3850 800  3950
Wire Wire Line
	800  3950 1850 3950
$Comp
L Device:R_Small_US R2
U 1 1 60CF4673
P 800 4200
F 0 "R2" H 868 4246 50  0000 L CNN
F 1 "47.5K" H 868 4155 50  0000 L CNN
F 2 "Resistor_SMD:R_0805_2012Metric" H 800 4200 50  0001 C CNN
F 3 "~" H 800 4200 50  0001 C CNN
	1    800  4200
	1    0    0    -1  
$EndComp
Wire Wire Line
	800  4100 800  3950
Connection ~ 800  3950
Wire Wire Line
	5850 6900 6200 6900
Wire Wire Line
	5850 6800 5850 6900
$Comp
L power:+5V #PWR024
U 1 1 60D1B6F3
P 5850 6800
F 0 "#PWR024" H 5850 6650 50  0001 C CNN
F 1 "+5V" H 5865 6973 50  0000 C CNN
F 2 "" H 5850 6800 50  0001 C CNN
F 3 "" H 5850 6800 50  0001 C CNN
	1    5850 6800
	1    0    0    -1  
$EndComp
$Comp
L power:+5V #PWR01
U 1 1 60D317A5
P 800 3150
F 0 "#PWR01" H 800 3000 50  0001 C CNN
F 1 "+5V" H 815 3323 50  0000 C CNN
F 2 "" H 800 3150 50  0001 C CNN
F 3 "" H 800 3150 50  0001 C CNN
	1    800  3150
	1    0    0    -1  
$EndComp
Wire Wire Line
	800  3150 800  3650
Text GLabel 1700 4050 0    50   Input ~ 0
D+
Text GLabel 1700 4150 0    50   Input ~ 0
D-
Wire Wire Line
	1700 4050 1850 4050
Wire Wire Line
	1700 4150 1850 4150
Text GLabel 3000 3650 2    50   Input ~ 0
RTS
Text GLabel 3000 4050 2    50   Input ~ 0
DTR
Wire Wire Line
	3000 3650 2850 3650
Wire Wire Line
	3000 4050 2850 4050
Text GLabel 3000 3750 2    50   Input ~ 0
RXD
Text GLabel 3000 3850 2    50   Input ~ 0
TXD
Wire Wire Line
	3000 3750 2850 3750
Wire Wire Line
	3000 3850 2850 3850
Text GLabel 1100 7550 0    50   Input ~ 0
DTR
Text GLabel 1100 8400 0    50   Input ~ 0
RTS
Wire Wire Line
	1100 8400 1200 8400
Connection ~ 1200 8400
Wire Wire Line
	1100 7550 1300 7550
Connection ~ 1300 7550
$Comp
L XFL4020-102MEC:XFL4020-102MEC L1
U 1 1 60E19ECE
P 4450 2400
F 0 "L1" H 4450 2500 50  0000 C CNN
F 1 "XFL4020 1.5 uH" H 4450 2350 50  0000 C CNN
F 2 "others:XFL4020-102MEC" H 4450 2400 50  0001 L BNN
F 3 "" H 4450 2400 50  0001 L BNN
F 4 "Power inductor, shielded, 20% tol, SMT, RoHS, halogen free" H 4450 2400 50  0001 L BNN "DESCRIPTION"
F 5 "2.1mm" H 4450 2400 50  0001 L BNN "MAXIMUM_PACKAGE_HEIGHT"
F 6 "Coilcraft" H 4450 2400 50  0001 L BNN "MANUFACTURER"
F 7 "11/02/18" H 4450 2400 50  0001 L BNN "PARTREV"
F 8 "Manufacturer Recommendations" H 4450 2400 50  0001 L BNN "STANDARD"
	1    4450 2400
	0    -1   -1   0   
$EndComp
$Comp
L Device:R_Small_US R8
U 1 1 60E37DC6
P 4300 1050
F 0 "R8" V 4500 1100 50  0000 L CNN
F 1 "150K" V 4400 1000 50  0000 L CNN
F 2 "Resistor_SMD:R_0805_2012Metric" H 4300 1050 50  0001 C CNN
F 3 "~" H 4300 1050 50  0001 C CNN
	1    4300 1050
	0    -1   -1   0   
$EndComp
$Comp
L Device:R_Small_US R9
U 1 1 60E43576
P 4850 1050
F 0 "R9" V 5050 1100 50  0000 L CNN
F 1 "470K" V 4950 850 50  0000 L CNN
F 2 "Resistor_SMD:R_0805_2012Metric" H 4850 1050 50  0001 C CNN
F 3 "~" H 4850 1050 50  0001 C CNN
	1    4850 1050
	0    -1   -1   0   
$EndComp
Wire Wire Line
	6900 1050 4950 1050
Wire Wire Line
	6900 1050 6900 1400
$Comp
L Device:R_Small_US R15
U 1 1 60EB678D
P 6700 1400
F 0 "R15" V 6900 1250 50  0000 L CNN
F 1 "100K" V 6800 1200 50  0000 L CNN
F 2 "Resistor_SMD:R_0805_2012Metric" H 6700 1400 50  0001 C CNN
F 3 "~" H 6700 1400 50  0001 C CNN
	1    6700 1400
	0    -1   -1   0   
$EndComp
Wire Wire Line
	6800 1400 6900 1400
Connection ~ 6900 1400
Wire Wire Line
	6900 1400 6900 1600
$Comp
L Device:C_Small C13
U 1 1 60F060DE
P 6700 1900
F 0 "C13" H 6792 1946 50  0000 L CNN
F 1 "100nF" H 6792 1855 50  0000 L CNN
F 2 "Capacitor_SMD:C_0805_2012Metric" H 6700 1900 50  0001 C CNN
F 3 "~" H 6700 1900 50  0001 C CNN
	1    6700 1900
	1    0    0    -1  
$EndComp
Wire Wire Line
	6700 1500 6700 1800
$Comp
L Device:R_Small_US R6
U 1 1 60F5BDE6
P 3800 1300
F 0 "R6" V 3850 1350 50  0000 L CNN
F 1 "10K" V 3850 1150 50  0000 L CNN
F 2 "Resistor_SMD:R_0805_2012Metric" H 3800 1300 50  0001 C CNN
F 3 "~" H 3800 1300 50  0001 C CNN
	1    3800 1300
	0    -1   -1   0   
$EndComp
$Comp
L Device:C_Small C3
U 1 1 60F89662
P 3600 2050
F 0 "C3" H 3692 2096 50  0000 L CNN
F 1 "22uF" H 3692 2005 50  0000 L CNN
F 2 "Capacitor_SMD:C_0805_2012Metric" H 3600 2050 50  0001 C CNN
F 3 "~" H 3600 2050 50  0001 C CNN
	1    3600 2050
	1    0    0    -1  
$EndComp
$Comp
L Device:C_Small C6
U 1 1 60F982C4
P 3950 2050
F 0 "C6" H 4042 2096 50  0000 L CNN
F 1 "10uF" H 4042 2005 50  0000 L CNN
F 2 "Capacitor_SMD:C_0805_2012Metric" H 3950 2050 50  0001 C CNN
F 3 "~" H 3950 2050 50  0001 C CNN
	1    3950 2050
	1    0    0    -1  
$EndComp
Wire Wire Line
	3600 2150 3600 2200
Wire Wire Line
	3950 2200 3950 2150
$Comp
L Device:C_Small C17
U 1 1 61016085
P 7550 1850
F 0 "C17" H 7642 1896 50  0000 L CNN
F 1 "22uF" H 7642 1805 50  0000 L CNN
F 2 "Capacitor_SMD:C_0805_2012Metric" H 7550 1850 50  0001 C CNN
F 3 "~" H 7550 1850 50  0001 C CNN
	1    7550 1850
	1    0    0    -1  
$EndComp
$Comp
L Device:C_Small C18
U 1 1 61026257
P 7900 1850
F 0 "C18" H 7992 1896 50  0000 L CNN
F 1 "22uF" H 7992 1805 50  0000 L CNN
F 2 "Capacitor_SMD:C_0805_2012Metric" H 7900 1850 50  0001 C CNN
F 3 "~" H 7900 1850 50  0001 C CNN
	1    7900 1850
	1    0    0    -1  
$EndComp
$Comp
L Device:C_Small C20
U 1 1 6103650A
P 8250 1850
F 0 "C20" H 8342 1896 50  0000 L CNN
F 1 "22uF" H 8342 1805 50  0000 L CNN
F 2 "Capacitor_SMD:C_0805_2012Metric" H 8250 1850 50  0001 C CNN
F 3 "~" H 8250 1850 50  0001 C CNN
	1    8250 1850
	1    0    0    -1  
$EndComp
$Comp
L Device:C_Small C15
U 1 1 61046A25
P 7200 1850
F 0 "C15" H 7292 1896 50  0000 L CNN
F 1 "10uF" H 7292 1805 50  0000 L CNN
F 2 "Capacitor_SMD:C_0805_2012Metric" H 7200 1850 50  0001 C CNN
F 3 "~" H 7200 1850 50  0001 C CNN
	1    7200 1850
	1    0    0    -1  
$EndComp
Wire Wire Line
	7200 1750 7200 1600
Wire Wire Line
	7200 1600 6900 1600
Wire Wire Line
	7200 1600 7550 1600
Wire Wire Line
	8250 1600 8250 1750
Connection ~ 7200 1600
Wire Wire Line
	7900 1600 7900 1750
Connection ~ 7900 1600
Wire Wire Line
	7900 1600 8250 1600
Wire Wire Line
	7550 1750 7550 1600
Connection ~ 7550 1600
Wire Wire Line
	7550 1600 7900 1600
Wire Wire Line
	7200 1950 7200 2050
Wire Wire Line
	7200 2050 7550 2050
Wire Wire Line
	8250 2050 8250 1950
Wire Wire Line
	7900 1950 7900 2050
Connection ~ 7900 2050
Wire Wire Line
	7900 2050 8250 2050
Wire Wire Line
	7550 1950 7550 2050
Connection ~ 7550 2050
Wire Wire Line
	7550 2050 7750 2050
Connection ~ 7750 2050
Wire Wire Line
	7750 2050 7900 2050
$Comp
L power:+3V3 #PWR043
U 1 1 6118F731
P 8600 1400
F 0 "#PWR043" H 8600 1250 50  0001 C CNN
F 1 "+3V3" H 8615 1573 50  0000 C CNN
F 2 "" H 8600 1400 50  0001 C CNN
F 3 "" H 8600 1400 50  0001 C CNN
	1    8600 1400
	1    0    0    -1  
$EndComp
$Comp
L Device:R_Small_US R19
U 1 1 611B446A
P 8600 1750
F 0 "R19" H 8668 1796 50  0000 L CNN
F 1 "1K" H 8668 1705 50  0000 L CNN
F 2 "Resistor_SMD:R_0805_2012Metric" H 8600 1750 50  0001 C CNN
F 3 "~" H 8600 1750 50  0001 C CNN
	1    8600 1750
	1    0    0    -1  
$EndComp
$Comp
L Device:LED D7
U 1 1 611C6626
P 8600 2100
F 0 "D7" V 8600 2000 50  0000 R CNN
F 1 "LED RED" V 8700 2050 50  0000 R CNN
F 2 "LED_SMD:LED_0805_2012Metric_Castellated" H 8600 2100 50  0001 C CNN
F 3 "~" H 8600 2100 50  0001 C CNN
	1    8600 2100
	0    -1   -1   0   
$EndComp
Wire Wire Line
	8600 1400 8600 1600
Wire Wire Line
	8250 1600 8600 1600
Connection ~ 8250 1600
Connection ~ 8600 1600
Wire Wire Line
	8600 1600 8600 1650
Wire Wire Line
	8600 1950 8600 1850
Wire Wire Line
	8600 2250 8600 2300
Wire Wire Line
	8600 2300 7750 2300
Wire Wire Line
	7750 2300 7750 2050
$Comp
L SparkFun-Switches:SWITCH-SPDT-PTH-11.6X4.0MM S1
U 1 1 61234F6A
P 3300 1700
F 0 "S1" H 3350 1970 45  0000 C CNN
F 1 "switch" H 3350 1886 45  0000 C CNN
F 2 "K3-1260D:K3-1260D" H 3300 1950 20  0001 C CNN
F 3 "" H 3300 1700 50  0001 C CNN
F 4 "SWCH-08261" H 3350 1897 60  0001 C CNN "Field4"
	1    3300 1700
	1    0    0    -1  
$EndComp
$Comp
L power:+5VA #PWR037
U 1 1 6125EA36
P 7950 5850
F 0 "#PWR037" H 7950 5700 50  0001 C CNN
F 1 "+5VA" H 7965 6023 50  0000 C CNN
F 2 "" H 7950 5850 50  0001 C CNN
F 3 "" H 7950 5850 50  0001 C CNN
	1    7950 5850
	1    0    0    -1  
$EndComp
Wire Wire Line
	7950 5850 7950 6000
$Comp
L CMI-9653S-SMT:CMI-9653S-SMT LS1
U 1 1 612C23FB
P 10500 950
F 0 "LS1" V 10742 950 50  0000 C CNN
F 1 "CMI-9653S-SMT" V 10651 950 50  0000 C CNN
F 2 "others:CUI_CMI-9653S-SMT" H 10500 950 50  0001 L BNN
F 3 "" H 10500 950 50  0001 L BNN
F 4 "CUI Inc." H 10500 950 50  0001 L BNN "MF"
F 5 "None" H 10500 950 50  0001 L BNN "PACKAGE"
F 6 "9.6 mm, 3 Vdc, 80 dB, 2.7 kHz, Surface Mount _SMT_, Driving Circuit, Magnetic Audio Indicator Buzzer" H 10500 950 50  0001 L BNN "DESCRIPTION"
F 7 "CMI-9653S-SMT" H 10500 950 50  0001 L BNN "MP"
F 8 "None" H 10500 950 50  0001 L BNN "PRICE"
F 9 "Unavailable" H 10500 950 50  0001 L BNN "AVAILABILITY"
F 10 "https://www.cui.com/product/audio/buzzers/audio-indicators/cmi-9653s-smt?utm_source=snapeda.com&utm_medium=referral&utm_campaign=snapedaBOM" H 10500 950 50  0001 L BNN "CUI_PURCHASE_URL"
	1    10500 950 
	0    -1   -1   0   
$EndComp
$Comp
L Device:R_Small_US R20
U 1 1 612C405F
P 10000 950
F 0 "R20" V 10205 950 50  0000 C CNN
F 1 "50" V 10114 950 50  0000 C CNN
F 2 "Resistor_SMD:R_0805_2012Metric" H 10000 950 50  0001 C CNN
F 3 "~" H 10000 950 50  0001 C CNN
	1    10000 950 
	0    -1   -1   0   
$EndComp
Wire Wire Line
	10100 950  10300 950 
Text GLabel 9800 950  0    50   Input ~ 0
BUZZER
Wire Wire Line
	9800 950  9900 950 
Text GLabel 14050 3200 2    50   Input ~ 0
BUZZER
Text GLabel 14050 1700 2    50   Input ~ 0
TXD
Wire Wire Line
	13950 1700 14050 1700
Text GLabel 14050 1500 2    50   Input ~ 0
RXD
Wire Wire Line
	13950 1500 14050 1500
Text GLabel 12600 1400 0    50   Input ~ 0
EN
Wire Wire Line
	12600 1400 12750 1400
Text GLabel 14050 1400 2    50   Input ~ 0
IO0
Wire Wire Line
	13950 1400 14050 1400
Text GLabel 14050 2400 2    50   Input ~ 0
GPS_TX
Text GLabel 14050 3600 2    50   Input ~ 0
GPS_RX
$Comp
L RF:CC1200 U8
U 1 1 6143C3F0
P 12400 6800
F 0 "U8" H 12400 8067 50  0000 C CNN
F 1 "CC1200" H 12400 7976 50  0000 C CNN
F 2 "Package_DFN_QFN:QFN-32-1EP_5x5mm_P0.5mm_EP3.45x3.45mm" H 13000 7950 50  0001 C CNN
F 3 "http://www.ti.com/lit/ds/symlink/cc1200.pdf" H 11900 7950 50  0001 C CNN
	1    12400 6800
	1    0    0    -1  
$EndComp
Wire Wire Line
	13100 5800 13200 5800
Wire Wire Line
	13200 5800 13200 5900
Wire Wire Line
	13200 6700 13100 6700
Wire Wire Line
	13100 6600 13200 6600
Connection ~ 13200 6600
Wire Wire Line
	13200 6600 13200 6700
Wire Wire Line
	13100 6500 13200 6500
Connection ~ 13200 6500
Wire Wire Line
	13200 6500 13200 6600
Wire Wire Line
	13100 6400 13200 6400
Connection ~ 13200 6400
Wire Wire Line
	13200 6400 13200 6500
Wire Wire Line
	13100 6300 13200 6300
Connection ~ 13200 6300
Wire Wire Line
	13200 6300 13200 6400
Wire Wire Line
	13100 6200 13200 6200
Connection ~ 13200 6200
Wire Wire Line
	13200 6200 13200 6300
Wire Wire Line
	13100 6000 13200 6000
Connection ~ 13200 6000
Wire Wire Line
	13200 6000 13200 6200
Wire Wire Line
	13100 5900 13200 5900
Connection ~ 13200 5900
Wire Wire Line
	13200 5900 13200 6000
$Comp
L Device:C_Small C26
U 1 1 61529E64
P 13500 6000
F 0 "C26" H 13592 6046 50  0000 L CNN
F 1 "220nF" H 13592 5955 50  0000 L CNN
F 2 "Capacitor_SMD:C_0805_2012Metric" H 13500 6000 50  0001 C CNN
F 3 "~" H 13500 6000 50  0001 C CNN
	1    13500 6000
	1    0    0    -1  
$EndComp
$Comp
L Device:C_Small C33
U 1 1 61540177
P 13900 6000
F 0 "C33" H 13992 6046 50  0000 L CNN
F 1 "220nF" H 13992 5955 50  0000 L CNN
F 2 "Capacitor_SMD:C_0805_2012Metric" H 13900 6000 50  0001 C CNN
F 3 "~" H 13900 6000 50  0001 C CNN
	1    13900 6000
	1    0    0    -1  
$EndComp
Wire Wire Line
	13500 5900 13500 5800
Wire Wire Line
	13500 5800 13200 5800
Connection ~ 13200 5800
Wire Wire Line
	13500 5800 13900 5800
Wire Wire Line
	13900 5800 13900 5900
Connection ~ 13500 5800
Wire Wire Line
	13500 6100 13500 6250
Wire Wire Line
	13900 6100 13900 6250
$Comp
L power:+3V3 #PWR059
U 1 1 615C7C63
P 13900 5650
F 0 "#PWR059" H 13900 5500 50  0001 C CNN
F 1 "+3V3" H 13915 5823 50  0000 C CNN
F 2 "" H 13900 5650 50  0001 C CNN
F 3 "" H 13900 5650 50  0001 C CNN
	1    13900 5650
	1    0    0    -1  
$EndComp
Wire Wire Line
	13900 5650 13900 5800
Connection ~ 13900 5800
$Comp
L Device:C_Small C28
U 1 1 615F6BEA
P 13650 7050
F 0 "C28" V 13879 7050 50  0000 C CNN
F 1 "47nF" V 13788 7050 50  0000 C CNN
F 2 "Capacitor_SMD:C_0805_2012Metric" H 13650 7050 50  0001 C CNN
F 3 "~" H 13650 7050 50  0001 C CNN
	1    13650 7050
	0    -1   -1   0   
$EndComp
Wire Wire Line
	13350 7050 13550 7050
$Comp
L Device:C_Small C34
U 1 1 61624E0A
P 14000 6950
F 0 "C34" V 14229 6950 50  0000 C CNN
F 1 "47nF" V 14138 6950 50  0000 C CNN
F 2 "Capacitor_SMD:C_0805_2012Metric" H 14000 6950 50  0001 C CNN
F 3 "~" H 14000 6950 50  0001 C CNN
	1    14000 6950
	0    -1   -1   0   
$EndComp
$Comp
L Device:C_Small C37
U 1 1 61653EB8
P 14350 6850
F 0 "C37" V 14579 6850 50  0000 C CNN
F 1 "10nF" V 14488 6850 50  0000 C CNN
F 2 "Capacitor_SMD:C_0805_2012Metric" H 14350 6850 50  0001 C CNN
F 3 "~" H 14350 6850 50  0001 C CNN
	1    14350 6850
	0    -1   -1   0   
$EndComp
$Comp
L Device:C_Small C39
U 1 1 61683BE9
P 14700 6750
F 0 "C39" V 14900 6700 50  0000 L CNN
F 1 "220nF" V 14800 6600 50  0000 L CNN
F 2 "Capacitor_SMD:C_0805_2012Metric" H 14700 6750 50  0001 C CNN
F 3 "~" H 14700 6750 50  0001 C CNN
	1    14700 6750
	0    -1   -1   0   
$EndComp
Wire Wire Line
	13750 7050 14850 7050
Wire Wire Line
	14850 7050 14850 6950
Wire Wire Line
	14850 6750 14800 6750
Wire Wire Line
	14100 6950 14850 6950
Connection ~ 14850 6950
Wire Wire Line
	14850 6950 14850 6850
Wire Wire Line
	14450 6850 14850 6850
Connection ~ 14850 6850
Wire Wire Line
	14850 6850 14850 6750
Connection ~ 14850 7050
$Comp
L Device:C_Small C27
U 1 1 6172CBD7
P 13600 7900
F 0 "C27" V 13371 7900 50  0000 C CNN
F 1 "15pF" V 13462 7900 50  0000 C CNN
F 2 "Capacitor_SMD:C_0805_2012Metric" H 13600 7900 50  0001 C CNN
F 3 "~" H 13600 7900 50  0001 C CNN
	1    13600 7900
	0    1    1    0   
$EndComp
$Comp
L Device:C_Small C35
U 1 1 6178DDD7
P 14050 8050
F 0 "C35" V 13821 8050 50  0000 C CNN
F 1 "1pF" V 13912 8050 50  0000 C CNN
F 2 "Capacitor_SMD:C_0805_2012Metric" H 14050 8050 50  0001 C CNN
F 3 "~" H 14050 8050 50  0001 C CNN
	1    14050 8050
	0    1    -1   0   
$EndComp
Wire Wire Line
	13700 7900 13850 7900
Wire Wire Line
	13850 7900 13850 8050
Wire Wire Line
	13850 8050 13950 8050
$Comp
L Device:L_Small L5
U 1 1 617BF07B
P 14050 7900
F 0 "L5" V 14235 7900 50  0000 C CNN
F 1 "7.5nH" V 14144 7900 50  0000 C CNN
F 2 "Inductor_SMD:L_0805_2012Metric" H 14050 7900 50  0001 C CNN
F 3 "~" H 14050 7900 50  0001 C CNN
	1    14050 7900
	0    -1   -1   0   
$EndComp
Wire Wire Line
	13850 7900 13950 7900
Connection ~ 13850 7900
Wire Wire Line
	14150 7900 14250 7900
Wire Wire Line
	14250 7900 14250 8050
Wire Wire Line
	14250 8050 14150 8050
$Comp
L Device:L_Small L3
U 1 1 617F3F6A
P 13400 8100
F 0 "L3" H 13356 8054 50  0000 R CNN
F 1 "10nH" H 13356 8145 50  0000 R CNN
F 2 "Inductor_SMD:L_0805_2012Metric" H 13400 8100 50  0001 C CNN
F 3 "~" H 13400 8100 50  0001 C CNN
	1    13400 8100
	-1   0    0    1   
$EndComp
Wire Wire Line
	13250 7900 13400 7900
Wire Wire Line
	13400 8000 13400 7900
Connection ~ 13400 7900
Wire Wire Line
	13400 7900 13500 7900
$Comp
L Device:R_Small_US R23
U 1 1 6184076D
P 13400 8500
F 0 "R23" H 13332 8454 50  0000 R CNN
F 1 "10" H 13332 8545 50  0000 R CNN
F 2 "Resistor_SMD:R_0805_2012Metric" H 13400 8500 50  0001 C CNN
F 3 "~" H 13400 8500 50  0001 C CNN
	1    13400 8500
	-1   0    0    1   
$EndComp
Wire Wire Line
	13400 8600 13400 8700
$Comp
L Device:C_Small C30
U 1 1 6187484B
P 13700 8500
F 0 "C30" H 13608 8546 50  0000 R CNN
F 1 "33pF" H 13608 8455 50  0000 R CNN
F 2 "Capacitor_SMD:C_0805_2012Metric" H 13700 8500 50  0001 C CNN
F 3 "~" H 13700 8500 50  0001 C CNN
	1    13700 8500
	-1   0    0    -1  
$EndComp
Wire Wire Line
	13400 8700 13700 8700
Wire Wire Line
	13400 8200 13400 8300
Wire Wire Line
	13400 8300 13700 8300
Wire Wire Line
	13700 8300 13700 8400
Connection ~ 13400 8300
Wire Wire Line
	13400 8300 13400 8400
Wire Wire Line
	13700 8600 13700 8700
Connection ~ 13700 8700
$Comp
L power:+3V3 #PWR061
U 1 1 618F89DE
P 14150 8550
F 0 "#PWR061" H 14150 8400 50  0001 C CNN
F 1 "+3V3" H 14165 8723 50  0000 C CNN
F 2 "" H 14150 8550 50  0001 C CNN
F 3 "" H 14150 8550 50  0001 C CNN
	1    14150 8550
	1    0    0    -1  
$EndComp
Wire Wire Line
	14150 8700 14150 8550
Wire Wire Line
	13700 8700 13750 8700
$Comp
L Device:C_Small C25
U 1 1 6192EB0C
P 13400 9000
F 0 "C25" H 13308 9046 50  0000 R CNN
F 1 "10nF" H 13308 8955 50  0000 R CNN
F 2 "Capacitor_SMD:C_0805_2012Metric" H 13400 9000 50  0001 C CNN
F 3 "~" H 13400 9000 50  0001 C CNN
	1    13400 9000
	-1   0    0    -1  
$EndComp
$Comp
L Device:C_Small C31
U 1 1 61949064
P 13750 9000
F 0 "C31" H 13658 9046 50  0000 R CNN
F 1 "100pF" H 13658 8955 50  0000 R CNN
F 2 "Capacitor_SMD:C_0805_2012Metric" H 13750 9000 50  0001 C CNN
F 3 "~" H 13750 9000 50  0001 C CNN
	1    13750 9000
	-1   0    0    -1  
$EndComp
Wire Wire Line
	13400 8900 13400 8700
Connection ~ 13400 8700
Wire Wire Line
	13750 8900 13750 8700
Connection ~ 13750 8700
Wire Wire Line
	13750 8700 14150 8700
Wire Wire Line
	13750 9100 13750 9150
Wire Wire Line
	13400 9150 13400 9100
$Comp
L Device:L_Small L8
U 1 1 619ED0B0
P 14650 7900
F 0 "L8" V 14835 7900 50  0000 C CNN
F 1 "18nH" V 14744 7900 50  0000 C CNN
F 2 "Inductor_SMD:L_0805_2012Metric" H 14650 7900 50  0001 C CNN
F 3 "~" H 14650 7900 50  0001 C CNN
	1    14650 7900
	0    -1   -1   0   
$EndComp
Connection ~ 14250 7900
$Comp
L Device:L_Small L9
U 1 1 61A24964
P 14950 7900
F 0 "L9" V 15135 7900 50  0000 C CNN
F 1 "12nH" V 15044 7900 50  0000 C CNN
F 2 "Inductor_SMD:L_0805_2012Metric" H 14950 7900 50  0001 C CNN
F 3 "~" H 14950 7900 50  0001 C CNN
	1    14950 7900
	0    -1   -1   0   
$EndComp
Wire Wire Line
	14750 7900 14800 7900
$Comp
L Device:C_Small C40
U 1 1 61A5D263
P 14800 8150
F 0 "C40" H 14650 8250 50  0000 C CNN
F 1 "3pF" H 14600 8150 50  0000 C CNN
F 2 "Capacitor_SMD:C_0805_2012Metric" H 14800 8150 50  0001 C CNN
F 3 "~" H 14800 8150 50  0001 C CNN
	1    14800 8150
	-1   0    0    -1  
$EndComp
Wire Wire Line
	14800 8050 14800 7900
Connection ~ 14800 7900
Wire Wire Line
	14800 7900 14850 7900
$Comp
L Device:C_Small C38
U 1 1 61ACEB10
P 14350 7750
F 0 "C38" H 14400 7850 50  0000 C CNN
F 1 "2.2pF" H 14200 7850 50  0000 C CNN
F 2 "Capacitor_SMD:C_0805_2012Metric" H 14350 7750 50  0001 C CNN
F 3 "~" H 14350 7750 50  0001 C CNN
	1    14350 7750
	-1   0    0    -1  
$EndComp
Wire Wire Line
	13100 7800 13250 7800
Wire Wire Line
	13250 7800 13250 7900
Wire Wire Line
	14250 7900 14350 7900
Wire Wire Line
	14350 7850 14350 7900
Connection ~ 14350 7900
Wire Wire Line
	14350 7900 14550 7900
Wire Wire Line
	14350 7600 14350 7650
Wire Wire Line
	13100 7600 14350 7600
$Comp
L Device:C_Small C29
U 1 1 61BE218A
P 13650 7400
F 0 "C29" V 13750 7450 50  0000 C CNN
F 1 "3.3pF" V 13550 7350 50  0000 C CNN
F 2 "Capacitor_SMD:C_0805_2012Metric" H 13650 7400 50  0001 C CNN
F 3 "~" H 13650 7400 50  0001 C CNN
	1    13650 7400
	0    -1   1    0   
$EndComp
Wire Wire Line
	13100 7400 13500 7400
$Comp
L Device:L_Small L6
U 1 1 61C1CCC8
P 14150 7400
F 0 "L6" V 14200 7450 50  0000 C CNN
F 1 "12nH" V 14200 7300 50  0000 C CNN
F 2 "Inductor_SMD:L_0805_2012Metric" H 14150 7400 50  0001 C CNN
F 3 "~" H 14150 7400 50  0001 C CNN
	1    14150 7400
	0    -1   -1   0   
$EndComp
$Comp
L Device:L_Small L2
U 1 1 61C77321
P 13300 7500
F 0 "L2" V 13350 7600 50  0000 C CNN
F 1 "15nH" V 13350 7450 50  0000 C CNN
F 2 "Inductor_SMD:L_0805_2012Metric" H 13300 7500 50  0001 C CNN
F 3 "~" H 13300 7500 50  0001 C CNN
	1    13300 7500
	0    -1   -1   0   
$EndComp
Wire Wire Line
	13100 7500 13150 7500
Wire Wire Line
	13400 7500 13500 7500
Wire Wire Line
	13500 7500 13500 7400
Connection ~ 13500 7400
$Comp
L Device:L_Small L4
U 1 1 61CD17BD
P 13850 7500
F 0 "L4" V 13900 7600 50  0000 C CNN
F 1 "12nH" V 13900 7400 50  0000 C CNN
F 2 "Inductor_SMD:L_0805_2012Metric" H 13850 7500 50  0001 C CNN
F 3 "~" H 13850 7500 50  0001 C CNN
	1    13850 7500
	0    -1   -1   0   
$EndComp
Wire Wire Line
	13150 7500 13150 7550
Wire Wire Line
	13150 7550 13650 7550
Wire Wire Line
	13650 7550 13650 7500
Connection ~ 13150 7500
Wire Wire Line
	13150 7500 13200 7500
Wire Wire Line
	14250 7400 14350 7400
Wire Wire Line
	14350 7400 14350 7600
Connection ~ 14350 7600
Wire Wire Line
	14000 7400 14050 7400
$Comp
L Device:C_Small C41
U 1 1 61D6D5B8
P 15200 7550
F 0 "C41" V 15000 7550 50  0000 C CNN
F 1 "3.3pF" V 15100 7550 50  0000 C CNN
F 2 "Capacitor_SMD:C_0805_2012Metric" H 15200 7550 50  0001 C CNN
F 3 "~" H 15200 7550 50  0001 C CNN
	1    15200 7550
	0    -1   1    0   
$EndComp
Wire Wire Line
	13650 7550 15100 7550
Connection ~ 13650 7550
$Comp
L Device:L_Small L7
U 1 1 61E90FD9
P 14600 7250
F 0 "L7" V 14785 7250 50  0000 C CNN
F 1 "12nH" V 14694 7250 50  0000 C CNN
F 2 "Inductor_SMD:L_0805_2012Metric" H 14600 7250 50  0001 C CNN
F 3 "~" H 14600 7250 50  0001 C CNN
	1    14600 7250
	0    -1   -1   0   
$EndComp
Wire Wire Line
	13500 7400 13500 7250
Wire Wire Line
	13500 7250 14500 7250
Wire Wire Line
	13350 7200 13100 7200
Wire Wire Line
	13100 7100 13300 7100
Wire Wire Line
	13300 7100 13300 6950
Wire Wire Line
	13300 6950 13900 6950
Wire Wire Line
	13250 7000 13100 7000
Wire Wire Line
	13250 6850 14250 6850
Wire Wire Line
	13100 6900 13200 6900
Wire Wire Line
	13200 6900 13200 6750
Wire Wire Line
	13250 6850 13250 7000
Wire Wire Line
	13350 7050 13350 7200
Wire Wire Line
	13200 6750 14600 6750
Wire Wire Line
	14700 7250 14850 7250
Wire Wire Line
	14850 7050 14850 7250
$Comp
L Device:R_Small_US R21
U 1 1 6206B4B1
P 11200 7500
F 0 "R21" H 11150 7500 50  0000 R CNN
F 1 "56K" H 11200 7600 50  0000 R CNN
F 2 "Resistor_SMD:R_0805_2012Metric" H 11200 7500 50  0001 C CNN
F 3 "~" H 11200 7500 50  0001 C CNN
	1    11200 7500
	-1   0    0    1   
$EndComp
Wire Wire Line
	11550 7800 11700 7800
$Comp
L power:+3V3 #PWR051
U 1 1 6213B022
P 11500 5650
F 0 "#PWR051" H 11500 5500 50  0001 C CNN
F 1 "+3V3" H 11515 5823 50  0000 C CNN
F 2 "" H 11500 5650 50  0001 C CNN
F 3 "" H 11500 5650 50  0001 C CNN
	1    11500 5650
	1    0    0    -1  
$EndComp
Wire Wire Line
	11500 5650 11500 5800
Wire Wire Line
	11500 5800 11700 5800
Wire Wire Line
	13950 7500 14000 7500
Wire Wire Line
	14000 7500 14000 7400
Wire Wire Line
	13650 7500 13750 7500
Wire Wire Line
	13750 7400 14000 7400
Connection ~ 14000 7400
Wire Wire Line
	13550 7400 13500 7400
$Comp
L SparkFun-Clocks:CRYSTAL-GROUNDEDSMD-3.2X2.5 Y1
U 1 1 622553C8
P 10650 7200
F 0 "Y1" H 10650 7424 45  0000 C CNN
F 1 "40 MHZ" H 10650 7340 45  0000 C CNN
F 2 "Crystal:Crystal_SMD_3225-4Pin_3.2x2.5mm" H 10650 7400 20  0001 C CNN
F 3 "" H 10650 7200 50  0001 C CNN
F 4 "XXX-00000" H 10650 7351 60  0001 C CNN "Field4"
	1    10650 7200
	1    0    0    -1  
$EndComp
Wire Wire Line
	10750 7200 10850 7200
Wire Wire Line
	11000 7200 11000 7000
Wire Wire Line
	11700 6900 10500 6900
Wire Wire Line
	10500 6900 10500 7200
Wire Wire Line
	10500 7200 10550 7200
$Comp
L Device:C_Small C21
U 1 1 622A1294
P 10500 7400
F 0 "C21" H 10300 7450 50  0000 L CNN
F 1 "15pF" H 10250 7350 50  0000 L CNN
F 2 "Capacitor_SMD:C_0805_2012Metric" H 10500 7400 50  0001 C CNN
F 3 "~" H 10500 7400 50  0001 C CNN
	1    10500 7400
	1    0    0    -1  
$EndComp
$Comp
L Device:C_Small C22
U 1 1 622C552E
P 10850 7400
F 0 "C22" H 10758 7446 50  0000 R CNN
F 1 "15pF" H 10800 7300 50  0000 R CNN
F 2 "Capacitor_SMD:C_0805_2012Metric" H 10850 7400 50  0001 C CNN
F 3 "~" H 10850 7400 50  0001 C CNN
	1    10850 7400
	-1   0    0    -1  
$EndComp
Wire Wire Line
	10850 7300 10850 7200
Connection ~ 10850 7200
Wire Wire Line
	10850 7200 11000 7200
Wire Wire Line
	10500 7300 10500 7200
Connection ~ 10500 7200
Wire Wire Line
	10500 7500 10500 7550
Wire Wire Line
	10500 7550 10650 7550
Wire Wire Line
	10850 7550 10850 7500
Wire Wire Line
	10650 7400 10650 7550
Connection ~ 10650 7550
Wire Wire Line
	10650 7550 10850 7550
Wire Wire Line
	11200 7300 11700 7300
Wire Wire Line
	11200 7300 11200 7400
Wire Wire Line
	11100 7100 11700 7100
Text GLabel 11450 6100 0    50   Input ~ 0
CC_CLK
Wire Wire Line
	11450 6100 11700 6100
Text GLabel 11450 6200 0    50   Input ~ 0
CC_MOSI
Wire Wire Line
	11450 6200 11700 6200
Text GLabel 11450 6300 0    50   Input ~ 0
CC_MISO
Wire Wire Line
	11450 6300 11700 6300
Text GLabel 11450 6500 0    50   Input ~ 0
GPIO_0
Text GLabel 11450 6600 0    50   Input ~ 0
GPIO_2
Text GLabel 11450 6700 0    50   Input ~ 0
GPIO_3
Text GLabel 11450 6000 0    50   Input ~ 0
CC_CS
Wire Wire Line
	11450 6000 11700 6000
Wire Wire Line
	11450 6500 11700 6500
Wire Wire Line
	11450 6600 11700 6600
Wire Wire Line
	11450 6700 11700 6700
Text GLabel 14050 2000 2    50   Input ~ 0
CC_MISO
Text GLabel 14050 2100 2    50   Input ~ 0
CC_MOSI
Text GLabel 14050 2200 2    50   Input ~ 0
CC_CLK
Text GLabel 14050 2300 2    50   Input ~ 0
CC_CS
Wire Wire Line
	13950 2400 14050 2400
Wire Wire Line
	13950 2300 14050 2300
Wire Wire Line
	13950 2200 14050 2200
Wire Wire Line
	13950 2100 14050 2100
Wire Wire Line
	13950 2000 14050 2000
$Comp
L Device:C_Small C23
U 1 1 62737E50
P 11500 7550
F 0 "C23" H 11550 7700 50  0000 R CNN
F 1 "1.5nF" H 11600 7400 50  0000 R CNN
F 2 "Capacitor_SMD:C_0805_2012Metric" H 11500 7550 50  0001 C CNN
F 3 "~" H 11500 7550 50  0001 C CNN
	1    11500 7550
	-1   0    0    -1  
$EndComp
Wire Wire Line
	11500 7450 11650 7450
Wire Wire Line
	11650 7450 11650 7500
Wire Wire Line
	11650 7500 11700 7500
Wire Wire Line
	11500 7650 11650 7650
Wire Wire Line
	11650 7650 11650 7600
Wire Wire Line
	11650 7600 11700 7600
Wire Wire Line
	8450 5750 8450 5850
Wire Wire Line
	8450 5850 8550 5850
Connection ~ 8450 5850
Wire Wire Line
	8450 5850 8450 5950
Wire Wire Line
	8450 5450 9150 5450
$Comp
L Device:R_Small_US R22
U 1 1 62A7AB96
P 11950 1900
F 0 "R22" H 11882 1854 50  0000 R CNN
F 1 "10K" H 11882 1945 50  0000 R CNN
F 2 "Resistor_SMD:R_0805_2012Metric" H 11950 1900 50  0001 C CNN
F 3 "~" H 11950 1900 50  0001 C CNN
	1    11950 1900
	-1   0    0    1   
$EndComp
$Comp
L Device:C_Small C24
U 1 1 62AA47BC
P 11950 2450
F 0 "C24" H 12042 2496 50  0000 L CNN
F 1 "100nF" H 12042 2405 50  0000 L CNN
F 2 "Capacitor_SMD:C_0805_2012Metric" H 11950 2450 50  0001 C CNN
F 3 "~" H 11950 2450 50  0001 C CNN
	1    11950 2450
	1    0    0    -1  
$EndComp
$Comp
L power:+3V3 #PWR053
U 1 1 62ACDE00
P 11950 1500
F 0 "#PWR053" H 11950 1350 50  0001 C CNN
F 1 "+3V3" H 11965 1673 50  0000 C CNN
F 2 "" H 11950 1500 50  0001 C CNN
F 3 "" H 11950 1500 50  0001 C CNN
	1    11950 1500
	1    0    0    -1  
$EndComp
Wire Wire Line
	11950 1500 11950 1800
Wire Wire Line
	11950 2000 11950 2200
Text GLabel 12050 2200 2    50   Input ~ 0
EN
Wire Wire Line
	12050 2200 11950 2200
Connection ~ 11950 2200
Wire Wire Line
	11950 2200 11950 2350
$Comp
L dk_USB-DVI-HDMI-Connectors:10118194-0001LF J1
U 1 1 62C239B9
P 1050 1450
F 0 "J1" H 1114 2195 60  0000 C CNN
F 1 "10118194-0001LF" H 1114 2089 60  0000 C CNN
F 2 "digikey-footprints:USB_Micro_B_Female_10118194-0001LF" H 1250 1650 60  0001 L CNN
F 3 "http://www.amphenol-icc.com/media/wysiwyg/files/drawing/10118194.pdf" H 1250 1750 60  0001 L CNN
F 4 "609-4618-1-ND" H 1250 1850 60  0001 L CNN "Digi-Key_PN"
F 5 "10118194-0001LF" H 1250 1950 60  0001 L CNN "MPN"
F 6 "Connectors, Interconnects" H 1250 2050 60  0001 L CNN "Category"
F 7 "USB, DVI, HDMI Connectors" H 1250 2150 60  0001 L CNN "Family"
F 8 "http://www.amphenol-icc.com/media/wysiwyg/files/drawing/10118194.pdf" H 1250 2250 60  0001 L CNN "DK_Datasheet_Link"
F 9 "/product-detail/en/amphenol-icc-fci/10118194-0001LF/609-4618-1-ND/2785382" H 1250 2350 60  0001 L CNN "DK_Detail_Page"
F 10 "CONN RCPT USB2.0 MICRO B SMD R/A" H 1250 2450 60  0001 L CNN "Description"
F 11 "Amphenol ICC (FCI)" H 1250 2550 60  0001 L CNN "Manufacturer"
F 12 "Active" H 1250 2650 60  0001 L CNN "Status"
	1    1050 1450
	1    0    0    -1  
$EndComp
Text GLabel 2450 1450 2    50   Input ~ 0
D+
Text GLabel 2450 1350 2    50   Input ~ 0
D-
$Comp
L power:GNDREF #PWR07
U 1 1 62CD052C
P 1600 1750
F 0 "#PWR07" H 1600 1500 50  0001 C CNN
F 1 "GNDREF" H 1605 1577 50  0001 C CNN
F 2 "" H 1600 1750 50  0001 C CNN
F 3 "" H 1600 1750 50  0001 C CNN
	1    1600 1750
	1    0    0    -1  
$EndComp
Wire Wire Line
	1350 1650 1600 1650
Wire Wire Line
	1600 1650 1600 1750
$Comp
L ss24:SS24 D2
U 1 1 62D82C2E
P 2050 1250
F 0 "D2" H 2050 1467 50  0000 C CNN
F 1 "SS24" H 2050 1376 50  0000 C CNN
F 2 "others:DIOM5336X265N" H 2050 1250 50  0001 L BNN
F 3 "" H 2050 1250 50  0001 L BNN
F 4 "ON Semiconductor" H 2050 1250 50  0001 L BNN "MANUFACTURER"
F 5 "IPC 7351B" H 2050 1250 50  0001 L BNN "STANDARD"
F 6 "1.1.2" H 2050 1250 50  0001 L BNN "PARTREV"
F 7 "2.65 mm" H 2050 1250 50  0001 L BNN "MAXIMUM_PACKAGE_HEIGHT"
	1    2050 1250
	1    0    0    -1  
$EndComp
Wire Wire Line
	1350 1250 1600 1250
$Comp
L power:+5VA #PWR010
U 1 1 62DB0D83
P 2300 1150
F 0 "#PWR010" H 2300 1000 50  0001 C CNN
F 1 "+5VA" H 2315 1323 50  0000 C CNN
F 2 "" H 2300 1150 50  0001 C CNN
F 3 "" H 2300 1150 50  0001 C CNN
	1    2300 1150
	1    0    0    -1  
$EndComp
Wire Wire Line
	2300 1250 2300 1150
$Comp
L power:+5V #PWR06
U 1 1 62E0AD47
P 1600 1150
F 0 "#PWR06" H 1600 1000 50  0001 C CNN
F 1 "+5V" H 1615 1323 50  0000 C CNN
F 2 "" H 1600 1150 50  0001 C CNN
F 3 "" H 1600 1150 50  0001 C CNN
	1    1600 1150
	1    0    0    -1  
$EndComp
Wire Wire Line
	1600 1150 1600 1250
Connection ~ 1600 1250
$Comp
L Diode:SD05_SOD323 D1
U 1 1 62E6722A
P 1800 1800
F 0 "D1" V 1800 1879 50  0000 L CNN
F 1 "SD05_SOD323" V 1845 1879 50  0001 L CNN
F 2 "Diode_SMD:D_SOD-323" H 1800 1600 50  0001 C CNN
F 3 "https://www.littelfuse.com/~/media/electronics/datasheets/tvs_diode_arrays/littelfuse_tvs_diode_array_sd_c_datasheet.pdf.pdf" H 1800 1800 50  0001 C CNN
	1    1800 1800
	0    1    1    0   
$EndComp
$Comp
L Diode:SD05_SOD323 D3
U 1 1 62E69F90
P 2050 1800
F 0 "D3" V 2050 1879 50  0000 L CNN
F 1 "SD05_SOD323" V 2095 1879 50  0001 L CNN
F 2 "Diode_SMD:D_SOD-323" H 2050 1600 50  0001 C CNN
F 3 "https://www.littelfuse.com/~/media/electronics/datasheets/tvs_diode_arrays/littelfuse_tvs_diode_array_sd_c_datasheet.pdf.pdf" H 2050 1800 50  0001 C CNN
	1    2050 1800
	0    1    1    0   
$EndComp
$Comp
L Diode:SD05_SOD323 D4
U 1 1 62E970CC
P 2300 1800
F 0 "D4" V 2254 1879 50  0000 L CNN
F 1 "SD05_SOD323" V 2345 1879 50  0000 L CNN
F 2 "Diode_SMD:D_SOD-323" H 2300 1600 50  0001 C CNN
F 3 "https://www.littelfuse.com/~/media/electronics/datasheets/tvs_diode_arrays/littelfuse_tvs_diode_array_sd_c_datasheet.pdf.pdf" H 2300 1800 50  0001 C CNN
	1    2300 1800
	0    1    1    0   
$EndComp
Wire Wire Line
	1350 1450 2050 1450
Wire Wire Line
	2050 1650 2050 1450
Connection ~ 2050 1450
Wire Wire Line
	2250 1250 2300 1250
Wire Wire Line
	1600 1250 1800 1250
Wire Wire Line
	1800 1650 1800 1250
Connection ~ 1800 1250
Wire Wire Line
	1800 1250 1850 1250
Wire Wire Line
	1800 1950 1800 2000
Wire Wire Line
	1800 2000 2050 2000
Wire Wire Line
	2300 2000 2300 1950
Wire Wire Line
	2050 1950 2050 2000
Connection ~ 2050 2000
Wire Wire Line
	2050 2000 2300 2000
$Comp
L Device:C_Small C4
U 1 1 6313707E
P 4050 7750
F 0 "C4" V 3950 7900 50  0000 L CNN
F 1 "100nF" V 3950 7600 50  0000 L CNN
F 2 "Capacitor_SMD:C_0805_2012Metric" H 4050 7750 50  0001 C CNN
F 3 "~" H 4050 7750 50  0001 C CNN
	1    4050 7750
	0    -1   -1   0   
$EndComp
Wire Wire Line
	3800 7750 3800 7600
Wire Wire Line
	3800 7600 3850 7600
Wire Wire Line
	4150 7750 4300 7750
Wire Wire Line
	4300 7750 4300 7600
Wire Wire Line
	4300 7600 4250 7600
$Comp
L Device:C_Small C5
U 1 1 631CD787
P 4050 8350
F 0 "C5" V 3950 8500 50  0000 L CNN
F 1 "100nF" V 3950 8200 50  0000 L CNN
F 2 "Capacitor_SMD:C_0805_2012Metric" H 4050 8350 50  0001 C CNN
F 3 "~" H 4050 8350 50  0001 C CNN
	1    4050 8350
	0    -1   -1   0   
$EndComp
Wire Wire Line
	3950 8350 3800 8350
Wire Wire Line
	4150 8350 4300 8350
Wire Wire Line
	4300 8350 4300 8200
Wire Wire Line
	4250 8200 4300 8200
Wire Wire Line
	3800 8350 3800 8200
Wire Wire Line
	3800 8200 3850 8200
Connection ~ 3800 8350
Wire Wire Line
	3800 7750 3950 7750
$Comp
L SparkFun-Connectors:CONN_14 J4
U 1 1 63477733
P 9850 1950
F 0 "J4" H 9572 2558 45  0000 R CNN
F 1 "LCD" H 9572 2642 45  0000 R CNN
F 2 "Connector_PinHeader_2.54mm:PinHeader_1x14_P2.54mm_Vertical" H 9850 3450 20  0001 C CNN
F 3 "" H 9850 1950 50  0001 C CNN
F 4 "XXX-00000" H 9573 2684 60  0001 R CNN "Field4"
	1    9850 1950
	1    0    0    1   
$EndComp
$Comp
L SparkFun-Connectors:CONN_04 J3
U 1 1 63479D5E
P 9800 3700
F 0 "J3" H 9572 3808 45  0000 R CNN
F 1 "SD CARD" H 9572 3892 45  0000 R CNN
F 2 "Connector_PinHeader_2.54mm:PinHeader_1x04_P2.54mm_Vertical" H 9800 4200 20  0001 C CNN
F 3 "" H 9800 3700 50  0001 C CNN
F 4 "CONN-09696" H 9573 3934 60  0001 R CNN "Field4"
	1    9800 3700
	1    0    0    1   
$EndComp
Text GLabel 4400 7600 2    50   Input ~ 0
EN
Text GLabel 4400 8200 2    50   Input ~ 0
IO0
Wire Wire Line
	4300 8200 4400 8200
Connection ~ 4300 8200
Wire Wire Line
	4300 7600 4400 7600
Connection ~ 4300 7600
$Comp
L power:+3V3 #PWR045
U 1 1 63589780
P 10200 1800
F 0 "#PWR045" H 10200 1650 50  0001 C CNN
F 1 "+3V3" H 10215 1973 50  0000 C CNN
F 2 "" H 10200 1800 50  0001 C CNN
F 3 "" H 10200 1800 50  0001 C CNN
	1    10200 1800
	1    0    0    -1  
$EndComp
Wire Wire Line
	9950 1950 10200 1950
Wire Wire Line
	10200 1950 10200 1800
Text GLabel 10100 2150 2    50   Input ~ 0
LCD_CS
Text GLabel 10100 2350 2    50   Input ~ 0
DC
Text GLabel 10100 2450 2    50   Input ~ 0
MOSI
Text GLabel 10100 2550 2    50   Input ~ 0
SCK
Text GLabel 10100 2250 2    50   Input ~ 0
RESET
$Comp
L power:+3V3 #PWR046
U 1 1 636DAB0C
P 10550 2600
F 0 "#PWR046" H 10550 2450 50  0001 C CNN
F 1 "+3V3" H 10565 2773 50  0000 C CNN
F 2 "" H 10550 2600 50  0001 C CNN
F 3 "" H 10550 2600 50  0001 C CNN
	1    10550 2600
	1    0    0    -1  
$EndComp
Wire Wire Line
	9950 2650 10550 2650
Wire Wire Line
	10550 2650 10550 2600
Text GLabel 10100 2850 2    50   Input ~ 0
SCK
Text GLabel 10100 2950 2    50   Input ~ 0
T_CS
Text GLabel 10100 3050 2    50   Input ~ 0
MOSI
Text GLabel 10100 3150 2    50   Input ~ 0
MISO
Wire Wire Line
	9950 2850 10100 2850
Wire Wire Line
	9950 2950 10100 2950
Wire Wire Line
	9950 3050 10100 3050
Wire Wire Line
	9950 3150 10100 3150
Wire Wire Line
	9950 2550 10100 2550
Wire Wire Line
	9950 2450 10100 2450
Wire Wire Line
	9950 2350 10100 2350
Wire Wire Line
	9950 2250 10100 2250
Wire Wire Line
	9950 2150 10100 2150
NoConn ~ 9950 2750
NoConn ~ 9950 3250
Text GLabel 10100 3700 2    50   Input ~ 0
SCK
Text GLabel 10100 3900 2    50   Input ~ 0
MOSI
Text GLabel 10100 3800 2    50   Input ~ 0
MISO
Text GLabel 10100 4000 2    50   Input ~ 0
SD_CS
Wire Wire Line
	9900 3700 10100 3700
Wire Wire Line
	9900 3800 10100 3800
Wire Wire Line
	9900 3900 10100 3900
Wire Wire Line
	9900 4000 10100 4000
Text GLabel 14950 2900 2    50   Input ~ 0
SCL
Text GLabel 14950 2800 2    50   Input ~ 0
SDA
Wire Wire Line
	13950 3200 14050 3200
Wire Wire Line
	13950 3600 14050 3600
Text GLabel 14050 1600 2    50   Input ~ 0
DC
Wire Wire Line
	13950 1600 14050 1600
Text GLabel 14050 1900 2    50   Input ~ 0
SD_CS
Wire Wire Line
	13950 1900 14050 1900
Text GLabel 14050 2600 2    50   Input ~ 0
SCK
Text GLabel 14050 2500 2    50   Input ~ 0
GPIO_3
Wire Wire Line
	13950 2500 14050 2500
Wire Wire Line
	13950 2600 14050 2600
Text GLabel 14050 2700 2    50   Input ~ 0
MISO
Text GLabel 14050 1800 2    50   Input ~ 0
RESET
Wire Wire Line
	13950 1800 14050 1800
Text GLabel 14050 3000 2    50   Input ~ 0
MOSI
Wire Wire Line
	13950 2700 14050 2700
Wire Wire Line
	13950 3000 14050 3000
Text GLabel 14050 3100 2    50   Input ~ 0
T_CS
Wire Wire Line
	13950 3100 14050 3100
Text GLabel 14050 3300 2    50   Input ~ 0
GPIO_2
Wire Wire Line
	13950 3300 14050 3300
Text GLabel 14050 3400 2    50   Input ~ 0
LCD_CS
Wire Wire Line
	13950 3400 14050 3400
Text GLabel 14050 3500 2    50   Input ~ 0
GPIO_0
Wire Wire Line
	13950 3500 14050 3500
Text GLabel 14050 3700 2    50   Input ~ 0
BATT_READ
Wire Wire Line
	13950 3700 14050 3700
Wire Wire Line
	13950 2800 14850 2800
Wire Wire Line
	13950 2900 14550 2900
$Comp
L Device:R_Small_US R24
U 1 1 6464B609
P 14550 2550
F 0 "R24" H 14482 2504 50  0000 R CNN
F 1 "10K" H 14482 2595 50  0000 R CNN
F 2 "Resistor_SMD:R_0805_2012Metric" H 14550 2550 50  0001 C CNN
F 3 "~" H 14550 2550 50  0001 C CNN
	1    14550 2550
	-1   0    0    1   
$EndComp
$Comp
L Device:R_Small_US R25
U 1 1 646899B5
P 14850 2550
F 0 "R25" H 14782 2504 50  0000 R CNN
F 1 "10K" H 14782 2595 50  0000 R CNN
F 2 "Resistor_SMD:R_0805_2012Metric" H 14850 2550 50  0001 C CNN
F 3 "~" H 14850 2550 50  0001 C CNN
	1    14850 2550
	-1   0    0    1   
$EndComp
Wire Wire Line
	14550 2650 14550 2900
Connection ~ 14550 2900
Wire Wire Line
	14550 2900 14950 2900
Wire Wire Line
	14850 2650 14850 2800
Connection ~ 14850 2800
Wire Wire Line
	14850 2800 14950 2800
Wire Wire Line
	14550 2450 14550 2350
Wire Wire Line
	14550 2350 14700 2350
Wire Wire Line
	14850 2350 14850 2450
$Comp
L power:+3V3 #PWR065
U 1 1 64782ED1
P 14700 2250
F 0 "#PWR065" H 14700 2100 50  0001 C CNN
F 1 "+3V3" H 14715 2423 50  0000 C CNN
F 2 "" H 14700 2250 50  0001 C CNN
F 3 "" H 14700 2250 50  0001 C CNN
	1    14700 2250
	1    0    0    -1  
$EndComp
Wire Wire Line
	14700 2250 14700 2350
Connection ~ 14700 2350
Wire Wire Line
	14700 2350 14850 2350
$Comp
L SMA-J-P-H-ST-EM1:SMA-J-P-H-ST-EM1 J5
U 1 1 60BCE469
P 15400 8450
F 0 "J5" H 15392 8757 50  0000 C CNN
F 1 "SMA-J-P-H-ST-EM1" H 15392 8666 50  0000 C CNN
F 2 "others:SMA-J-P-H-ST-EM1" H 15400 8450 50  0001 L BNN
F 3 "" H 15400 8450 50  0001 L BNN
F 4 "3.675mm" H 15400 8450 50  0001 L BNN "MAXIMUM_PACKAGE_HEIGHT"
F 5 "Samtec" H 15400 8450 50  0001 L BNN "MANUFACTURER"
F 6 "G" H 15400 8450 50  0001 L BNN "PARTREV"
F 7 "Manufacturer Recommendations" H 15400 8450 50  0001 L BNN "STANDARD"
	1    15400 8450
	1    0    0    -1  
$EndComp
Wire Wire Line
	15500 8350 15650 8350
Wire Wire Line
	15650 8350 15650 7900
Wire Wire Line
	15650 7900 15050 7900
Wire Wire Line
	3600 1950 3600 1900
Wire Wire Line
	3600 1900 3700 1900
Wire Wire Line
	3950 1950 3950 1900
Connection ~ 3600 1900
Wire Wire Line
	6700 2000 6700 2200
Wire Wire Line
	4400 1050 4550 1050
$Comp
L TPS63070RNMR:TPS63070RNMR U6
U 1 1 609FDA02
P 5750 1800
F 0 "U6" H 5750 2570 50  0000 C CNN
F 1 "TPS63070RNMR" H 5750 2479 50  0000 C CNN
F 2 "others:VREG_TPS63070RNMR" H 5750 1800 50  0001 L BNN
F 3 "" H 5750 1800 50  0001 L BNN
	1    5750 1800
	1    0    0    -1  
$EndComp
Wire Wire Line
	4450 1900 5050 1900
Wire Wire Line
	4450 2900 4650 2900
Wire Wire Line
	4650 2900 4650 2000
Wire Wire Line
	4650 2000 5050 2000
Wire Wire Line
	3950 1900 4250 1900
Wire Wire Line
	4250 1900 4250 1600
Wire Wire Line
	4250 1600 5050 1600
Connection ~ 3950 1900
Wire Wire Line
	5050 1500 4250 1500
Wire Wire Line
	4250 1500 4250 1300
Wire Wire Line
	4250 1300 5050 1300
Wire Wire Line
	3900 1300 4250 1300
Connection ~ 4250 1300
Wire Wire Line
	3700 1300 3700 1900
Connection ~ 3700 1900
Wire Wire Line
	3700 1900 3950 1900
Wire Wire Line
	6450 1500 6700 1500
Wire Wire Line
	6450 1600 6900 1600
Connection ~ 6900 1600
Wire Wire Line
	6450 1300 6500 1300
Wire Wire Line
	6500 1300 6500 1100
Wire Wire Line
	6500 1100 6650 1100
Wire Wire Line
	5050 1400 4550 1400
Wire Wire Line
	4550 1400 4550 1050
Connection ~ 4550 1050
Wire Wire Line
	4550 1050 4750 1050
Wire Wire Line
	6600 1400 6450 1400
Wire Wire Line
	6450 2200 6700 2200
Connection ~ 6700 2200
Wire Wire Line
	6450 2300 6700 2300
Wire Wire Line
	6700 2200 6700 2300
Wire Wire Line
	3200 1700 3100 1700
Wire Wire Line
	3500 1800 3500 1900
Wire Wire Line
	3500 1900 3600 1900
$Comp
L power:+5V #PWR0102
U 1 1 60EBDEE0
P 4700 5350
F 0 "#PWR0102" H 4700 5200 50  0001 C CNN
F 1 "+5V" H 4715 5523 50  0000 C CNN
F 2 "" H 4700 5350 50  0001 C CNN
F 3 "" H 4700 5350 50  0001 C CNN
	1    4700 5350
	1    0    0    -1  
$EndComp
Wire Wire Line
	4700 5350 4700 5500
Connection ~ 4700 5500
$Comp
L power:+3V3 #PWR0103
U 1 1 60F4752A
P 2950 9450
F 0 "#PWR0103" H 2950 9300 50  0001 C CNN
F 1 "+3V3" H 2965 9623 50  0000 C CNN
F 2 "" H 2950 9450 50  0001 C CNN
F 3 "" H 2950 9450 50  0001 C CNN
	1    2950 9450
	1    0    0    -1  
$EndComp
Wire Wire Line
	2950 9450 2950 9550
Connection ~ 2950 9550
Wire Wire Line
	3100 1550 3100 1700
$Comp
L power:+5VA #PWR014
U 1 1 61272AC7
P 3100 1550
F 0 "#PWR014" H 3100 1400 50  0001 C CNN
F 1 "+5VA" H 3115 1723 50  0000 C CNN
F 2 "" H 3100 1550 50  0001 C CNN
F 3 "" H 3100 1550 50  0001 C CNN
	1    3100 1550
	1    0    0    -1  
$EndComp
$Comp
L SparkFun-PowerSymbols:GND #GND0101
U 1 1 60B858DF
P 7200 3950
F 0 "#GND0101" H 7250 3900 45  0001 L BNN
F 1 "GND" H 7200 3780 45  0000 C CNN
F 2 "" H 7200 3850 60  0001 C CNN
F 3 "" H 7200 3850 60  0001 C CNN
	1    7200 3950
	1    0    0    -1  
$EndComp
Wire Wire Line
	7200 3750 7200 3950
$Comp
L SparkFun-PowerSymbols:GND #GND0102
U 1 1 60BCD572
P 6850 4550
F 0 "#GND0102" H 6900 4500 45  0001 L BNN
F 1 "GND" H 6850 4380 45  0000 C CNN
F 2 "" H 6850 4450 60  0001 C CNN
F 3 "" H 6850 4450 60  0001 C CNN
	1    6850 4550
	1    0    0    -1  
$EndComp
$Comp
L SparkFun-PowerSymbols:GND #GND0103
U 1 1 60C1183E
P 2350 6150
F 0 "#GND0103" H 2400 6100 45  0001 L BNN
F 1 "GND" H 2350 5980 45  0000 C CNN
F 2 "" H 2350 6050 60  0001 C CNN
F 3 "" H 2350 6050 60  0001 C CNN
	1    2350 6150
	1    0    0    -1  
$EndComp
$Comp
L SparkFun-PowerSymbols:GND #GND0104
U 1 1 60C55C3B
P 800 4450
F 0 "#GND0104" H 850 4400 45  0001 L BNN
F 1 "GND" H 800 4280 45  0000 C CNN
F 2 "" H 800 4350 60  0001 C CNN
F 3 "" H 800 4350 60  0001 C CNN
	1    800  4450
	1    0    0    -1  
$EndComp
$Comp
L SparkFun-PowerSymbols:GND #GND0105
U 1 1 60C9A6AB
P 1050 3700
F 0 "#GND0105" H 1100 3650 45  0001 L BNN
F 1 "GND" H 1050 3530 45  0000 C CNN
F 2 "" H 1050 3600 60  0001 C CNN
F 3 "" H 1050 3600 60  0001 C CNN
	1    1050 3700
	1    0    0    -1  
$EndComp
$Comp
L SparkFun-PowerSymbols:GND #GND0106
U 1 1 60CDF7BB
P 2050 2150
F 0 "#GND0106" H 2100 2100 45  0001 L BNN
F 1 "GND" H 2050 1980 45  0000 C CNN
F 2 "" H 2050 2050 60  0001 C CNN
F 3 "" H 2050 2050 60  0001 C CNN
	1    2050 2150
	1    0    0    -1  
$EndComp
$Comp
L SparkFun-PowerSymbols:GND #GND0107
U 1 1 60D24C41
P 950 2200
F 0 "#GND0107" H 1000 2150 45  0001 L BNN
F 1 "GND" H 950 2030 45  0000 C CNN
F 2 "" H 950 2100 60  0001 C CNN
F 3 "" H 950 2100 60  0001 C CNN
	1    950  2200
	1    0    0    -1  
$EndComp
$Comp
L SparkFun-PowerSymbols:GND #GND0108
U 1 1 60D6C6EA
P 3750 2250
F 0 "#GND0108" H 3800 2200 45  0001 L BNN
F 1 "GND" H 3750 2080 45  0000 C CNN
F 2 "" H 3750 2150 60  0001 C CNN
F 3 "" H 3750 2150 60  0001 C CNN
	1    3750 2250
	1    0    0    -1  
$EndComp
$Comp
L SparkFun-PowerSymbols:GND #GND0109
U 1 1 60DB38E9
P 4100 1050
F 0 "#GND0109" H 4150 1000 45  0001 L BNN
F 1 "GND" H 4100 880 45  0000 C CNN
F 2 "" H 4100 950 60  0001 C CNN
F 3 "" H 4100 950 60  0001 C CNN
	1    4100 1050
	1    0    0    -1  
$EndComp
$Comp
L SparkFun-PowerSymbols:GND #GND0110
U 1 1 60DFAC82
P 4750 1700
F 0 "#GND0110" H 4800 1650 45  0001 L BNN
F 1 "GND" H 4750 1530 45  0000 C CNN
F 2 "" H 4750 1600 60  0001 C CNN
F 3 "" H 4750 1600 60  0001 C CNN
	1    4750 1700
	1    0    0    -1  
$EndComp
$Comp
L SparkFun-PowerSymbols:GND #GND0111
U 1 1 60E4195E
P 6650 1150
F 0 "#GND0111" H 6700 1100 45  0001 L BNN
F 1 "GND" H 6650 980 45  0000 C CNN
F 2 "" H 6650 1050 60  0001 C CNN
F 3 "" H 6650 1050 60  0001 C CNN
	1    6650 1150
	1    0    0    -1  
$EndComp
$Comp
L SparkFun-PowerSymbols:GND #GND0112
U 1 1 60E88734
P 6700 2400
F 0 "#GND0112" H 6750 2350 45  0001 L BNN
F 1 "GND" H 6700 2230 45  0000 C CNN
F 2 "" H 6700 2300 60  0001 C CNN
F 3 "" H 6700 2300 60  0001 C CNN
	1    6700 2400
	1    0    0    -1  
$EndComp
$Comp
L SparkFun-PowerSymbols:GND #GND0113
U 1 1 60ECF80B
P 7750 2400
F 0 "#GND0113" H 7800 2350 45  0001 L BNN
F 1 "GND" H 7750 2230 45  0000 C CNN
F 2 "" H 7750 2300 60  0001 C CNN
F 3 "" H 7750 2300 60  0001 C CNN
	1    7750 2400
	1    0    0    -1  
$EndComp
$Comp
L SparkFun-PowerSymbols:GND #GND0114
U 1 1 60F17D40
P 10600 1950
F 0 "#GND0114" H 10650 1900 45  0001 L BNN
F 1 "GND" H 10600 1780 45  0000 C CNN
F 2 "" H 10600 1850 60  0001 C CNN
F 3 "" H 10600 1850 60  0001 C CNN
	1    10600 1950
	1    0    0    -1  
$EndComp
$Comp
L SparkFun-PowerSymbols:GND #GND0115
U 1 1 60F606D6
P 8450 6250
F 0 "#GND0115" H 8500 6200 45  0001 L BNN
F 1 "GND" H 8450 6080 45  0000 C CNN
F 2 "" H 8450 6150 60  0001 C CNN
F 3 "" H 8450 6150 60  0001 C CNN
	1    8450 6250
	1    0    0    -1  
$EndComp
$Comp
L SparkFun-PowerSymbols:GND #GND0116
U 1 1 60FA938F
P 9150 5800
F 0 "#GND0116" H 9200 5750 45  0001 L BNN
F 1 "GND" H 9150 5630 45  0000 C CNN
F 2 "" H 9150 5700 60  0001 C CNN
F 3 "" H 9150 5700 60  0001 C CNN
	1    9150 5800
	1    0    0    -1  
$EndComp
$Comp
L SparkFun-PowerSymbols:GND #GND0117
U 1 1 60FF23D5
P 7800 7300
F 0 "#GND0117" H 7850 7250 45  0001 L BNN
F 1 "GND" H 7800 7130 45  0000 C CNN
F 2 "" H 7800 7200 60  0001 C CNN
F 3 "" H 7800 7200 60  0001 C CNN
	1    7800 7300
	1    0    0    -1  
$EndComp
$Comp
L SparkFun-PowerSymbols:GND #GND0118
U 1 1 6103B856
P 6800 7300
F 0 "#GND0118" H 6850 7250 45  0001 L BNN
F 1 "GND" H 6800 7130 45  0000 C CNN
F 2 "" H 6800 7200 60  0001 C CNN
F 3 "" H 6800 7200 60  0001 C CNN
	1    6800 7300
	1    0    0    -1  
$EndComp
$Comp
L SparkFun-PowerSymbols:GND #GND0119
U 1 1 610852A6
P 6450 7300
F 0 "#GND0119" H 6500 7250 45  0001 L BNN
F 1 "GND" H 6450 7130 45  0000 C CNN
F 2 "" H 6450 7200 60  0001 C CNN
F 3 "" H 6450 7200 60  0001 C CNN
	1    6450 7300
	1    0    0    -1  
$EndComp
$Comp
L SparkFun-PowerSymbols:GND #GND0120
U 1 1 610CF153
P 3700 7850
F 0 "#GND0120" H 3750 7800 45  0001 L BNN
F 1 "GND" H 3700 7680 45  0000 C CNN
F 2 "" H 3700 7750 60  0001 C CNN
F 3 "" H 3700 7750 60  0001 C CNN
	1    3700 7850
	1    0    0    -1  
$EndComp
$Comp
L SparkFun-PowerSymbols:GND #GND0121
U 1 1 61118368
P 3700 8450
F 0 "#GND0121" H 3750 8400 45  0001 L BNN
F 1 "GND" H 3700 8280 45  0000 C CNN
F 2 "" H 3700 8350 60  0001 C CNN
F 3 "" H 3700 8350 60  0001 C CNN
	1    3700 8450
	1    0    0    -1  
$EndComp
$Comp
L SparkFun-PowerSymbols:GND #GND0122
U 1 1 61161D3C
P 2950 9950
F 0 "#GND0122" H 3000 9900 45  0001 L BNN
F 1 "GND" H 2950 9780 45  0000 C CNN
F 2 "" H 2950 9850 60  0001 C CNN
F 3 "" H 2950 9850 60  0001 C CNN
	1    2950 9950
	1    0    0    -1  
$EndComp
$Comp
L SparkFun-PowerSymbols:GND #GND0123
U 1 1 611ACBE3
P 2450 10400
F 0 "#GND0123" H 2500 10350 45  0001 L BNN
F 1 "GND" H 2450 10230 45  0000 C CNN
F 2 "" H 2450 10300 60  0001 C CNN
F 3 "" H 2450 10300 60  0001 C CNN
	1    2450 10400
	1    0    0    -1  
$EndComp
$Comp
L SparkFun-PowerSymbols:GND #GND0124
U 1 1 611F82D8
P 5000 10900
F 0 "#GND0124" H 5050 10850 45  0001 L BNN
F 1 "GND" H 5000 10730 45  0000 C CNN
F 2 "" H 5000 10800 60  0001 C CNN
F 3 "" H 5000 10800 60  0001 C CNN
	1    5000 10900
	1    0    0    -1  
$EndComp
$Comp
L SparkFun-PowerSymbols:GND #GND0125
U 1 1 61242B32
P 6100 9750
F 0 "#GND0125" H 6150 9700 45  0001 L BNN
F 1 "GND" H 6100 9580 45  0000 C CNN
F 2 "" H 6100 9650 60  0001 C CNN
F 3 "" H 6100 9650 60  0001 C CNN
	1    6100 9750
	1    0    0    -1  
$EndComp
$Comp
L SparkFun-PowerSymbols:GND #GND0126
U 1 1 6128E841
P 10850 7650
F 0 "#GND0126" H 10900 7600 45  0001 L BNN
F 1 "GND" H 10850 7480 45  0000 C CNN
F 2 "" H 10850 7550 60  0001 C CNN
F 3 "" H 10850 7550 60  0001 C CNN
	1    10850 7650
	1    0    0    -1  
$EndComp
$Comp
L SparkFun-PowerSymbols:GND #GND0127
U 1 1 612D9855
P 11050 7750
F 0 "#GND0127" H 11100 7700 45  0001 L BNN
F 1 "GND" H 11050 7580 45  0000 C CNN
F 2 "" H 11050 7650 60  0001 C CNN
F 3 "" H 11050 7650 60  0001 C CNN
	1    11050 7750
	1    0    0    -1  
$EndComp
$Comp
L SparkFun-PowerSymbols:GND #GND0128
U 1 1 61324CC2
P 11200 7750
F 0 "#GND0128" H 11250 7700 45  0001 L BNN
F 1 "GND" H 11200 7580 45  0000 C CNN
F 2 "" H 11200 7650 60  0001 C CNN
F 3 "" H 11200 7650 60  0001 C CNN
	1    11200 7750
	1    0    0    -1  
$EndComp
$Comp
L SparkFun-PowerSymbols:GND #GND0129
U 1 1 61370532
P 11550 7950
F 0 "#GND0129" H 11600 7900 45  0001 L BNN
F 1 "GND" H 11550 7780 45  0000 C CNN
F 2 "" H 11550 7850 60  0001 C CNN
F 3 "" H 11550 7850 60  0001 C CNN
	1    11550 7950
	1    0    0    -1  
$EndComp
$Comp
L SparkFun-PowerSymbols:GND #GND0130
U 1 1 613BD175
P 13600 9200
F 0 "#GND0130" H 13650 9150 45  0001 L BNN
F 1 "GND" H 13600 9030 45  0000 C CNN
F 2 "" H 13600 9100 60  0001 C CNN
F 3 "" H 13600 9100 60  0001 C CNN
	1    13600 9200
	1    0    0    -1  
$EndComp
$Comp
L SparkFun-PowerSymbols:GND #GND0131
U 1 1 61409345
P 14800 8400
F 0 "#GND0131" H 14850 8350 45  0001 L BNN
F 1 "GND" H 14800 8230 45  0000 C CNN
F 2 "" H 14800 8300 60  0001 C CNN
F 3 "" H 14800 8300 60  0001 C CNN
	1    14800 8400
	1    0    0    -1  
$EndComp
$Comp
L SparkFun-PowerSymbols:GND #GND0132
U 1 1 614A1C0E
P 15700 7550
F 0 "#GND0132" H 15750 7500 45  0001 L BNN
F 1 "GND" H 15700 7380 45  0000 C CNN
F 2 "" H 15700 7450 60  0001 C CNN
F 3 "" H 15700 7450 60  0001 C CNN
	1    15700 7550
	1    0    0    -1  
$EndComp
$Comp
L SparkFun-PowerSymbols:GND #GND0133
U 1 1 614EE498
P 14850 7300
F 0 "#GND0133" H 14900 7250 45  0001 L BNN
F 1 "GND" H 14850 7130 45  0000 C CNN
F 2 "" H 14850 7200 60  0001 C CNN
F 3 "" H 14850 7200 60  0001 C CNN
	1    14850 7300
	1    0    0    -1  
$EndComp
$Comp
L SparkFun-PowerSymbols:GND #GND0134
U 1 1 6153C27F
P 13700 6350
F 0 "#GND0134" H 13750 6300 45  0001 L BNN
F 1 "GND" H 13700 6180 45  0000 C CNN
F 2 "" H 13700 6250 60  0001 C CNN
F 3 "" H 13700 6250 60  0001 C CNN
	1    13700 6350
	1    0    0    -1  
$EndComp
$Comp
L SparkFun-PowerSymbols:GND #GND0135
U 1 1 615892C1
P 11950 2750
F 0 "#GND0135" H 12000 2700 45  0001 L BNN
F 1 "GND" H 11950 2580 45  0000 C CNN
F 2 "" H 11950 2650 60  0001 C CNN
F 3 "" H 11950 2650 60  0001 C CNN
	1    11950 2750
	1    0    0    -1  
$EndComp
$Comp
L SparkFun-PowerSymbols:GND #GND0136
U 1 1 615D78C3
P 14200 1100
F 0 "#GND0136" H 14250 1050 45  0001 L BNN
F 1 "GND" H 14200 930 45  0000 C CNN
F 2 "" H 14200 1000 60  0001 C CNN
F 3 "" H 14200 1000 60  0001 C CNN
	1    14200 1100
	1    0    0    -1  
$EndComp
$Comp
L SparkFun-PowerSymbols:GND #GND0137
U 1 1 6162606F
P 13350 4150
F 0 "#GND0137" H 13400 4100 45  0001 L BNN
F 1 "GND" H 13350 3980 45  0000 C CNN
F 2 "" H 13350 4050 60  0001 C CNN
F 3 "" H 13350 4050 60  0001 C CNN
	1    13350 4150
	1    0    0    -1  
$EndComp
$Comp
L SparkFun-PowerSymbols:GND #GND0138
U 1 1 61674C4E
P 11150 1050
F 0 "#GND0138" H 11200 1000 45  0001 L BNN
F 1 "GND" H 11150 880 45  0000 C CNN
F 2 "" H 11150 950 60  0001 C CNN
F 3 "" H 11150 950 60  0001 C CNN
	1    11150 1050
	1    0    0    -1  
$EndComp
Wire Wire Line
	10450 2050 10450 1900
Wire Wire Line
	10450 1900 10600 1900
Wire Wire Line
	10600 1900 10600 1950
Wire Wire Line
	9950 2050 10450 2050
Wire Wire Line
	11950 2550 11950 2750
Wire Wire Line
	13350 4000 13350 4150
Wire Wire Line
	13950 1050 14200 1050
Wire Wire Line
	14200 1100 14200 1050
Connection ~ 14200 1050
Wire Wire Line
	14200 1050 14400 1050
Wire Wire Line
	13500 6250 13700 6250
Wire Wire Line
	13700 6350 13700 6250
Connection ~ 13700 6250
Wire Wire Line
	13700 6250 13900 6250
Wire Wire Line
	14850 7300 14850 7250
Connection ~ 14850 7250
Wire Wire Line
	15300 7550 15700 7550
$Comp
L SparkFun-PowerSymbols:GND #GND0139
U 1 1 614556CF
P 15650 8500
F 0 "#GND0139" H 15700 8450 45  0001 L BNN
F 1 "GND" H 15650 8330 45  0000 C CNN
F 2 "" H 15650 8400 60  0001 C CNN
F 3 "" H 15650 8400 60  0001 C CNN
	1    15650 8500
	1    0    0    -1  
$EndComp
Wire Wire Line
	15650 8500 15650 8450
Wire Wire Line
	15500 8450 15650 8450
Wire Wire Line
	14800 8400 14800 8250
Wire Wire Line
	13400 9150 13600 9150
Wire Wire Line
	13600 9200 13600 9150
Connection ~ 13600 9150
Wire Wire Line
	13600 9150 13750 9150
Wire Wire Line
	11550 7950 11550 7800
Wire Wire Line
	11200 7750 11200 7600
Wire Wire Line
	11050 7750 11050 7600
Wire Wire Line
	11050 7600 11100 7600
Wire Wire Line
	11100 7600 11100 7100
Wire Wire Line
	11000 7000 11700 7000
Wire Wire Line
	10850 7650 10850 7550
Connection ~ 10850 7550
Wire Wire Line
	7800 7300 7800 7100
Wire Wire Line
	6800 7100 6800 7300
Wire Wire Line
	6450 7300 6450 7200
$Comp
L SparkFun-PowerSymbols:GND #GND0140
U 1 1 61E005F2
P 6000 6250
F 0 "#GND0140" H 6050 6200 45  0001 L BNN
F 1 "GND" V 6000 6122 45  0000 R CNN
F 2 "" H 6000 6150 60  0001 C CNN
F 3 "" H 6000 6150 60  0001 C CNN
	1    6000 6250
	0    -1   -1   0   
$EndComp
Wire Wire Line
	6000 6250 5850 6250
$Comp
L SparkFun-PowerSymbols:GND #GND0141
U 1 1 61FBC272
P 5150 5850
F 0 "#GND0141" H 5200 5800 45  0001 L BNN
F 1 "GND" H 5150 5680 45  0000 C CNN
F 2 "" H 5150 5750 60  0001 C CNN
F 3 "" H 5150 5750 60  0001 C CNN
	1    5150 5850
	1    0    0    -1  
$EndComp
$Comp
L SparkFun-PowerSymbols:GND #GND0142
U 1 1 6204E38E
P 5500 5800
F 0 "#GND0142" H 5550 5750 45  0001 L BNN
F 1 "GND" H 5500 5630 45  0000 C CNN
F 2 "" H 5500 5700 60  0001 C CNN
F 3 "" H 5500 5700 60  0001 C CNN
	1    5500 5800
	1    0    0    -1  
$EndComp
$Comp
L SparkFun-PowerSymbols:GND #GND0143
U 1 1 620973A8
P 6450 6050
F 0 "#GND0143" H 6500 6000 45  0001 L BNN
F 1 "GND" H 6450 5880 45  0000 C CNN
F 2 "" H 6450 5950 60  0001 C CNN
F 3 "" H 6450 5950 60  0001 C CNN
	1    6450 6050
	1    0    0    -1  
$EndComp
Wire Wire Line
	6450 6050 6450 6000
Wire Wire Line
	5500 5800 5500 5700
Wire Wire Line
	5500 5700 5600 5700
Wire Wire Line
	5150 5850 5150 5750
Wire Wire Line
	8450 6250 8450 6150
Wire Wire Line
	9150 5800 9150 5550
Wire Wire Line
	6100 9750 6100 9650
Wire Wire Line
	5850 9650 6100 9650
Wire Wire Line
	6100 9650 6300 9650
Connection ~ 6100 9650
Wire Wire Line
	5000 10900 5000 10800
Wire Wire Line
	2950 9950 2950 9850
Wire Wire Line
	2400 10350 2450 10350
Wire Wire Line
	2450 10400 2450 10350
Connection ~ 2450 10350
Wire Wire Line
	2450 10350 2500 10350
Wire Wire Line
	3700 8450 3700 8350
Wire Wire Line
	3700 8350 3800 8350
Wire Wire Line
	3700 7850 3700 7750
Wire Wire Line
	3700 7750 3800 7750
Connection ~ 3800 7750
Wire Wire Line
	2350 6150 2350 5950
Wire Wire Line
	800  4450 800  4300
Wire Wire Line
	1050 3700 1050 3550
Wire Wire Line
	950  2200 950  2050
Wire Wire Line
	2050 2000 2050 2150
Wire Wire Line
	3600 2200 3750 2200
Wire Wire Line
	3750 2250 3750 2200
Connection ~ 3750 2200
Wire Wire Line
	3750 2200 3950 2200
Wire Wire Line
	4750 1700 5050 1700
Wire Wire Line
	4100 1050 4200 1050
Wire Wire Line
	6650 1150 6650 1100
Wire Wire Line
	7750 2400 7750 2300
Connection ~ 7750 2300
Wire Wire Line
	6700 2400 6700 2300
Connection ~ 6700 2300
Wire Wire Line
	11150 1050 11150 950 
Wire Wire Line
	11150 950  10700 950 
Wire Wire Line
	6850 4550 6850 4450
Wire Wire Line
	6550 4450 6850 4450
$Comp
L SparkFun-PowerSymbols:GND #GND0144
U 1 1 60B77261
P 6950 5800
F 0 "#GND0144" H 7000 5750 45  0001 L BNN
F 1 "GND" H 6950 5630 45  0000 C CNN
F 2 "" H 6950 5700 60  0001 C CNN
F 3 "" H 6950 5700 60  0001 C CNN
	1    6950 5800
	1    0    0    -1  
$EndComp
Wire Wire Line
	6950 5800 6950 5750
Wire Wire Line
	2050 1450 2450 1450
Wire Wire Line
	2300 1350 2450 1350
Wire Wire Line
	1350 1350 2300 1350
Connection ~ 2300 1350
Wire Wire Line
	2300 1650 2300 1350
Wire Wire Line
	4900 9350 4900 9250
Wire Wire Line
	4900 9250 5100 9250
$Comp
L SW_147873-1:147873-1 EN1
U 1 1 631048AD
P 4050 7600
F 0 "EN1" H 4050 7802 50  0000 C CNN
F 1 "147873-1" H 4050 7711 50  0001 C CNN
F 2 "TL3330AF:TL3330AF" H 4050 7600 50  0001 L BNN
F 3 "" H 4050 7600 50  0001 L BNN
F 4 "147873-1" H 4050 7600 50  0001 L BNN "Comment"
	1    4050 7600
	1    0    0    -1  
$EndComp
$Comp
L SW_147873-1:147873-1 BOOT1
U 1 1 631057CC
P 4050 8200
F 0 "BOOT1" H 4050 8402 50  0000 C CNN
F 1 "IO0" H 4050 8311 50  0001 C CNN
F 2 "TL3330AF:TL3330AF" H 4050 8200 50  0001 L BNN
F 3 "" H 4050 8200 50  0001 L BNN
F 4 "147873-1" H 4050 8200 50  0001 L BNN "Comment"
	1    4050 8200
	1    0    0    -1  
$EndComp
$EndSCHEMATC
