"Item","Qty","Reference(s)","Value","LibPart","Footprint","Datasheet","AVAILABILITY","CUI_PURCHASE_URL","Category","Comment","DESCRIPTION","DK_Datasheet_Link","DK_Detail_Page","Description","Digi-Key_PN","Family","Field4","MANUFACTURER","MAXIMUM_PACKAGE_HEIGHT","MF","MP","MPN","Manufacturer","PACKAGE","PARTREV","PRICE","STANDARD","Status"
"","","BOOT1","IO0","SW_147873-1:147873-1","TL3330AF:TL3330AF","","","","","147873-1","","","","","","","","","","","","","","","","","",""
"","","C1","100nF","Device:C_Small","Capacitor_SMD:C_0805_2012Metric","~","","","","","","","","","","","","","","","","","","","","","",""
"","","C2","100nF","Device:C_Small","Capacitor_SMD:C_0805_2012Metric","~","","","","","","","","","","","","","","","","","","","","","",""
"","","C3","22uF","Device:C_Small","Capacitor_SMD:C_0805_2012Metric","~","","","","","","","","","","","","","","","","","","","","","",""
"","","C4","100nF","Device:C_Small","Capacitor_SMD:C_0805_2012Metric","~","","","","","","","","","","","","","","","","","","","","","",""
"","","C5","100nF","Device:C_Small","Capacitor_SMD:C_0805_2012Metric","~","","","","","","","","","","","","","","","","","","","","","",""
"","","C6","10uF","Device:C_Small","Capacitor_SMD:C_0805_2012Metric","~","","","","","","","","","","","","","","","","","","","","","",""
"","","C7","4.7uF","Device:C_Small","Capacitor_SMD:C_0805_2012Metric","~","","","","","","","","","","","","","","","","","","","","","",""
"","","C8","220nF","Device:C_Small","Capacitor_SMD:C_0805_2012Metric","~","","","","","","","","","","","","","","","","","","","","","",""
"","","C9","4.7uF","Device:C_Small","Capacitor_SMD:C_0805_2012Metric","~","","","","","","","","","","","","","","","","","","","","","",""
"","","C10","100nF","Device:C_Small","Capacitor_SMD:C_0805_2012Metric","~","","","","","","","","","","","","","","","","","","","","","",""
"","","C11","4.7uF","Device:C_Small","Capacitor_SMD:C_0805_2012Metric","~","","","","","","","","","","","","","","","","","","","","","",""
"","","C12","10uF","Device:C_Small","Capacitor_SMD:C_0805_2012Metric","~","","","","","","","","","","","","","","","","","","","","","",""
"","","C13","100nF","Device:C_Small","Capacitor_SMD:C_0805_2012Metric","~","","","","","","","","","","","","","","","","","","","","","",""
"","","C14","100nF","Device:C_Small","Capacitor_SMD:C_0805_2012Metric","~","","","","","","","","","","","","","","","","","","","","","",""
"","","C15","10uF","Device:C_Small","Capacitor_SMD:C_0805_2012Metric","~","","","","","","","","","","","","","","","","","","","","","",""
"","","C16","100nF","Device:C_Small","Capacitor_SMD:C_0805_2012Metric","~","","","","","","","","","","","","","","","","","","","","","",""
"","","C17","22uF","Device:C_Small","Capacitor_SMD:C_0805_2012Metric","~","","","","","","","","","","","","","","","","","","","","","",""
"","","C18","22uF","Device:C_Small","Capacitor_SMD:C_0805_2012Metric","~","","","","","","","","","","","","","","","","","","","","","",""
"","","C19","10uF","Device:C_Small","Capacitor_SMD:C_0805_2012Metric","~","","","","","","","","","","","","","","","","","","","","","",""
"","","C20","22uF","Device:C_Small","Capacitor_SMD:C_0805_2012Metric","~","","","","","","","","","","","","","","","","","","","","","",""
"","","C21","15pF","Device:C_Small","Capacitor_SMD:C_0805_2012Metric","~","","","","","","","","","","","","","","","","","","","","","",""
"","","C22","15pF","Device:C_Small","Capacitor_SMD:C_0805_2012Metric","~","","","","","","","","","","","","","","","","","","","","","",""
"","","C23","1.5nF","Device:C_Small","Capacitor_SMD:C_0805_2012Metric","~","","","","","","","","","","","","","","","","","","","","","",""
"","","C24","100nF","Device:C_Small","Capacitor_SMD:C_0805_2012Metric","~","","","","","","","","","","","","","","","","","","","","","",""
"","","C25","10nF","Device:C_Small","Capacitor_SMD:C_0805_2012Metric","~","","","","","","","","","","","","","","","","","","","","","",""
"","","C26","220nF","Device:C_Small","Capacitor_SMD:C_0805_2012Metric","~","","","","","","","","","","","","","","","","","","","","","",""
"","","C27","15pF","Device:C_Small","Capacitor_SMD:C_0805_2012Metric","~","","","","","","","","","","","","","","","","","","","","","",""
"","","C28","47nF","Device:C_Small","Capacitor_SMD:C_0805_2012Metric","~","","","","","","","","","","","","","","","","","","","","","",""
"","","C29","3.3pF","Device:C_Small","Capacitor_SMD:C_0805_2012Metric","~","","","","","","","","","","","","","","","","","","","","","",""
"","","C30","33pF","Device:C_Small","Capacitor_SMD:C_0805_2012Metric","~","","","","","","","","","","","","","","","","","","","","","",""
"","","C31","100pF","Device:C_Small","Capacitor_SMD:C_0805_2012Metric","~","","","","","","","","","","","","","","","","","","","","","",""
"","","C32","22uF","Device:C_Small","Capacitor_SMD:C_0805_2012Metric","~","","","","","","","","","","","","","","","","","","","","","",""
"","","C33","220nF","Device:C_Small","Capacitor_SMD:C_0805_2012Metric","~","","","","","","","","","","","","","","","","","","","","","",""
"","","C34","47nF","Device:C_Small","Capacitor_SMD:C_0805_2012Metric","~","","","","","","","","","","","","","","","","","","","","","",""
"","","C35","1pF","Device:C_Small","Capacitor_SMD:C_0805_2012Metric","~","","","","","","","","","","","","","","","","","","","","","",""
"","","C36","100nF","Device:C_Small","Capacitor_SMD:C_0805_2012Metric","~","","","","","","","","","","","","","","","","","","","","","",""
"","","C37","10nF","Device:C_Small","Capacitor_SMD:C_0805_2012Metric","~","","","","","","","","","","","","","","","","","","","","","",""
"","","C38","2.2pF","Device:C_Small","Capacitor_SMD:C_0805_2012Metric","~","","","","","","","","","","","","","","","","","","","","","",""
"","","C39","220nF","Device:C_Small","Capacitor_SMD:C_0805_2012Metric","~","","","","","","","","","","","","","","","","","","","","","",""
"","","C40","3pF","Device:C_Small","Capacitor_SMD:C_0805_2012Metric","~","","","","","","","","","","","","","","","","","","","","","",""
"","","C41","3.3pF","Device:C_Small","Capacitor_SMD:C_0805_2012Metric","~","","","","","","","","","","","","","","","","","","","","","",""
"","","D1","SD05_SOD323","Diode:SD05_SOD323","Diode_SMD:D_SOD-323","https://www.littelfuse.com/~/media/electronics/datasheets/tvs_diode_arrays/littelfuse_tvs_diode_array_sd_c_datasheet.pdf.pdf","","","","","","","","","","","","","","","","","","","","","",""
"","","D2","SS24","ss24:SS24","others:DIOM5336X265N","","","","","","","","","","","","","ON Semiconductor","2.65 mm","","","","","","1.1.2","","IPC 7351B",""
"","","D3","SD05_SOD323","Diode:SD05_SOD323","Diode_SMD:D_SOD-323","https://www.littelfuse.com/~/media/electronics/datasheets/tvs_diode_arrays/littelfuse_tvs_diode_array_sd_c_datasheet.pdf.pdf","","","","","","","","","","","","","","","","","","","","","",""
"","","D4","SD05_SOD323","Diode:SD05_SOD323","Diode_SMD:D_SOD-323","https://www.littelfuse.com/~/media/electronics/datasheets/tvs_diode_arrays/littelfuse_tvs_diode_array_sd_c_datasheet.pdf.pdf","","","","","","","","","","","","","","","","","","","","","",""
"","","D5","LED YELLOW","Device:LED","LED_SMD:LED_0805_2012Metric_Castellated","~","","","","","","","","","","","","","","","","","","","","","",""
"","","D6","LED GREEN","Device:LED","LED_SMD:LED_0805_2012Metric_Castellated","~","","","","","","","","","","","","","","","","","","","","","",""
"","","D7","LED RED","Device:LED","LED_SMD:LED_0805_2012Metric_Castellated","~","","","","","","","","","","","","","","","","","","","","","",""
"","","EN1","147873-1","SW_147873-1:147873-1","TL3330AF:TL3330AF","","","","","147873-1","","","","","","","","","","","","","","","","","",""
"","","J1","10118194-0001LF","dk_USB-DVI-HDMI-Connectors:10118194-0001LF","digikey-footprints:USB_Micro_B_Female_10118194-0001LF","http://www.amphenol-icc.com/media/wysiwyg/files/drawing/10118194.pdf","","","Connectors, Interconnects","","","http://www.amphenol-icc.com/media/wysiwyg/files/drawing/10118194.pdf","/product-detail/en/amphenol-icc-fci/10118194-0001LF/609-4618-1-ND/2785382","CONN RCPT USB2.0 MICRO B SMD R/A","609-4618-1-ND","USB, DVI, HDMI Connectors","","","","","","10118194-0001LF","Amphenol ICC (FCI)","","","","","Active"
"","","J2","S2B-PH-K-S(LF)(SN)","S2B-PH-K-S_LF__SN_:S2B-PH-K-S(LF)(SN)","others:JST_S2B-PH-K-S(LF)(SN)","","Unavailable","","","","Connector Header Through Hole, Right Angle 2 position","","","","","","","","4.8mm","JST Sales","S2B-PH-K-S_LF__SN_","","","None","","None","",""
"","","J3","SD CARD","SparkFun-Connectors:CONN_04","Connector_PinHeader_2.54mm:PinHeader_1x04_P2.54mm_Vertical","","","","","","","","","","","","CONN-09696","","","","","","","","","","",""
"","","J4","LCD","SparkFun-Connectors:CONN_14","Connector_PinHeader_2.54mm:PinHeader_1x14_P2.54mm_Vertical","","","","","","","","","","","","XXX-00000","","","","","","","","","","",""
"","","J5","SMA-J-P-H-ST-EM1","SMA-J-P-H-ST-EM1:SMA-J-P-H-ST-EM1","others:SMA-J-P-H-ST-EM1","","","","","","","","","","","","","Samtec","3.675mm","","","","","","G","","Manufacturer Recommendations",""
"","","L1","XFL4020 1.5 uH","XFL4020-102MEC:XFL4020-102MEC","others:XFL4020-102MEC","","","","","","Power inductor, shielded, 20% tol, SMT, RoHS, halogen free","","","","","","","Coilcraft","2.1mm","","","","","","11/02/18","","Manufacturer Recommendations",""
"","","L2","15nH","Device:L_Small","Inductor_SMD:L_0603_1608Metric","~","","","","","","","","","","","","","","","","","","","","","",""
"","","L3","10nH","Device:L_Small","Inductor_SMD:L_0603_1608Metric","~","","","","","","","","","","","","","","","","","","","","","",""
"","","L4","12nH","Device:L_Small","Inductor_SMD:L_0603_1608Metric","~","","","","","","","","","","","","","","","","","","","","","",""
"","","L5","7.5nH","Device:L_Small","Inductor_SMD:L_0603_1608Metric","~","","","","","","","","","","","","","","","","","","","","","",""
"","","L6","12nH","Device:L_Small","Inductor_SMD:L_0603_1608Metric","~","","","","","","","","","","","","","","","","","","","","","",""
"","","L7","12nH","Device:L_Small","Inductor_SMD:L_0603_1608Metric","~","","","","","","","","","","","","","","","","","","","","","",""
"","","L8","18nH","Device:L_Small","Inductor_SMD:L_0603_1608Metric","~","","","","","","","","","","","","","","","","","","","","","",""
"","","L9","12nH","Device:L_Small","Inductor_SMD:L_0603_1608Metric","~","","","","","","","","","","","","","","","","","","","","","",""
"","","LS1","CMI-9653S-SMT","CMI-9653S-SMT:CMI-9653S-SMT","others:CUI_CMI-9653S-SMT","","Unavailable","https://www.cui.com/product/audio/buzzers/audio-indicators/cmi-9653s-smt?utm_source=snapeda.com&utm_medium=referral&utm_campaign=snapedaBOM","","","9.6 mm, 3 Vdc, 80 dB, 2.7 kHz, Surface Mount _SMT_, Driving Circuit, Magnetic Audio Indicator Buzzer","","","","","","","","","CUI Inc.","CMI-9653S-SMT","","","None","","None","",""
"","","Q1","S8050","dk_Transistors-Bipolar-BJT-Single:MMSS8050-H-TP","digikey-footprints:SOT-23-3","https://www.mccsemi.com/pdf/Products/MMSS8050(SOT-23).pdf","","","Discrete Semiconductor Products","","","https://www.mccsemi.com/pdf/Products/MMSS8050(SOT-23).pdf","/product-detail/en/micro-commercial-co/MMSS8050-H-TP/MMSS8050-H-TPMSCT-ND/2825945","TRANS NPN 25V 1.5A SOT23","MMSS8050-H-TPMSCT-ND","Transistors - Bipolar (BJT) - Single","","","","","","MMSS8050-H-TP","Micro Commercial Co","","","","","Active"
"","","Q2","S8050","dk_Transistors-Bipolar-BJT-Single:MMSS8050-H-TP","digikey-footprints:SOT-23-3","https://www.mccsemi.com/pdf/Products/MMSS8050(SOT-23).pdf","","","Discrete Semiconductor Products","","","https://www.mccsemi.com/pdf/Products/MMSS8050(SOT-23).pdf","/product-detail/en/micro-commercial-co/MMSS8050-H-TP/MMSS8050-H-TPMSCT-ND/2825945","TRANS NPN 25V 1.5A SOT23","MMSS8050-H-TPMSCT-ND","Transistors - Bipolar (BJT) - Single","","","","","","MMSS8050-H-TP","Micro Commercial Co","","","","","Active"
"","","Q3","S8050","dk_Transistors-Bipolar-BJT-Single:MMSS8050-H-TP","digikey-footprints:SOT-23-3","https://www.mccsemi.com/pdf/Products/MMSS8050(SOT-23).pdf","","","Discrete Semiconductor Products","","","https://www.mccsemi.com/pdf/Products/MMSS8050(SOT-23).pdf","/product-detail/en/micro-commercial-co/MMSS8050-H-TP/MMSS8050-H-TPMSCT-ND/2825945","TRANS NPN 25V 1.5A SOT23","MMSS8050-H-TPMSCT-ND","Transistors - Bipolar (BJT) - Single","","","","","","MMSS8050-H-TP","Micro Commercial Co","","","","","Active"
"","","Q4","FDN340P","Transistor_FET:FDN340P","Package_TO_SOT_SMD:SOT-23","https://www.onsemi.com/pub/Collateral/FDN340P-D.PDF","","","","","","","","","","","","","","","","","","","","","",""
"","","Q5","S8050","dk_Transistors-Bipolar-BJT-Single:MMSS8050-H-TP","digikey-footprints:SOT-23-3","https://www.mccsemi.com/pdf/Products/MMSS8050(SOT-23).pdf","","","Discrete Semiconductor Products","","","https://www.mccsemi.com/pdf/Products/MMSS8050(SOT-23).pdf","/product-detail/en/micro-commercial-co/MMSS8050-H-TP/MMSS8050-H-TPMSCT-ND/2825945","TRANS NPN 25V 1.5A SOT23","MMSS8050-H-TPMSCT-ND","Transistors - Bipolar (BJT) - Single","","","","","","MMSS8050-H-TP","Micro Commercial Co","","","","","Active"
"","","Q6","FDN340P","Transistor_FET:FDN340P","Package_TO_SOT_SMD:SOT-23","https://www.onsemi.com/pub/Collateral/FDN340P-D.PDF","","","","","","","","","","","","","","","","","","","","","",""
"","","R1","22.1K","Device:R_Small_US","Resistor_SMD:R_0805_2012Metric","~","","","","","","","","","","","","","","","","","","","","","",""
"","","R2","47.5K","Device:R_Small_US","Resistor_SMD:R_0805_2012Metric","~","","","","","","","","","","","","","","","","","","","","","",""
"","","R3","2K","Device:R_Small_US","Resistor_SMD:R_0805_2012Metric","~","","","","","","","","","","","","","","","","","","","","","",""
"","","R4","10K","Device:R_Small_US","Resistor_SMD:R_0805_2012Metric","~","","","","","","","","","","","","","","","","","","","","","",""
"","","R5","10K","Device:R_Small_US","Resistor_SMD:R_0805_2012Metric","~","","","","","","","","","","","","","","","","","","","","","",""
"","","R6","10K","Device:R_Small_US","Resistor_SMD:R_0805_2012Metric","~","","","","","","","","","","","","","","","","","","","","","",""
"","","R7","1K","Device:R_Small_US","Resistor_SMD:R_0805_2012Metric","~","","","","","","","","","","","","","","","","","","","","","",""
"","","R8","150K","Device:R_Small_US","Resistor_SMD:R_0805_2012Metric","~","","","","","","","","","","","","","","","","","","","","","",""
"","","R9","470K","Device:R_Small_US","Resistor_SMD:R_0805_2012Metric","~","","","","","","","","","","","","","","","","","","","","","",""
"","","R10","1K","Device:R_Small_US","Resistor_SMD:R_0805_2012Metric","~","","","","","","","","","","","","","","","","","","","","","",""
"","","R11","1K","Device:R_Small_US","Resistor_SMD:R_0805_2012Metric","~","","","","","","","","","","","","","","","","","","","","","",""
"","","R12","10K","Device:R_Small_US","Resistor_SMD:R_0805_2012Metric","~","","","","","","","","","","","","","","","","","","","","","",""
"","","R13","2K","Device:R_Small_US","Resistor_SMD:R_0805_2012Metric","~","","","","","","","","","","","","","","","","","","","","","",""
"","","R14","1K","Device:R_Small_US","Resistor_SMD:R_0805_2012Metric","~","","","","","","","","","","","","","","","","","","","","","",""
"","","R15","100K","Device:R_Small_US","Resistor_SMD:R_0805_2012Metric","~","","","","","","","","","","","","","","","","","","","","","",""
"","","R16","470K","Device:R_Small_US","Resistor_SMD:R_0805_2012Metric","~","","","","","","","","","","","","","","","","","","","","","",""
"","","R17","560K","Device:R_Small_US","Resistor_SMD:R_0805_2012Metric","~","","","","","","","","","","","","","","","","","","","","","",""
"","","R18","100K","Device:R_Small_US","Resistor_SMD:R_0805_2012Metric","~","","","","","","","","","","","","","","","","","","","","","",""
"","","R19","1K","Device:R_Small_US","Resistor_SMD:R_0805_2012Metric","~","","","","","","","","","","","","","","","","","","","","","",""
"","","R20","100","Device:R_Small_US","Resistor_SMD:R_0805_2012Metric","~","","","","","","","","","","","","","","","","","","","","","",""
"","","R21","56K","Device:R_Small_US","Resistor_SMD:R_0805_2012Metric","~","","","","","","","","","","","","","","","","","","","","","",""
"","","R22","10K","Device:R_Small_US","Resistor_SMD:R_0805_2012Metric","~","","","","","","","","","","","","","","","","","","","","","",""
"","","R23","10","Device:R_Small_US","Resistor_SMD:R_0805_2012Metric","~","","","","","","","","","","","","","","","","","","","","","",""
"","","R24","10K","Device:R_Small_US","Resistor_SMD:R_0805_2012Metric","~","","","","","","","","","","","","","","","","","","","","","",""
"","","R25","10K","Device:R_Small_US","Resistor_SMD:R_0805_2012Metric","~","","","","","","","","","","","","","","","","","","","","","",""
"","","S1","switch","SparkFun-Switches:SWITCH-SPDT-PTH-11.6X4.0MM","K3-1260D:K3-1260D","","","","","","","","","","","","SWCH-08261","","","","","","","","","","",""
"","","U1","ESP32-WROOM-32D","RF_Module:ESP32-WROOM-32D","RF_Module:ESP32-WROOM-32","https://www.espressif.com/sites/default/files/documentation/esp32-wroom-32d_esp32-wroom-32u_datasheet_en.pdf","","","","","","","","","","","","","","","","","","","","","",""
"","","U2","CP2102N-A01-GQFN28","Interface_USB:CP2102N-A01-GQFN28","Package_DFN_QFN:QFN-28-1EP_5x5mm_P0.5mm_EP3.35x3.35mm","https://www.silabs.com/documents/public/data-sheets/cp2102n-datasheet.pdf","","","","","","","","","","","","","","","","","","","","","",""
"","","U3","BMP280","Sensor_Pressure:BMP280","Package_LGA:Bosch_LGA-8_2x2.5mm_P0.65mm_ClockwisePinNumbering","https://ae-bst.resource.bosch.com/media/_tech/media/datasheets/BST-BMP280-DS001.pdf","","","","","","","","","","","","","","","","","","","","","",""
"","","U4","LSM303DLHC","Sensor_Motion:LSM303DLHC","Package_LGA:LGA-14_3x5mm_P0.8mm_LayoutBorder1x6y","http://www.st.com/web/en/resource/technical/document/datasheet/DM00027543.pdf","","","","","","","","","","","","","","","","","","","","","",""
"","","U5","MCP73831-2-OT","MCP7382:MCP73831-2-OT","Package_TO_SOT_SMD:SOT-23-5","","","","","","","","","","","","","","","","","","","","","","",""
"","","U6","TPS63070RNMR","TPS63070RNMR:TPS63070RNMR","others:VREG_TPS63070RNMR","","","","","","","","","","","","","","","","","","","","","","",""
"","","U7","L80-M39","L80-M39:L80-M39","others:XCVR_L80-M39","","Unavailable","","","","L80 is an ultra compact GPS POT _Patch on Top_ module with an embedded 15.0mm × 15.0mm × 4.0mm patch antenna.","","","","","","","","","Quectel","L80","","","Radial Can  Quectel","","None","",""
"","","U8","CC1200","RF:CC1200","Package_DFN_QFN:QFN-32-1EP_5x5mm_P0.5mm_EP3.45x3.45mm","http://www.ti.com/lit/ds/symlink/cc1200.pdf","","","","","","","","","","","","","","","","","","","","","",""
"","","Y1","40 MHZ","SparkFun-Clocks:CRYSTAL-GROUNDEDSMD-3.2X2.5","Crystal:Crystal_SMD_3225-4Pin_3.2x2.5mm","","","","","","","","","","","","XXX-00000","","","","","","","","","","",""



"Collated Components:"

"Item","Qty","Reference(s)","Value","LibPart","Footprint","Datasheet","AVAILABILITY","CUI_PURCHASE_URL","Category","Comment","DESCRIPTION","DK_Datasheet_Link","DK_Detail_Page","Description","Digi-Key_PN","Family","Field4","MANUFACTURER","MAXIMUM_PACKAGE_HEIGHT","MF","MP","MPN","Manufacturer","PACKAGE","PARTREV","PRICE","STANDARD","Status"
"1","1","BOOT1","IO0","SW_147873-1:147873-1","TL3330AF:TL3330AF","","","","","147873-1","","","","","","","","","","","","","","","","","",""
"2","10","C1, C2, C4, C5, C10, C13, C14, C16, C24, C36","100nF","Device:C_Small","Capacitor_SMD:C_0805_2012Metric","~","","","","","","","","","","","","","","","","","","","","","",""
"3","5","C3, C17, C18, C20, C32","22uF","Device:C_Small","Capacitor_SMD:C_0805_2012Metric","~","","","","","","","","","","","","","","","","","","","","","",""
"4","4","C6, C12, C15, C19","10uF","Device:C_Small","Capacitor_SMD:C_0805_2012Metric","~","","","","","","","","","","","","","","","","","","","","","",""
"5","3","C7, C9, C11","4.7uF","Device:C_Small","Capacitor_SMD:C_0805_2012Metric","~","","","","","","","","","","","","","","","","","","","","","",""
"6","4","C8, C26, C33, C39","220nF","Device:C_Small","Capacitor_SMD:C_0805_2012Metric","~","","","","","","","","","","","","","","","","","","","","","",""
"7","3","C21, C22, C27","15pF","Device:C_Small","Capacitor_SMD:C_0805_2012Metric","~","","","","","","","","","","","","","","","","","","","","","",""
"8","1","C23","1.5nF","Device:C_Small","Capacitor_SMD:C_0805_2012Metric","~","","","","","","","","","","","","","","","","","","","","","",""
"9","2","C25, C37","10nF","Device:C_Small","Capacitor_SMD:C_0805_2012Metric","~","","","","","","","","","","","","","","","","","","","","","",""
"10","2","C28, C34","47nF","Device:C_Small","Capacitor_SMD:C_0805_2012Metric","~","","","","","","","","","","","","","","","","","","","","","",""
"11","2","C29, C41","3.3pF","Device:C_Small","Capacitor_SMD:C_0805_2012Metric","~","","","","","","","","","","","","","","","","","","","","","",""
"12","1","C30","33pF","Device:C_Small","Capacitor_SMD:C_0805_2012Metric","~","","","","","","","","","","","","","","","","","","","","","",""
"13","1","C31","100pF","Device:C_Small","Capacitor_SMD:C_0805_2012Metric","~","","","","","","","","","","","","","","","","","","","","","",""
"14","1","C35","1pF","Device:C_Small","Capacitor_SMD:C_0805_2012Metric","~","","","","","","","","","","","","","","","","","","","","","",""
"15","1","C38","2.2pF","Device:C_Small","Capacitor_SMD:C_0805_2012Metric","~","","","","","","","","","","","","","","","","","","","","","",""
"16","1","C40","3pF","Device:C_Small","Capacitor_SMD:C_0805_2012Metric","~","","","","","","","","","","","","","","","","","","","","","",""
"17","3","D1, D3, D4","SD05_SOD323","Diode:SD05_SOD323","Diode_SMD:D_SOD-323","https://www.littelfuse.com/~/media/electronics/datasheets/tvs_diode_arrays/littelfuse_tvs_diode_array_sd_c_datasheet.pdf.pdf","","","","","","","","","","","","","","","","","","","","","",""
"18","1","D2","SS24","ss24:SS24","others:DIOM5336X265N","","","","","","","","","","","","","ON Semiconductor","2.65 mm","","","","","","1.1.2","","IPC 7351B",""
"19","1","D5","LED YELLOW","Device:LED","LED_SMD:LED_0805_2012Metric_Castellated","~","","","","","","","","","","","","","","","","","","","","","",""
"20","1","D6","LED GREEN","Device:LED","LED_SMD:LED_0805_2012Metric_Castellated","~","","","","","","","","","","","","","","","","","","","","","",""
"21","1","D7","LED RED","Device:LED","LED_SMD:LED_0805_2012Metric_Castellated","~","","","","","","","","","","","","","","","","","","","","","",""
"22","1","EN1","147873-1","SW_147873-1:147873-1","TL3330AF:TL3330AF","","","","","147873-1","","","","","","","","","","","","","","","","","",""
"23","1","J1","10118194-0001LF","dk_USB-DVI-HDMI-Connectors:10118194-0001LF","digikey-footprints:USB_Micro_B_Female_10118194-0001LF","http://www.amphenol-icc.com/media/wysiwyg/files/drawing/10118194.pdf","","","Connectors, Interconnects","","","http://www.amphenol-icc.com/media/wysiwyg/files/drawing/10118194.pdf","/product-detail/en/amphenol-icc-fci/10118194-0001LF/609-4618-1-ND/2785382","CONN RCPT USB2.0 MICRO B SMD R/A","609-4618-1-ND","USB, DVI, HDMI Connectors","","","","","","10118194-0001LF","Amphenol ICC (FCI)","","","","","Active"
"24","1","J2","S2B-PH-K-S(LF)(SN)","S2B-PH-K-S_LF__SN_:S2B-PH-K-S(LF)(SN)","others:JST_S2B-PH-K-S(LF)(SN)","","Unavailable","","","","Connector Header Through Hole, Right Angle 2 position","","","","","","","","4.8mm","JST Sales","S2B-PH-K-S_LF__SN_","","","None","","None","",""
"25","1","J3","SD CARD","SparkFun-Connectors:CONN_04","Connector_PinHeader_2.54mm:PinHeader_1x04_P2.54mm_Vertical","","","","","","","","","","","","CONN-09696","","","","","","","","","","",""
"26","1","J4","LCD","SparkFun-Connectors:CONN_14","Connector_PinHeader_2.54mm:PinHeader_1x14_P2.54mm_Vertical","","","","","","","","","","","","XXX-00000","","","","","","","","","","",""
"27","1","J5","SMA-J-P-H-ST-EM1","SMA-J-P-H-ST-EM1:SMA-J-P-H-ST-EM1","others:SMA-J-P-H-ST-EM1","","","","","","","","","","","","","Samtec","3.675mm","","","","","","G","","Manufacturer Recommendations",""
"28","1","L1","XFL4020 1.5 uH","XFL4020-102MEC:XFL4020-102MEC","others:XFL4020-102MEC","","","","","","Power inductor, shielded, 20% tol, SMT, RoHS, halogen free","","","","","","","Coilcraft","2.1mm","","","","","","11/02/18","","Manufacturer Recommendations",""
"29","1","L2","15nH","Device:L_Small","Inductor_SMD:L_0603_1608Metric","~","","","","","","","","","","","","","","","","","","","","","",""
"30","1","L3","10nH","Device:L_Small","Inductor_SMD:L_0603_1608Metric","~","","","","","","","","","","","","","","","","","","","","","",""
"31","4","L4, L6, L7, L9","12nH","Device:L_Small","Inductor_SMD:L_0603_1608Metric","~","","","","","","","","","","","","","","","","","","","","","",""
"32","1","L5","7.5nH","Device:L_Small","Inductor_SMD:L_0603_1608Metric","~","","","","","","","","","","","","","","","","","","","","","",""
"33","1","L8","18nH","Device:L_Small","Inductor_SMD:L_0603_1608Metric","~","","","","","","","","","","","","","","","","","","","","","",""
"34","1","LS1","CMI-9653S-SMT","CMI-9653S-SMT:CMI-9653S-SMT","others:CUI_CMI-9653S-SMT","","Unavailable","https://www.cui.com/product/audio/buzzers/audio-indicators/cmi-9653s-smt?utm_source=snapeda.com&utm_medium=referral&utm_campaign=snapedaBOM","","","9.6 mm, 3 Vdc, 80 dB, 2.7 kHz, Surface Mount _SMT_, Driving Circuit, Magnetic Audio Indicator Buzzer","","","","","","","","","CUI Inc.","CMI-9653S-SMT","","","None","","None","",""
"35","4","Q1, Q2, Q3, Q5","S8050","dk_Transistors-Bipolar-BJT-Single:MMSS8050-H-TP","digikey-footprints:SOT-23-3","https://www.mccsemi.com/pdf/Products/MMSS8050(SOT-23).pdf","","","Discrete Semiconductor Products","","","https://www.mccsemi.com/pdf/Products/MMSS8050(SOT-23).pdf","/product-detail/en/micro-commercial-co/MMSS8050-H-TP/MMSS8050-H-TPMSCT-ND/2825945","TRANS NPN 25V 1.5A SOT23","MMSS8050-H-TPMSCT-ND","Transistors - Bipolar (BJT) - Single","","","","","","MMSS8050-H-TP","Micro Commercial Co","","","","","Active"
"36","2","Q4, Q6","FDN340P","Transistor_FET:FDN340P","Package_TO_SOT_SMD:SOT-23","https://www.onsemi.com/pub/Collateral/FDN340P-D.PDF","","","","","","","","","","","","","","","","","","","","","",""
"37","1","R1","22.1K","Device:R_Small_US","Resistor_SMD:R_0805_2012Metric","~","","","","","","","","","","","","","","","","","","","","","",""
"38","1","R2","47.5K","Device:R_Small_US","Resistor_SMD:R_0805_2012Metric","~","","","","","","","","","","","","","","","","","","","","","",""
"39","2","R3, R13","2K","Device:R_Small_US","Resistor_SMD:R_0805_2012Metric","~","","","","","","","","","","","","","","","","","","","","","",""
"40","7","R4, R5, R6, R12, R22, R24, R25","10K","Device:R_Small_US","Resistor_SMD:R_0805_2012Metric","~","","","","","","","","","","","","","","","","","","","","","",""
"41","5","R7, R10, R11, R14, R19","1K","Device:R_Small_US","Resistor_SMD:R_0805_2012Metric","~","","","","","","","","","","","","","","","","","","","","","",""
"42","1","R8","150K","Device:R_Small_US","Resistor_SMD:R_0805_2012Metric","~","","","","","","","","","","","","","","","","","","","","","",""
"43","2","R9, R16","470K","Device:R_Small_US","Resistor_SMD:R_0805_2012Metric","~","","","","","","","","","","","","","","","","","","","","","",""
"44","2","R15, R18","100K","Device:R_Small_US","Resistor_SMD:R_0805_2012Metric","~","","","","","","","","","","","","","","","","","","","","","",""
"45","1","R17","560K","Device:R_Small_US","Resistor_SMD:R_0805_2012Metric","~","","","","","","","","","","","","","","","","","","","","","",""
"46","1","R20","100","Device:R_Small_US","Resistor_SMD:R_0805_2012Metric","~","","","","","","","","","","","","","","","","","","","","","",""
"47","1","R21","56K","Device:R_Small_US","Resistor_SMD:R_0805_2012Metric","~","","","","","","","","","","","","","","","","","","","","","",""
"48","1","R23","10","Device:R_Small_US","Resistor_SMD:R_0805_2012Metric","~","","","","","","","","","","","","","","","","","","","","","",""
"49","1","S1","switch","SparkFun-Switches:SWITCH-SPDT-PTH-11.6X4.0MM","K3-1260D:K3-1260D","","","","","","","","","","","","SWCH-08261","","","","","","","","","","",""
"50","1","U1","ESP32-WROOM-32D","RF_Module:ESP32-WROOM-32D","RF_Module:ESP32-WROOM-32","https://www.espressif.com/sites/default/files/documentation/esp32-wroom-32d_esp32-wroom-32u_datasheet_en.pdf","","","","","","","","","","","","","","","","","","","","","",""
"51","1","U2","CP2102N-A01-GQFN28","Interface_USB:CP2102N-A01-GQFN28","Package_DFN_QFN:QFN-28-1EP_5x5mm_P0.5mm_EP3.35x3.35mm","https://www.silabs.com/documents/public/data-sheets/cp2102n-datasheet.pdf","","","","","","","","","","","","","","","","","","","","","",""
"52","1","U3","BMP280","Sensor_Pressure:BMP280","Package_LGA:Bosch_LGA-8_2x2.5mm_P0.65mm_ClockwisePinNumbering","https://ae-bst.resource.bosch.com/media/_tech/media/datasheets/BST-BMP280-DS001.pdf","","","","","","","","","","","","","","","","","","","","","",""
"53","1","U4","LSM303DLHC","Sensor_Motion:LSM303DLHC","Package_LGA:LGA-14_3x5mm_P0.8mm_LayoutBorder1x6y","http://www.st.com/web/en/resource/technical/document/datasheet/DM00027543.pdf","","","","","","","","","","","","","","","","","","","","","",""
"54","1","U5","MCP73831-2-OT","MCP7382:MCP73831-2-OT","Package_TO_SOT_SMD:SOT-23-5","","","","","","","","","","","","","","","","","","","","","","",""
"55","1","U6","TPS63070RNMR","TPS63070RNMR:TPS63070RNMR","others:VREG_TPS63070RNMR","","","","","","","","","","","","","","","","","","","","","","",""
"56","1","U7","L80-M39","L80-M39:L80-M39","others:XCVR_L80-M39","","Unavailable","","","","L80 is an ultra compact GPS POT _Patch on Top_ module with an embedded 15.0mm × 15.0mm × 4.0mm patch antenna.","","","","","","","","","Quectel","L80","","","Radial Can  Quectel","","None","",""
"57","1","U8","CC1200","RF:CC1200","Package_DFN_QFN:QFN-32-1EP_5x5mm_P0.5mm_EP3.45x3.45mm","http://www.ti.com/lit/ds/symlink/cc1200.pdf","","","","","","","","","","","","","","","","","","","","","",""
"58","1","Y1","40 MHZ","SparkFun-Clocks:CRYSTAL-GROUNDEDSMD-3.2X2.5","Crystal:Crystal_SMD_3225-4Pin_3.2x2.5mm","","","","","","","","","","","","XXX-00000","","","","","","","","","","",""
